<svg xmlns="http://www.w3.org/2000/svg" height="480" width="640" viewBox="0 0 640 480">
  <defs>
    <clipPath id="a">
      <path fill-opacity=".67" d="M-84.949 0h682.67v512h-682.67z"/>
    </clipPath>
  </defs>
  <g clip-path="url(#a)" fill-rule="evenodd" transform="translate(79.64) scale(.9375)">
    <path fill="#be0027" d="M-128 0h768.77v512H-128z"/>
    <path d="M105.45 261.14c13.658-16.61 41.95-.399 65.045-12.359-27.358 1.504-42.27-13.129-63.884-11.078 22.395-13.757 41.461 4.5 66.502-2.839-33.165-2.79-31.727-17.615-61.884-19.72 26.788-11.426 40.036 11.75 66.276 6.479-30.927-7.14-35.045-25.356-58.039-29.212 33.608-5.073 31.417 14.794 64.364 17.22-33.441-14.345-24.676-26.797-52.645-37.723 31.297-.74 29.222 20.95 60.93 26.64-27.144-17.22-23.791-32.935-46.149-45.232 26.524.48 29.114 27.629 56.184 36.04-24.148-19.16-17.797-35.313-38.664-52.423 26.383 6.188 22.542 29.61 50.019 44.552-20.363-22.615-12.55-38.805-30.314-57.318 25.374 8.172 15.735 30.432 42.065 51.595-15.094-24.855-5.775-40.707-20.629-61.677 23.559 12.166 12.151 34.872 34.023 57.558-10.295-25.508.015-41.352-10.507-63.941 20.152 15.057 8.166 39.323 24.422 62.472-5.926-31.92 7.841-37.17 3.557-65.124 15.306 18.79-1.802 37.58 9.949 65.26-1.43-31.476 15.294-38.795 12.394-64.067 15.169 22.645-8.507 42.353 1.395 66.605 2.56-29.864 22.185-37.597 22.49-60.836 11.933 21.332-14.111 36.672-9.884 64.955 8.57-31.196 29.476-35.051 31.943-56.025 7.235 24.678-21.265 36.15-19.598 63.5 8.489-27.735 34.62-30.988 39.962-51.475 3.297 26.107-22.4 30.742-29.635 59.585 13.512-23.54 37.143-25.471 47.783-44.09-.835 25.816-29.844 29.2-38.748 53.373 16.725-20.51 37.691-16.95 54.415-35.135-1.765 23.299-31.293 21.982-47.009 46.104 18.136-16.732 45.435-11.718 59.33-26.125-.674 20.608-36.908 19.059-53.996 37.479 21.075-11.545 47.757-4.764 63.225-15.487-2.826 18.068-41.076 13.845-59.356 27.946 25.211-6.985 44.677 3.81 65.102-3.995-9.94 17.587-44.634 6.455-63.054 17.888 21.88-3.705 45.126 9.55 65.091 5.297-6.562 15.201-44.58-.918-65.09 8.538 24.51-.215 40.402 15.434 63.133 14.4-12.363 13.762-45.788-5.163-65.262-1.93 23.76 4.914 41.911 24.601 59.926 25.55-14.784 11.351-42.423-14.498-64.864-11.216 23.105 6.185 42.516 32.472 55.774 33.048-14.284 9.762-42.517-22.464-61.86-21.319 23.495 10.62 34.271 37.515 49.697 41.296-19.099 6.128-37.868-29.217-58.39-30.442 23.771 14.993 25.114 37.918 43.417 48.124-19.257 4.708-32.964-35.167-53.259-38.532 19.49 14.327 22.428 44.931 35.351 54.608-19.607 1.036-26.692-40.714-46.787-46.678 17.216 14.38 13.094 45.58 26.48 58.863-20.426-4.19-17.793-40.538-39.118-52.778 15.32 19.32 7.527 46.846 17.512 62.337-19.87-8.038-11.24-40.568-30.21-58.99 10.348 20.582-.774 44.586 7.387 64.486-18.153-8.854-5.944-47.384-19.856-62.666 6.395 23.786-5.4 43.47-.646 64.794-18.559-21.526 2.817-43.189-13.281-65.125 4.273 25.177-13.336 42.697-10.567 63.771-14.716-17.19 7.905-44.774-3.528-66.478 2.462 24.754-20.276 46.44-18.715 62.03-11.978-19.968 13.298-43.583 6.53-66.286-1.425 23.572-24.37 36.382-28.691 57.856-7.713-23.689 19.564-40.812 17.209-64.09-7.811 22.144-29.982 31.023-37.793 52.484-6.395-23.623 25.914-36.167 26.768-61.02-9.987 23.308-36.522 28.426-45.28 46.264-3.269-23.5 33.808-34.007 35.188-56.275-11.936 21.382-40.97 22.25-50.991 39.254-1.52-23.416 37.582-26.316 43.72-50.825-11.882 18.278-43.734 15.907-56.986 30.767 2.09-21.722 44.388-23.066 51.129-42.6-15.723 15.168-44.963 8.882-61.426 20.913 9.163-21.335 48.838-16.812 57.808-32.267-17.564 9.164-48.68.28-63.997 9.444 13.92-20.206 44.803-8.135 62.28-22.05-28.428 4.143-45.506-7.17-65.182-1.933z" fill="#ff0"/>
    <path d="M355.939 256.111c0 54.8-44.424 99.223-99.223 99.223-54.8 0-99.222-44.424-99.222-99.223 0-54.8 44.424-99.222 99.222-99.222 54.8 0 99.223 44.423 99.223 99.222z" fill="#ff0"/>
    <path d="M343.17 256.307c0 47.644-38.623 86.265-86.265 86.265-47.643 0-86.264-38.622-86.264-86.265s38.622-86.264 86.264-86.264c47.644 0 86.265 38.622 86.265 86.264z" fill="#be0027"/>
    <path d="M331.156 256.487c0 40.911-33.164 74.075-74.074 74.075-40.911 0-74.075-33.165-74.075-74.075 0-40.91 33.165-74.075 74.075-74.075 40.91 0 74.074 33.165 74.074 74.075z" fill="#ff0"/>
    <path d="M194.04 207.95c20.501-.451 46.033 1.418 62.859 14.893 17.859-11.154 39.005-16.311 60.54-14.313l11.025 20.115c-15.989-1.613-31.591.646-50.095 8.124 23.597 18.696 35.395 42.81 34.622 72.144-2.707 3.352-6.963 7.091-9.67 10.443 3.932-28.496-11.09-60.279-32.881-76.978 17.73 25.596 28.304 48.676 25.339 80.46-3.16 1.87-6.9 4.513-10.058 6.383 4.64-28.045-1.933-60.926-22.63-80.074 11.927 17.537 23.855 48.999 16.44 81.04-3.224.968-8.188 3.676-11.411 4.643 8.317-26.239 3.093-59.056-10.832-78.719-13.796 19.794-18.31 50.029-10.445 77.946-3.869-.967-6.77-2.128-10.637-3.095-5.673-30.043 2.193-63.957 15.86-81.62-13.925 8.06-27.078 42.614-23.404 77.946-3.352-1.547-5.932-2.708-9.283-4.256-4.513-26.369 7.413-60.666 24.564-80.46-19.471 12.25-35.266 42.294-32.494 74.658-2.966-2.643-5.739-3.932-8.704-6.575-3.417-28.24 12.894-56.67 32.106-73.691-16.182-7.222-30.043-8.64-50.094-8.318 3.159-6.512 6.125-14.183 9.284-20.695z" fill="#be0027"/>
  </g>
</svg>
