<svg xmlns="http://www.w3.org/2000/svg" height="512" width="512" viewBox="0 0 512 512">
  <path fill="#0065bd" d="M0 0h512v512H0z"/>
  <path d="M0 0l5 3M0 3l5-3" stroke="#fff" stroke-width=".6" transform="scale(102.4 170.66667)"/>
</svg>
