<svg xmlns="http://www.w3.org/2000/svg" height="512" width="512" viewBox="0 0 512 512">
  <g fill-rule="evenodd" stroke-width="1pt">
    <path fill="#fff" d="M0 0h511.994v512.002H0z"/>
    <path fill="#009A49" d="M0 0h170.667v512.002H0z"/>
    <path fill="#FF7900" d="M341.333 0H512v512.002H341.333z"/>
  </g>
</svg>
