<svg xmlns="http://www.w3.org/2000/svg" height="512" width="512" viewBox="0 0 512 512">
  <path fill="#d20000" d="M0 0h512v512H0z"/>
  <path d="M0 0h86.8L256 246.857 425.2 0H512L0 512h86.8L256 265.143 425.2 512H512zm512 204.8v102.4L0 204.8v102.4zM204.8 0L256 219.43 307.2 0zm0 512L256 292.57 307.2 512z" fill="#ffe600"/>
  <circle r="82.286" cy="256" cx="256" fill="#ffe600" stroke="#d20000" stroke-width="18.286"/>
</svg>
