<svg xmlns="http://www.w3.org/2000/svg" height="512" width="512" viewBox="0 0 512 512">
  <defs>
    <clipPath id="a">
      <path fill-opacity=".67" d="M0 0h512v512H0z"/>
    </clipPath>
  </defs>
  <g clip-path="url(#a)">
    <path style="width:0" fill="#fff" d="M0 0h512v512H0z"/>
    <path d="M210.43 363.47s11.562-9.374 22.812-9.374 14.375 7.811 22.188 8.436c7.812.625 14.373-7.812 24.062-8.124 9.688-.312 21.875 6.874 21.875 6.874l-42.499 12.814-48.438-10.626zM186.06 349.72l144.37.625s-12.499-13.437-27.187-13.749c-14.687-.314-10.624 6.25-21.874 7.186-11.249.938-14.064-6.874-24.376-6.562-10.311.312-16.25 6.562-24.061 6.876-7.812.312-17.812-7.814-23.75-7.5-5.938.312-27.187 9.374-27.187 9.374l4.062 3.75zM167.62 332.53l178.12.627c2.812-4.063-8.75-13.75-19.374-14.688-8.752.311-15 9.062-22.188 9.375-7.188.312-15.312-9.064-23.438-8.749-8.124.312-16.562 8.75-24.687 8.75-8.124 0-14.062-9.065-24.374-9.065s-15 10-22.812 9.376c-7.814-.625-14.688-10-22.188-10-7.5 0-20 11.25-22.499 10.625-2.5-.625 3.123 4.688 3.438 3.75z" fill-rule="evenodd" stroke="#083d9c" stroke-width="2pt" fill="#083d9c"/>
    <path stroke-linejoin="round" d="M236.06 233.47l40.938 10.938V185.97c-18.751.938-34.374-35.624-1.25-38.124-32.5-4.688-36.25 3.75-40 12.812l.312 72.811z" fill-rule="evenodd" stroke="#000" stroke-width="2.5" fill="red"/>
    <path d="M210.12 275.97l92.499.312" fill-rule="evenodd" stroke="#083d9c" stroke-linecap="round" stroke-width="5" fill="#083d9c"/>
    <g stroke="#000" stroke-linecap="round" stroke-width="2" fill="none">
      <path d="M214.5 253.78l10.938 14.688M214.5 268.48l11.876-14.374M220.76 252.84l-.312 9.062" stroke-width="4"/>
    </g>
    <g stroke="#000" stroke-linecap="round" stroke-width="2" fill="none">
      <path d="M232 253.78l10.938 14.688M232 268.48l11.876-14.374M238.26 252.84l-.312 9.062" stroke-width="4"/>
    </g>
    <g stroke="#000" stroke-linecap="round" stroke-width="2" fill="none">
      <path d="M249.812 253.78l10.938 14.688M249.812 268.48l11.876-14.374M256.072 252.84l-.312 9.062" stroke-width="4"/>
    </g>
    <g stroke="#000" stroke-linecap="round" stroke-width="2" fill="none">
      <path d="M268.249 253.78l10.938 14.688M268.249 268.48l11.876-14.374M274.509 252.84l-.312 9.062" stroke-width="4"/>
    </g>
    <g stroke="#000" stroke-linecap="round" stroke-width="2" fill="none">
      <path d="M286.061 253.78l10.938 14.688M286.061 268.48l11.876-14.374M292.321 252.84l-.312 9.062" stroke-width="4"/>
    </g>
    <path d="M147.93 276.91l39.374.313v-24.687l-45-2.186 5.626 26.56zM146.06 242.85l41.875 4.063-.312-17.5-40.937-16.25-.626 29.686zM154.5 207.85l32.188 15.624 4.596-4.798s-2.96-2.04-2.813-3.916c.055-1.898 2.977-2.186 3.033-4.246.054-1.899-3.31-2.127-3.346-4.026-.22-2.058 2.592-4.265 2.592-4.265l-29.062-25.312-7.188 30.938zM365.74 277.22h-41.562l-.312-24.062 45.623-3.438-3.75 27.5zM324.49 247.53l49.376-5.936-10.626-28.437-39.062 16.562.312 17.811zM360.43 205.35l-35.625 18.75c-.52-2.032-.962-3.986-3.436-5.626 0 0 2.186-1.25 2.186-3.438 0-2.186-2.813-2.5-2.813-3.75s2.579-2.342 2.735-5.155c-.312-1.953-2.735-4.686-2.266-5.234l27.657-21.172 11.562 25.626zM283.25 247.06l17.811-.78.312-7.19-18.123 7.97zM228.87 246.52l-18.75-.546v-7.5l18.75 8.046zM228.79 244.33l-18.672-9.61v-12.5s-2.188.313-1.875-2.187c.103-5.208 13.723 9.506 20.703 14.297l-.156 10zM283.24 243.16l-.076-8.124s16.872-15.233 20.466-18.047c0 3.125-1.952 5.546-1.952 5.546v11.876l-18.438 8.749zM173.87 174.72c.312.313 18.933 21.009 18.933 21.009.522-1.961 4.816-2.26 9.19-1.947 4.376.312 7.864-.293 7.864 2.833 0 3.124-2.22 2.68-2.22 4.868s3.326 2.005 3.326 4.814c0 2.813-2.412 2.239-2.424 4.416-.007 1.8 2.516 1.896 2.516 1.896l17.734 17.188.078-18.36-36.561-57.343-18.436 20.625zM203.13 153.01c.278.834 24.764 50.642 24.764 50.642s.278-46.747 4.452-49.251l-6.956-12.8-22.26 11.409zM310.81 154.96l-27.651 49.328.036-20.79s2.293-3.496-1.324-3.217c-3.617.278-8.068-.279-8.068-.279l11.129-38.956 25.878 13.913zM339.19 176.1c-.279.556-18.654 19.243-18.654 19.243-.834-2.225-6.39-1.157-11.676-1.157-5.288 0-6.024 1.695-5.744 3.086.557 3.618 2.342.952 2.342 4.292 0 3.338-2.572 2.12-2.802 4.564.256 2.807 4.039 2.114 1.823 4.24L283.2 230.796l.06-19.356 39.511-61.495L339.19 176.1z" fill-rule="evenodd" fill="#ef7d08"/>
    <path stroke-linejoin="round" d="M245.14 286.29c-8.904 14.748-32.708 10.374-38.274.078-1.668-.472-.681-63.52-.681-63.52s-2.66-1.212-2.783-3.15c-.122-1.959 3.617-2.136 3.617-4.642 0-2.504-3.818-1.523-3.894-4.043.016-2.41 4.075-2.078 3.894-4.305-.215-2.51-4.547-2.139-4.73-4.453-.14-1.838 3.098-3.44 3.998-4.267-.582.029-3.009-.036-3.024-.045l-6.818.14c-4.844.005.083 1.056.012 3.85-.044 1.826-2.456 3.041-2.672 4.629-.076 1.63 3.451 2.774 3.496 4.73.04 1.745-3.466 1.864-3.34 3.485.218 2.745 3.105 3.349 3.062 5.01-.044 1.66-3.886 2.293-3.896 3.617.134 2.562.556 64.833.556 64.833 6.122 31.72 41.46 39.79 51.477-1.947zM268.44 286.29c8.904 14.748 32.707 10.374 38.273.078 1.668-.472.682-63.52.682-63.52s2.66-1.212 2.782-3.15c.122-1.959-3.382-2.136-3.382-4.642 0-2.504 3.584-1.523 3.66-4.043-.016-2.41-3.764-2.233-3.582-4.462.214-2.509 3.156-2.216 3.323-4.53.14-1.993-1.847-3.207-2.747-4.033.582.028 2.852-.037 2.868-.045l6.817.14c4.845.005-.083 1.055-.011 3.85.043 1.826 2.455 3.041 2.672 4.629.076 1.63-3.452 2.774-3.497 4.73-.039 1.745 3.467 1.864 3.34 3.485-.217 2.745-3.105 3.348-3.061 5.01.043 1.66 3.886 2.293 3.895 3.617-.133 2.561-.555 64.833-.555 64.833-6.123 31.72-41.46 39.79-51.477-1.947z" fill-rule="evenodd" stroke="#000" stroke-width="2.5" fill="red"/>
    <path d="M236.49 315.3l39.762-.024c.31-.312-8.902-13.732-19.875-12.786-12.223.32-20.527 12.81-19.887 12.81zM363.28 314.33h-54.409s7.042-4.162 8.962-8.002c3.52 1.92 2.56 3.84 9.602 4.16 7.04.32 13.76-8 20.484-7.68 6.72.32 15.36 11.842 15.36 11.522zM148.87 314.33h54.409s-7.042-4.162-8.962-8.002c-3.52 1.92-2.56 3.84-9.602 4.16-7.039.32-13.76-8-20.484-7.68-6.72.32-15.36 11.842-15.36 11.522zM152.93 297.22l38.749.312s-2.5-5.312-2.812-11.874c-10.001-3.436-18.125 7.5-25.313 7.812-7.186.312-14.685-7.812-14.685-7.812l4.06 11.562zM359.81 297.22l-38.75.312s2.5-5.312 2.813-11.874c10-3.436 18.125 7.5 25.313 7.812 7.186.312 14.686-7.812 14.686-7.812l-4.062 11.562zM246.37 297.53l19.686-.623s.314-5.938-10-5.938c-10.311 0-9.373 6.875-9.686 6.561zM234.49 289.1c3.438-1.876 6.562-3.75 8.75-8.126l-13.438.312s-6.247 3.752-9.373 7.814h14.062zM277.93 289.1c-3.438-1.876-6.561-3.75-8.75-8.126l13.438.312s6.248 3.752 9.373 7.814H277.93z" fill-rule="evenodd" stroke="#083d9c" stroke-width="2pt" fill="#083d9c"/>
    <path fill-rule="evenodd" fill="#de2010" d="M-128 384h768v128h-768zM-128 0h768v128h-768z"/>
  </g>
</svg>
