<svg xmlns="http://www.w3.org/2000/svg" xmlns:xlink="http://www.w3.org/1999/xlink" height="512" width="512" viewBox="0 0 512 512">
  <path fill="#20603d" d="M0 0h512v512H0z"/>
  <path fill="#fad201" d="M0 0h512v384H0z"/>
  <path fill="#00a1de" d="M0 0h512v256H0z"/>
  <g transform="translate(374.4 133.76) scale(.7111)">
    <g id="b">
      <path id="a" d="M116.1 0L35.692 4.7l76.452 25.35L33.26 13.776l67.286 44.273L28.56 21.915l53.535 60.18-60.18-53.534 36.135 71.986L13.777 33.26l16.272 78.884L4.7 35.692 0 116.1-1-1z" fill="#e5be01"/>
      <use height="100%" width="100%" xlink:href="#a" transform="scale(1 -1)"/>
    </g>
    <use height="100%" width="100%" xlink:href="#b" transform="scale(-1 1)"/>
    <circle r="34.3" fill="#e5be01" stroke="#00a1de" stroke-width="3.4"/>
  </g>
</svg>
