<svg xmlns="http://www.w3.org/2000/svg" height="512" width="512" viewBox="0 0 512 512">
  <defs>
    <clipPath id="a">
      <path fill-opacity=".67" d="M27.682 0h708.66v708.66H27.682z"/>
    </clipPath>
  </defs>
  <g fill-rule="evenodd" clip-path="url(#a)" transform="translate(-20) scale(.72249)">
    <path fill="#fff" d="M0 0h1063v708.66H0z"/>
    <path fill="#df0000" d="M0 0h1063v354.33H0z"/>
    <path d="M245.165 59.399c-49.08 11.253-85.548 47.594-95.86 97.004-14.008 67.128 29.719 132.855 96.976 146.885-67.952 19.373-138.17-19.688-157.365-87.013-19.193-67.323 19.868-137.541 87.193-156.736 23.634-6.74 45.392-6.783 69.056-.14z" fill="#fff"/>
    <path fill="#fff" d="M202.056 162.445l-18.946-13.81 23.44-.202 7.281-22.303 7.428 22.248 23.458.037-18.854 13.939 7.226 22.32-19.093-13.627-19.001 13.756zM227.986 239.305l-18.946-13.81 23.44-.202 7.281-22.303 7.428 22.248 23.458.037-18.854 13.939 7.226 22.32-19.093-13.627-19.001 13.756zM314.246 238.735l-18.946-13.81 23.44-.202 7.281-22.303 7.428 22.248 23.458.037-18.854 13.939 7.226 22.32-19.093-13.627-19.001 13.756zM339.966 162.505l-18.946-13.81 23.44-.202 7.281-22.303 7.428 22.248 23.458.037-18.854 13.939 7.226 22.32-19.093-13.627-19.001 13.756zM271.676 111.925l-18.946-13.81 23.44-.202 7.281-22.303 7.428 22.248 23.458.037-18.854 13.939 7.226 22.32-19.093-13.627-19.001 13.756z"/>
  </g>
</svg>
