<svg xmlns="http://www.w3.org/2000/svg" xmlns:xlink="http://www.w3.org/1999/xlink" height="512" width="512" viewBox="0 0 512 512">
  <path fill="#74acdf" d="M0 0h512v512H0z"/>
  <path fill="#fff" d="M0 170.67h512v170.67H0z"/>
  <g id="c" transform="translate(-153.6) scale(1.024)">
    <path id="a" d="M396.84 251.31l28.454 61.992s.49 1.185 1.28.859c.79-.327.299-1.512.299-1.512l-23.715-63.956m-.68 24.12c-.347 9.428 5.452 14.613 4.694 23.032-.757 8.42 3.867 13.18 4.94 16.454 1.073 3.274-1.16 5.232-.198 5.698.963.466 3.07-2.12 2.383-6.775-.687-4.655-4.22-6.037-3.39-16.32.83-10.283-4.206-12.678-2.98-22.058" fill="#f6b40e" stroke="#85340a" stroke-width="1.112"/>
    <use height="100%" width="100%" xlink:href="#a" transform="rotate(22.5 400 250)"/>
    <use height="100%" width="100%" xlink:href="#a" transform="rotate(45 400 250)"/>
    <use height="100%" width="100%" xlink:href="#a" transform="rotate(67.5 400 250)"/>
    <path id="b" d="M404.31 274.41c.453 9.054 5.587 13.063 4.579 21.314 2.213-6.525-3.124-11.583-2.82-21.22m-7.649-23.757l19.487 42.577-16.329-43.887" fill="#85340a"/>
    <use height="100%" width="100%" xlink:href="#b" transform="rotate(22.5 400 250)"/>
    <use height="100%" width="100%" xlink:href="#b" transform="rotate(45 400 250)"/>
    <use height="100%" width="100%" xlink:href="#b" transform="rotate(67.5 400 250)"/>
  </g>
  <use height="100%" width="100%" xlink:href="#c" transform="rotate(90 256 256)"/>
  <use height="100%" width="100%" xlink:href="#c" transform="rotate(180 256 256)"/>
  <use height="100%" width="100%" xlink:href="#c" transform="rotate(-90 256 256)"/>
  <circle r="28.445" cy="256" cx="256" fill="#f6b40e" stroke="#85340a" stroke-width="1.536"/>
  <path id="h" d="M265.697 249.917c-1.942 0-3.802.842-4.896 2.592 2.188 1.97 7.021 2.183 10.304-.224-1.422-1.53-3.466-2.368-5.408-2.368zm-.032.448c1.89-.034 3.658.834 3.904 1.696-2.188 2.407-5.684 2.198-7.872.448.958-1.531 2.498-2.117 3.968-2.144z" fill="#843511"/>
  <use height="100%" width="100%" xlink:href="#d" transform="matrix(-1 0 0 1 512.256 0)"/>
  <use height="100%" width="100%" xlink:href="#e" transform="matrix(-1 0 0 1 512.256 0)"/>
  <use height="100%" width="100%" xlink:href="#f" transform="translate(19.315)"/>
  <use height="100%" width="100%" xlink:href="#g" transform="matrix(-1 0 0 1 512.256 0)"/>
  <path d="M251.648 259.932c-.935.17-1.6 1-1.6 1.952 0 1.087.899 1.952 1.984 1.952.642 0 1.231-.304 1.6-.832.757.57 1.807.63 2.368.64.086.002.198 0 .256 0 .561-.01 1.61-.07 2.368-.64.369.528.958.832 1.6.832 1.085 0 1.984-.865 1.984-1.952 0-.951-.665-1.781-1.6-1.952.525.185.864.693.864 1.248a1.31 1.31 0 0 1-1.312 1.312 1.323 1.323 0 0 1-1.312-1.248c-.214.426-1.059 1.695-2.72 1.76-1.661-.065-2.506-1.333-2.72-1.76a1.323 1.323 0 0 1-1.312 1.248 1.31 1.31 0 0 1-1.312-1.312c0-.555.339-1.063.864-1.248zM253.788 265.759c-2.19 0-3.054 1.983-5.024 3.296 1.095-.437 1.956-1.3 3.488-2.176 1.532-.875 2.838.192 3.712.192h.032c.874 0 2.18-1.067 3.712-.192 1.533.876 2.426 1.74 3.52 2.176-1.97-1.313-2.867-3.296-5.056-3.296-.437 0-1.302.236-2.176.672h-.032c-.874-.437-1.739-.672-2.176-.672z" fill="#85340a"/>
  <path d="M253.05 268.35c-.863.038-2.006.211-3.647.703 3.94-.874 4.809.448 6.56.448h.032c1.75 0 2.62-1.323 6.56-.448-4.377-1.312-5.248-.448-6.56-.448h-.032c-.82 0-1.472-.32-2.912-.256z" fill="#85340a"/>
  <path d="M249.6 269.025c-.254.003-.531.005-.832.032 4.596.438 2.387 3.072 7.2 3.072H256c4.813 0 2.636-2.634 7.232-3.072-4.814-.437-3.292 2.4-7.232 2.4h-.032c-3.694 0-2.556-2.48-6.368-2.432zM259.942 276.132a3.94 3.94 0 0 0-3.938-3.939 3.94 3.94 0 0 0-3.939 3.939 4.05 4.05 0 0 1 3.939-3.112 4.047 4.047 0 0 1 3.938 3.112z" fill="#85340a"/>
  <path id="e" d="M238.316 249.876c5.032-4.375 11.376-5.032 14.878-1.75.857 1.148 1.406 2.376 1.632 3.656.44 2.492-.338 5.183-2.29 7.942.22 0 .658.218.877.437 1.737-3.322 2.352-6.734 1.782-9.98a14.147 14.147 0 0 0-.686-2.493c-4.814-3.938-11.377-4.376-16.19 2.189z" fill="#85340a"/>
  <path id="d" d="M246.19 248.566c2.843 0 3.5.657 4.814 1.75 1.314 1.095 1.97.875 2.188 1.095.217.22 0 .874-.437.655-.437-.22-1.314-.655-2.625-1.75-1.314-1.095-2.625-1.094-3.939-1.094-3.938 0-6.126 3.282-6.563 3.063-.437-.22 2.188-3.72 6.563-3.72z" fill="#85340a"/>
  <use height="100%" width="100%" xlink:href="#h" transform="translate(-19.641)"/>
  <circle id="f" cy="252.058" cx="246.313" r="1.969" fill="#85340a"/>
  <path id="g" d="M240.937 253.379c3.72 2.845 7.44 2.626 9.627 1.312 2.188-1.312 2.188-1.75 1.751-1.75-.436 0-.873.438-2.624 1.312-1.752.877-4.376.877-8.752-.874z" fill="#85340a"/>
</svg>
