<svg xmlns="http://www.w3.org/2000/svg" height="512" width="512" viewBox="0 0 512 512">
  <defs>
    <clipPath id="a">
      <path fill-opacity=".67" d="M0 0h512v512H0z"/>
    </clipPath>
  </defs>
  <g clip-path="url(#a)">
    <path fill-rule="evenodd" fill="#3a7dce" d="M0 0h512v512H0z"/>
    <path d="M95.84 237.9c-3.702-7.57-3.702-7.57-3.702-15.14-1.85 0-2.198.356-3.268.058-1.07-.295-1.475 6.98-4.946 5.56-.578-.71 2.488-5.972-.838-8.16-1.07-.712.26-5.028-.203-6.92 0 0-4.22 2.246-7.403-5.678-1.562-2.07-3.702 1.892-3.702 1.892s.925 2.425-.75 3.017c-2.373-1.776-4.11-.845-7.116-3.284-3.008-2.44.637-5.233-5.09-7.303 3.702-9.462 3.702-7.57 12.956-11.354-5.553-3.786-5.553-3.786-9.254-9.464-5.553-1.893-7.404-3.784-12.957-7.57-7.403-9.47-11.105-28.39-11.105-41.64 4.686-4.435 11.105 15.14 20.36 20.817l12.956 5.677c7.403 3.785 9.254 7.57 14.807 11.354l16.658 5.678c7.403 5.677 11.105 13.247 16.658 15.14 6.016 0 7.175-3.542 9.104-3.763 10.88-.57 16.434-2.004 18.603-5.346 2.197-2.66 7.46 1.538 22.267-4.14l-1.85-7.57s3.932-3.31 9.253-1.892c-.144-3.46-.492-12.685 4.75-16.847-3.183-3.414-1.048-5.86-1.048-5.86s2.95-2.9 3.296-4.437c-1.56-8.34 1.354-8.468 2.008-10.92.653-2.454-2.518-1.614-1.624-4.995.893-3.383 6.255-4.186 6.972-6.972.72-2.785-1.528-4.183-1.4-4.848 1.158-2.66.176-8.93 0-11.355 9.95-2.72 13.19-11 16.66-7.57 1.85-11.355 3.7-15.14 14.806-15.14 1.563-3.49-4.05-6.446-1.85-7.57 3.7-.472 6.535-.236 10.875 5.5 1.37 1.82 1.618-2.66 3.006-3.134 1.387-.473 4.71-.48 5.204-2.72.522-2.307 1.273-5.323 3.124-9.107 1.562-3.076 2.776 1.182 4.164 7.214 7.81.296 25.45 2.07 32.853 4.14 5.553 1.48 9.255-1.478 14.576-2.07 3.934 4.022 7.636 1.006 9.718 9.58 2.94 4.628 7.75.415 8.792 1.775 6.19 17.446 27.474 5.677 29.093 5.973 2.718 0 6.038 7.8 8.178 7.607 3.478-.6 2.494-3.024 5.53-2.048-.81 6.564 5.96 14.134 5.96 19.042 0 0 1.647.827 3.173-.63 1.525-1.455 2.928-5.196 4.287-5.107 3.24.473 4.55.898 8.284 1.565 10.036 3.506 15.148 4.297 19.046 6.094 1.813 3.393 3.57 5.13 7.246 4.496 3.037 2.086.822 4.818 2.615 4.995 3.703-1.892 4.918-3.962 8.62-2.07 3.7 1.893 7.403 5.678 9.254 9.463 0 1.892-1.85 9.462 0 20.816.925 3.785 1.373 6.786 5.35 13.277-1.057 6.667 5.003 17.888 5.003 20.727 0 3.784-2.95 5.737-4.8 9.52 7.402 5.68 0 15.14-3.702 20.818 27.763 5.678 14.807 17.032 37.017 11.354-5.553 13.246-3.587 12.183 1.966 25.43-11.106 7.57-.23 9.874-7.634 19.336-.463.592 4.395 8.22 11.22 8.22-1.85 15.14-7.403 9.463-5.552 32.173-14.576-.296-8.677 16.972-18.51 15.14.58 10.82 5.61 11.768 3.703 22.708-7.403 1.892-7.403 1.892-11.105 7.57l-5.553-1.893c-1.85 9.462-5.552 11.354 0 20.817 0 0-7.172.237-9.254 0-.175 3.253 3.18 4.14 3.702 7.57-.29 1.36-10.528 7.333-18.51 7.57-2.08 4.672 5.553 9.64 5.09 12.005-8.676 1.714-12.493 12.596-12.493 12.596s4.453 1.834 3.702 3.785c-2.37-1.775-3.702-1.893-7.403-1.893-1.85.474-6.36-.115-10.687 7.348-4.748 1.602-6.99 1.023-10.59 5.892-1.595-4.64-3.888.044-6.692 1.843-2.8 1.802-6.575 6.28-7.08 6.09.115-1.302 1.734-6.033 1.734-6.033l-9.254 1.893s-.413.04-1.14.116c-.728.074-.533-5.523-2.288-5.32-1.753.204-6.77 7.04-8.48 7.253-1.71.214-2.25-2.174-3.72-1.966-1.472.21-4.34 7.21-5.383 7.396-1.043.186-5.176-4.255-8.718-3.635-18.22 6.566-21.113-12.95-23.947-1.95-3.817-2.07-3.156-.87-7.035.17-2.475.653-2.7-3.345-4.9-3.284-4.405.127-4.173 4.386-6.574 3.114-1.965-8.872-13.824-7.275-14.98-11.06-.94-3.946 5.137-3.928 7.103-6.602 1.502-3.86-1.57-5.323 4.53-9.046 7.948-5.498 3.378-7.57 4.772-11.703 2.493-5.966 2.507-7.423.425-12.686 0 0-6.19-17.032-7.404-17.032-3.7-1.064-3.7 6.268-9.14 8.28-11.104 3.784-30.71-9.582-34.124-9.582-3.123.06-17.588 3.503-17.042-3.872-2.162 7.17-10.115 1.685-10.605 1.685-7.403 0-4.57 5.855-9.545 5.618-2.256-.768-25.044-2.128-25.044-2.128v3.785l-14.807-7.57-12.956-3.784c-11.104-3.786-5.55-13.248-24.06-7.57v-11.355h-9.254c3.7-22.71 0-11.354-1.85-32.172l-7.405 1.893c-7.402-10.232 10.296-8.28-5.55-15.14 0 0 .288-11.298-3.703-7.57-.81.472 1.85 5.676 1.85 5.676-14.806-1.892-18.508-5.677-18.508-20.817 0 0 12.203 1.774 11.104 0-1.735-2.84-3.99-21.29-3.586-22.532-.173-2.484 11.337-8.752 9.11-14.727 1.417-.53 5.58-.59 5.58-.59" fill="#fff"/>
    <path stroke-linejoin="round" d="M595.51 313.51c-.592 1.332-.487 2.662.125 3.612 1.1-1.648.17-2.408-.125-3.612z" stroke="#fff" stroke-linecap="round" stroke-width="2.703" fill="none"/>
    <path stroke-linejoin="round" d="M119.51 164.09s-3.104-.38-2.407 2.344c1.014-2.09 2.344-2.217 2.407-2.344zm.7-6.33c-1.71.064-3.8-.253-3.104 2.47 1.014-2.09 3.04-2.343 3.104-2.47zm11.68 36.29s2.66-.19 1.964 2.534c-1.014-2.09-1.9-2.407-1.964-2.534z" stroke="#fff" stroke-width="2.534" fill="none"/>
  </g>
</svg>
