<svg xmlns="http://www.w3.org/2000/svg" height="512" width="512" viewBox="0 0 512 512">
  <g fill-rule="evenodd">
    <path fill="#ffe700" d="M512.004 511.993H0V0h512.004z"/>
    <path fill="#36a100" d="M512.004 170.664H0V0h512.004z"/>
    <path fill="#006dbc" d="M512.004 511.993H0V341.33h512.004z"/>
  </g>
</svg>
