<svg xmlns="http://www.w3.org/2000/svg" height="512" width="512" viewBox="0 0 512 512">
  <defs>
    <clipPath id="a">
      <path fill-opacity=".67" d="M148.24 0h744.09v744.09H148.24z"/>
    </clipPath>
  </defs>
  <g clip-path="url(#a)" transform="matrix(.7 0 0 .7 -102 0)">
    <path fill-rule="evenodd" fill="#ba0000" d="M1063 744.09H0V0h1063z"/>
    <path d="M556.648 546.465c.29-.88.877-9.946.584-9.946s-13.747-15.795-13.454-15.795 17.257 3.803 17.257 3.217c0-.584 6.727-16.67 6.727-16.964 0-.29 8.19 19.597 8.19 19.597l16.67 7.313-11.7 9.65s2.634 18.72 2.634 19.014c0 .29-11.7-11.116-11.7-11.116l-12.87 1.463s-1.754-5.85-2.338-6.435z" fill-rule="evenodd" fill-opacity=".988" stroke="#000" stroke-width="3.203" fill="#ffef00"/>
    <path d="M466.026 300.69c-11.114 5.722-53.768 54.478-59.618 62.082-4.9 11.04-14.487 25.006-24.362 33.996-10.54 7.974-16.397 18.867-14.945 29.18-.117 12.835 7.078 21.573 12.81 30.604 3.393 4.125 7.958 6.79 12.81 7.116 9.957 1.314 10.84 4.38 15.824 6.278 19.628 26.725 48.91 46.433 70 62.044 13.44 7.085 22.79 14.17 25.992 18.038 6.174 11.79 5.038 23.285 4.192 28.933-5.218 19.692-10.44 39.383-15.657 59.074-2.632 16.087 11.348 12.47 12.1 9.252 6.31-8.19 15.724-2.438 29.178-49.82 6.167-8.304 12.337-16.607 18.504-24.91 0 0 7.12-2.847 7.12-3.558 10.822-12.995 2.58-20.433-3.562-22.773-4.507-1.66-9.014-3.323-13.52-4.983 0 0-15.658-15.657-16.37-15.657-7.44-21.644-43.96-67.85-52.443-74.285-5.872-6.12-8.666-8.726-14.24-12.13-8.57-4.1-11.335-5.433-16.584-7.528-4.37-1.753-1.26-6.55 1.52-8.745 28.926-15.746 51.856-33.245 79.612-51.038 1.422-.95 2.847-1.9 4.27-2.848-3.32-18.978-6.644-37.957-9.964-56.935l-46.26-16.37c-2.426 1.66-4.268 3.322-6.404 4.982z" fill-rule="evenodd" stroke="#000" stroke-width="3.832" fill="#fff"/>
    <path d="M504.73 600.45c.147-.584 28.955-5.85 28.955-5.85s-3.363 10.676-3.51 10.676l-28.662 8.627 3.217-13.454z" fill-rule="evenodd" fill="#ffec00"/>
    <path d="M429.652 491.976c5.557-14.77 20.983-26.465 31.345-29.692" stroke="#000" stroke-width="3.203" fill="none"/>
    <path d="M503.697 600.69c1.86-.524 10.117-2.934 12.522-3.31 2.565-.6 5.12-1.272 7.586-2.067 2.847-.582 4.63-1.117 7.587-1.656 2.316-.884 4.606-1.49 7.083-2.068M498.48 618.5c.24-.322 2.204-2.057 3.615-2.895 1.66-.524 7.337-2.934 9.485-3.31 2.292-.6 4.572-1.272 6.775-2.067 2.544-.582 4.134-1.117 6.777-1.655 2.07-.885 4.113-1.49 6.324-2.07" stroke="#000" stroke-width="3.541" fill="none"/>
    <path d="M510.184 496.157h-.413c1.296 0 .5-.108-1.242 2.068-.62 1.672-5.93 5.377-9.927 5.377-1.928.207-4.893.413-6.824.413-.55 0-1.31-.413-1.862-.413m19.859 77.748h2.066c2.145 0 4.298.38 6.205.413 2.07 0 4.137.586 6.206.586 2.088.294 4.603.198 6.763.506 2.422.082 4.365.56 6.885.56 2.034.076 3.13.415 5.38.415l-5.38-.414c2.034.076 3.13.415 5.38.415m-47.583 47.995c.22-.322 2.018-2.057 3.308-2.895 1.52-.523 6.72-2.932 8.687-3.307 2.098-.6 4.186-1.274 6.204-2.07 2.33-.58 3.786-1.116 6.205-1.654 1.897-.885 3.768-1.49 5.79-2.07m8.559-59.91c-1.17 3.396.345 4.25.972 5.715 1.09 1.42 3.875 3.584 8.274 4.963 1.696.457 3 .904 4.964 1.656 1.3.12 1.94.444 2.895.826M370.79 435.35h.414c-1.297 0-.52.084 1.655-1.656 1.342-1.5 2.464-2.18 3.72-3.72m20.976 34.83c.276 0 24.063-11.988 26.602-14.55 1.8-1.304 3.162-2.68 5.35-4.163 1.404-.732 2.41-1.67 3.725-2.48 1.093-1.584 2.52-2.54 3.308-3.99 1.46-1.265.834-2.637 2.018-4.162.56-1.562 1.607-4.193 1.948-5.622m30.301 17.789c.13.856-.38 3.49-.344 5.497-.08 2.326-3.073 9.51-6.688 11.655" stroke="#000" stroke-width="3.203" fill="none"/>
    <path d="M428.066 447.362c.14 0 3.76 1.177 9.812 3.04 7.285 2.618 22.435 12.165 23.94 13.48 1.534 1.208 4.28 2.287 5.332 3.72 1.646 1.423 2.852 3.064 4.137 4.55 1.51 1.844 2.8 3.403 3.722 4.965 4.6 3.73 16.975 29.565 17.37 31.023a62.84 62.84 0 0 1 2.07 4.55c.918 1.058 1.54 2.552 2.482 4.138.865 2.056 1.833 2.993 2.897 4.55 1.368.952 3.214 2.758 4.963 3.722 1.864 1.595 3.613 2.244 4.963 3.31 1.95.83 23.75 14.61 24.763 15.3 1.99 1.6 8.07 7.9 3.802 12.485-1.812 1.55-3.443 3.602-4.99 4.48-1.576 1.577-3.77 2.283-5.58 3.1-9.823 2.902-14.825 1.862-16.756 1.862h-2.07M379.92 398.64c2.792 1.092 1.665.285 4.178 1.43 1.69.74 2.802.758 4.462 1.363 1.76.565 6.68 1.452 9.045 3.825 1.735 1.567 3.058 2.89 4.964 4.034 2.252 1.554 3.88 2.246 6.673 3.412 2.357.88 4.992 1.86 7.375 1.943 2.477.144 3.07.022 5.447.022h5.792-5.792 5.792" stroke="#000" stroke-width="3.203" fill="none"/>
    <path d="M379.272 426.244c6.203-.413 16.543 1.45 16.75 1.45l13.65-.208c7.172-.692 8.756-3.447 9.928-5.38 2.688-4.134 4.55-5.582 6.62-8.684 3.307-2.482 7.86 3.308 8.066 3.308 11.58 10.963 2.273 24.405 1.653 24.818-5.79 5.31-7.033 5.653-10.548 2.275-3.517-4.137-4.55-5.996-7.445-7.445-5.583-2.69-17.166-.62-17.375-.62-.206 0-5.997 2.275-5.997 2.275-2.827 1.033-4.62 3.517-9.513 4.34-4.964.347-6.62-.136-9.1-4.133-3.31-5.17-1.656-11.376 3.31-11.996z" fill-rule="evenodd" stroke="#000" stroke-width="3.203" fill="#ffe606"/>
    <path d="M703.114 175.363c-.91.178-9.1 4.11-8.956 4.366s-7.03 19.722-7.174 19.466-5.142-16.906-5.653-16.62c-.508.287-17.827 2.307-18.083 2.45-.253.144 13.07-16.742 13.07-16.742l-1.796-18.116 14.147 5.47s15.028-11.47 15.283-11.614c.253-.142-3.956 15.647-3.956 15.647l7.583 10.502s-4.24 4.396-4.463 5.19z" fill-rule="evenodd" fill-opacity=".988" stroke="#000" stroke-width="3.203" fill="#ffef00"/>
    <path d="M533.29 374.804c10.434 6.884 73.837 20.17 83.332 21.543 12.025-1.138 28.897.373 41.572 4.575 12.116 5.28 24.482 5.046 32.76-1.273 11.246-6.188 15.336-16.742 20.4-26.165 1.932-4.98 2.02-10.264-.076-14.654-3.734-9.32-1.495-11.594-2.282-16.868 13.676-30.207 16.505-65.39 19.778-91.423-.412-15.19 1.183-26.81 2.985-31.498 7.25-11.16 17.827-15.803 23.165-17.834 19.72-5.1 39.444-10.2 59.165-15.302 15.313-5.588 5.308-16 2.135-15.08-10.23-1.486-9.83-12.512-57.727-1.018l-30.78-3.923s-5.97-4.81-6.59-4.46c-16.632-3.067-19.078 7.76-18.107 14.263.763 4.742 1.523 9.486 2.284 14.228 0 0-5.974 21.32-5.626 21.94-15.22 17.094-37.877 71.982-39.328 82.53-.687 9.91-4.43 8.12-3.427 17.755.038 7.53-.838 2.83 1.675 18.34.613 4.668-5.094 4.307-8.368 2.96-27.9-17.5-54.393-28.91-83.505-44.384l-4.574-2.326-44.744 36.586 8.4 48.347c2.637 1.302 4.99 2.093 7.483 3.14z" fill-rule="evenodd" stroke="#000" stroke-width="3.832" fill="#fff"/>
    <path d="M775.614 194.163c-.58.158-19.29-22.373-19.29-22.373s10.956-2.3 11.028-2.172l21.566 20.755-13.304 3.79z" fill-rule="evenodd" fill="#ffec00"/>
    <path d="M717.855 312.766c-15.598 2.395-33.353-5.32-41.244-12.772" stroke="#000" stroke-width="3.203" fill="none"/>
    <path d="M776.33 194.945c-1.368-1.364-7.515-7.38-9.02-9.293-1.78-1.943-3.62-3.84-5.522-5.6-1.902-2.197-3.242-3.488-5.16-5.802-1.906-1.586-3.556-3.285-5.275-5.16m43.06 21.673c-.4-.052-2.873-.913-4.295-1.73-1.27-1.192-6.152-4.96-7.532-6.648-1.647-1.703-3.35-3.36-5.123-4.892-1.754-1.933-3-3.056-4.764-5.096-1.786-1.37-3.316-2.856-4.903-4.5" stroke="#000" stroke-width="3.541" fill="none"/>
    <path d="M682.033 240.52l.202.36c-.635-1.13-.34-.383 2.412.07 1.76-.28 7.592 2.532 9.552 6.017 1.124 1.58 2.757 4.063 3.704 5.747.27.48.28 1.344.552 1.826m58.038-55.415l-.203-.36-.81-1.44c-1.05-1.87-1.773-3.935-2.68-5.613-1.014-1.803-1.517-3.893-2.53-5.696-.766-1.965-2.083-4.11-2.873-6.144-1.116-2.15-1.652-4.08-2.887-6.276-.93-1.81-1.17-2.93-2.274-4.893l2.274 4.893c-.93-1.81-1.17-2.93-2.274-4.893m65.156 17.957c-.39-.035-2.782-.75-4.145-1.465-1.202-1.07-5.85-4.42-7.14-5.95-1.553-1.535-3.162-3.025-4.844-4.395-1.65-1.746-2.83-2.753-4.485-4.598-1.7-1.22-3.144-2.554-4.64-4.033M725.72 188.12c3.535-.645 3.536-2.384 4.506-3.65.703-1.646 1.225-5.134.272-9.644-.434-1.702-.683-3.058-.99-5.138-.532-1.192-.563-1.908-.698-2.928m-31.47 225.065l-.2-.36c.634 1.13.326.41-2.256-.632-1.967-.435-3.11-1.08-5.067-1.42M709.9 354.06c-.136-.24-22.243-15.1-25.72-16.058-2.02-.93-3.887-1.442-6.25-2.623-1.328-.865-2.64-1.282-3.99-2.03-1.916-.178-3.448-.953-5.097-.93-1.82-.653-2.708.566-4.62.28-1.634.278-4.44.655-5.854 1.058m.658-35.13c.682-.532 3.23-1.38 4.96-2.394 2.067-1.07 9.795-1.982 13.437.118" stroke="#000" stroke-width="3.203" fill="none"/>
    <path d="M679.743 336.012c-.068-.12-.817-3.854-2.16-10.042-1.287-7.633-.39-25.518.02-27.473.3-1.93-.105-4.852.63-6.473.433-2.13 1.272-3.987 1.938-5.836.867-2.22 1.595-4.107 2.504-5.676.998-5.84 17.452-29.287 18.53-30.347a62.736 62.736 0 0 1 2.952-4.033c.47-1.318 1.47-2.593 2.39-4.19 1.368-1.763 1.71-3.066 2.546-4.757.158-1.66.83-4.153.81-6.15.478-2.407.187-4.25.455-5.95-.234-2.106 1.095-27.862 1.2-29.082.42-2.52 2.932-10.91 9.02-9.434 2.238.82 4.826 1.235 6.35 2.154 2.147.6 3.838 2.166 5.438 3.345 7.343 7.138 8.887 12.008 9.834 13.69l1.013 1.805M660.75 401.014l-.2-.36c.546.973.243.488-.452-1.646-.183-1.835-.75-4.317-1.035-6.06-.37-1.812-1.22-3.876-.99-5.14-.648-1.84-.24-3.358-.066-5.18.515-2.28.748-3.93.81-6.152.252-2.726.05-4.658.206-7.234-.718-2.12-.865-3.896-1.96-6.015-.973-2.026-1.718-3.9-2.883-5.972l-2.838-5.05 2.838 5.05-2.838-5.05" stroke="#000" stroke-width="3.203" fill="none"/>
    <path d="M685.248 388.895c-3.4-5.205-6.845-15.13-6.946-15.31 0-.003-6.87-11.8-6.87-11.8-4.118-5.91-7.296-5.94-9.554-6.016-4.922-.318-7.097-1.23-10.815-1.514-3.784-1.667-.968-8.474-1.07-8.654 3.88-15.466 20.16-13.94 20.824-13.603 7.465 2.444 8.373 3.358 7.152 8.078-1.884 5.093-3 6.905-2.843 10.138.393 6.185 7.873 15.267 7.975 15.45.1.18 4.922 4.11 4.922 4.11 2.286 1.96 5.33 2.305 8.447 6.167 2.735 4.157 3.125 5.837.857 9.96-2.886 5.416-9.105 7.017-12.08 2.992z" fill-rule="evenodd" stroke="#000" stroke-width="3.203" fill="#ffe606"/>
    <path d="M301.203 245.146c.647.663 8.423 5.36 8.558 5.1s20.353-4.922 20.218-4.662-11.327 13.563-10.807 13.833c.52.27 11.697 13.652 11.957 13.787.258.134-21.166-1.76-21.166-1.76l-14.17 11.424-3.175-14.83s-17.827-6.29-18.088-6.424c-.258-.134 15.257-5.262 15.257-5.262l4.632-12.096s6 1.14 6.787.89z" fill-rule="evenodd" fill-opacity=".988" stroke="#000" stroke-width="3.203" fill="#ffef00"/>
    <path d="M561.083 277.965c.042-12.5-23.575-72.82-27.628-81.516-7.54-9.438-15.517-24.38-18.945-37.286-2.22-13.028-9.19-23.245-19.01-26.71-11.337-6.018-22.408-3.658-33.064-2.732-5.224 1.11-9.694 3.932-12.218 8.09-5.754 8.23-8.882 7.602-12.862 11.15-32.763 5.106-63.746 22.012-87.318 33.536-12.48 8.665-23.077 13.697-27.985 14.757-13.308.047-22.987-6.258-27.61-9.61-15.07-13.705-30.14-27.412-45.212-41.116-13.063-9.75-16.294 4.324-13.785 6.474 4.362 9.373-5.08 15.08 30.77 48.85 4.528 9.3 9.054 18.602 13.58 27.9 0 0-.752 7.63-.12 7.958 6.545 15.593 16.944 11.707 21.85 7.333l10.653-9.704s21.11-6.68 21.438-7.31c22.637 3.368 80.967-7.745 90.586-12.31 8.668-4.854 9.22-.742 16.73-6.86 6.278-4.154 2.826-.846 14.425-11.445 3.57-3.07 6.394 1.9 7.06 5.38.646 32.926 5.612 61.34 8.614 94.17.188 1.7.374 3.402.56 5.102l55.12 17.39 35.844-33.51c-.355-2.92-.982-5.32-1.47-7.982z" fill-rule="evenodd" stroke="#000" stroke-width="3.832" fill="#fff"/>
    <path d="M277.215 174.195c.45.4-8.15 28.392-8.15 28.392s-7.926-7.904-7.858-8.034l5.55-29.413 10.458 9.055z" fill-rule="evenodd" fill="#ffec00"/>
    <path d="M408.077 157.544c10.55 11.738 13.82 30.818 11.91 41.5" stroke="#000" stroke-width="3.203" fill="none"/>
    <path d="M277.478 173.167c-.392 1.892-2.06 10.33-2.834 12.637-.65 2.554-1.23 5.13-1.66 7.687-.796 2.796-1.142 4.625-2.027 7.497-.282 2.463-.8 4.774-1.428 7.24m-5.457-47.896c.175.362.81 2.904.904 4.542-.3 1.714-.777 7.863-1.434 9.942-.523 2.31-.977 4.644-1.286 6.966-.656 2.526-.914 4.184-1.654 6.777-.168 2.244-.573 4.337-1.078 6.566" stroke="#000" stroke-width="3.541" fill="none"/>
    <path d="M367.26 227.09l.19-.367c-.596 1.15-.133.493-1.262-2.056-1.2-1.32-2.04-7.74-.198-11.287.705-1.808 1.888-4.534 2.778-6.248.254-.49.97-.972 1.225-1.462m-78.153-18.197l-.19.367-.76 1.467c-.99 1.904-2.32 3.638-3.227 5.317-.953 1.836-2.427 3.4-3.38 5.237-1.224 1.718-2.298 3.994-3.566 5.77-1.188 2.11-2.508 3.616-3.67 5.853-1.004 1.768-1.81 2.584-2.847 4.582l2.848-4.582c-1.005 1.768-1.81 2.584-2.848 4.582m-20.67-64.346c.184.345.896 2.74 1.046 4.27-.236 1.59-.493 7.316-1.067 9.235-.435 2.138-.8 4.3-1.024 6.458-.558 2.336-.753 3.875-1.39 6.27-.09 2.09-.414 4.03-.832 6.092m49.227 35.2c-2.474-2.604-3.93-1.65-5.52-1.77-1.762.314-4.966 1.788-8.217 5.056-1.187 1.296-2.184 2.248-3.756 3.644-.706 1.098-1.288 1.516-2.068 2.188m205.526-96.965l-.19.366c.597-1.15.164-.5.706 2.232.715 1.884.8 3.193 1.59 5.018m-40.579 2.564c-.127.246-.448 26.88.655 30.314.33 2.198.923 4.042 1.23 6.667.004 1.582.373 2.908.486 4.448.902 1.7 1.093 3.406 2.016 4.773.45 1.88 1.956 1.957 2.764 3.71 1.128 1.217 2.98 3.36 4.09 4.32m-29.748 18.694c-.82-.28-2.923-1.945-4.72-2.837-2.027-1.145-7.024-7.11-7.262-11.307" stroke="#000" stroke-width="3.203" fill="none"/>
    <path d="M448.403 176.694c-.064.124-2.777 2.795-7.218 7.308-5.68 5.258-21.135 14.304-22.994 15.034-1.78.805-4.002 2.745-5.76 3.018-2.02.806-4.032 1.12-5.944 1.575-2.332.49-4.31.916-6.12 1.015-5.43 2.364-34.06 1.443-35.538 1.123a63.599 63.599 0 0 1-4.99-.26c-1.362.327-2.975.19-4.817.296-2.222-.18-3.5.247-5.372.475-1.475.776-3.93 1.58-5.59 2.69-2.275.918-3.656 2.172-5.225 2.88-1.635 1.348-23.91 14.346-24.988 14.926-2.337 1.03-10.732 3.523-12.833-2.378-.54-2.322-1.61-4.715-1.675-6.492-.675-2.126-.29-4.398-.18-6.382 1.948-10.054 5.176-14.014 6.066-15.728l.953-1.836m207.008-36.983l-.19.366c.514-.99.274-.47-1.13 1.28-1.435 1.158-3.202 2.99-4.504 4.185-1.312 1.303-2.574 3.144-3.756 3.643-1.184 1.55-2.68 2.042-4.3 2.895-2.19.817-3.696 1.526-5.59 2.69-2.417 1.284-3.923 2.51-6.163 3.792-1.38 1.762-2.786 2.857-3.96 4.934-1.16 1.924-2.32 3.574-3.415 5.683l-2.67 5.14 2.67-5.14-2.67 5.14m17.082 106.269l.38-.735c-.704 1.358-.457 1.002.206-1.29.006-2.75.66-6.077.686-8.502.413-2.568.832-5.342.86-7.943-.157-3.042-.152-5.768-.607-8.703-.035-2.702-.35-5.502-.43-8.148-.05-2.622-.246-4.867-.815-7.412-.052-1.906-.17-4.52-.633-6.855.248-1.84-.275-3.532-.667-5.005-.712-2.835-.988-4.49-1.736-7.427-.45-1.574-.894-3.586-1.573-5.944-.244-2.234-1.44-5.134-1.926-7.06-.664-1.417-1.334-3.334-1.59-5.02-.696-1.553-1.686-3.45-1.956-5.21-.733-1.34-1.513-3.427-2.323-5.4-.698-1.623-1.212-3.622-1.955-5.21-.75-2.007-1.664-3.722-2.132-5.767-.717-.695-.88-1.456-1.264-2.054" stroke="#000" stroke-width="3.203" fill="none"/>
    <path d="M489.628 143.12c-2.49 5.695-8.908 14.015-9.004 14.198l-6.106 12.21c-2.69 6.684-.974 9.36.2 11.29 2.43 4.29 2.858 6.61 4.658 9.875.678 4.08-6.558 5.452-6.654 5.636-15.064 5.225-22.706-9.23-22.787-9.97-2.044-7.585-1.777-8.845 2.84-10.408 5.293-1.216 7.42-1.276 10.04-3.177 4.958-3.717 8.46-14.95 8.555-15.135.095-.183.744-6.37.744-6.37.386-2.986-.993-5.72.53-10.444 1.98-4.565 3.172-5.81 7.864-6.172 6.112-.553 10.858 3.773 9.12 8.466z" fill-rule="evenodd" stroke="#000" stroke-width="3.203" fill="#ffe606"/>
    <path d="M469.84 290.15c-2.276-2.067 42.81 16.337 49.014 16.546 8.48-3.102 43.433-32.676 43.433-32.676.345 2.895 1.584 10.41 4.96 11.996-13.51 10.962-25.78 21.508-39.292 32.468.966 17.373-2.205 35.78 6.618 55.22 0 0-10.546.206-10.546 0-9.307-9.306-12.618-54.184-12.618-54.184-14.822-6.62-29.645-13.03-44.466-19.648 2.138-1.38 3.86-5.652 2.896-9.722z" fill-rule="evenodd" fill-opacity=".987" stroke="#000" stroke-width="3.203" fill="#ffef00"/>
    <path d="M512.74 336.15c.72-.523-8.133 4.113-10.407 5.277-40.96 21.85-62.04 53.634-63.354 54.835-.71 1.354-2.012 3.16-3.205 4.93-.96 1.482-2.338 3.017-3.246 4.517-1.256 1.737-3.894 5.17-5.335 6.693-.18.982.683-.336.4.317M540.73 310.18c-.795-.402 7.378 5.35 9.453 6.84 38.166 26.43 76.072 30.638 77.74 31.257 1.53.01 3.73.343 5.85.595 1.758.175 3.752.698 5.502.82 2.12.32 6.378 1.096 8.393 1.68.954-.29-.61-.452.098-.5" stroke="#000" stroke-width="3.203" fill="none"/>
  </g>
</svg>
