<svg xmlns="http://www.w3.org/2000/svg" height="512" width="512" viewBox="0 0 512 512">
  <defs>
    <clipPath id="a">
      <path fill-opacity=".67" d="M151.69-.347h745.12v745.12H151.69z"/>
    </clipPath>
  </defs>
  <g fill-rule="evenodd" clip-path="url(#a)" transform="translate(-104.23 .239) scale(.68714)">
    <path fill="#ffe900" d="M-5.3 0h1073.5v744.09H-5.3z"/>
    <path d="M-5.838 0l1.246 536.41L830.738-.35-5.832 0z" fill="#35a100"/>
    <path d="M1069.5 744.09l-1.9-557.75-842.62 558.17 844.52-.42z" fill="#c70000"/>
    <path d="M-5.3 576.85l.708 167.92 182.28-.24 890.3-596.88-1-146L886.848 0-5.332 576.85z"/>
    <path fill="#fff" d="M818.048 269.088l-64.225-2.242-25.28 60.153-14.313-61.51-64.235-2.152 55.38-35.764-14.425-61.479 48.54 39.402 55.323-35.853-25.377 60.121zM417.468 529.468l-64.225-2.242-25.28 60.153-14.313-61.51-64.235-2.152 55.38-35.764-14.425-61.479 48.54 39.402 55.323-35.853-25.377 60.121z"/>
  </g>
</svg>
