<svg xmlns="http://www.w3.org/2000/svg" height="512" width="512" viewBox="0 0 512 512">
  <defs>
    <clipPath id="a">
      <path fill-opacity=".67" d="M0 0h512v512H0z"/>
    </clipPath>
  </defs>
  <g fill-rule="evenodd" clip-path="url(#a)">
    <path fill="#fff" d="M0 0h512v512H0z"/>
    <path d="M-108.238.239l.856 368.58L466.598-.001l-574.84.238z" fill="#3662a2"/>
    <path d="M630.69 511.53l-1.347-383.25-578.98 383.54 580.33-.283z" fill="#38a100"/>
    <path d="M-107.868 396.61l.486 115.39 125.25-.16 611.76-410.14-.69-100.32L505.178.239l-613.05 396.37z" fill="#c70000"/>
    <g>
      <path fill="#ffe700" d="M154.085 183.389l-23.183-13.997-13.413 23.577-13.05-23.73-23.393 13.742.572-27.1-27.107.212 14.045-23.21-23.554-13.366 23.754-13.097-13.693-23.368 27.099.52-.16-27.104 23.183 14 13.413-23.58 13.05 23.73 23.393-13.739-.572 27.1 27.103-.214-14.042 23.211 23.552 13.368-23.754 13.096 13.696 23.366-27.099-.52z"/>
      <path d="M167.768 119.933c0 27.247-22.261 49.336-49.721 49.336s-49.722-22.089-49.722-49.336 22.262-49.336 49.722-49.336 49.72 22.088 49.72 49.336z" fill="#3662a2"/>
      <path d="M156.976 119.932c0 21.5-17.43 38.93-38.93 38.93s-38.929-17.43-38.929-38.93 17.43-38.929 38.93-38.929 38.929 17.43 38.929 38.93z" fill="#ffe700"/>
    </g>
  </g>
</svg>
