<svg xmlns="http://www.w3.org/2000/svg" height="512" width="512" viewBox="0 0 512 512">
  <g fill-rule="evenodd" stroke-width="1pt">
    <path fill="#fff" d="M0 0h511.993v504.294H0z"/>
    <path fill="#f10600" d="M0 0h511.993v167.86H0z"/>
    <path d="M0 344.123h511.993v167.86H0z"/>
  </g>
</svg>
