<svg id="Layer_1" data-name="Layer 1" xmlns="http://www.w3.org/2000/svg" viewBox="0 0 376.9 168.9">
  <defs>
    <style>
      .cls-1, .cls-2 {
        font-size: 47.64px;
        font-family: Modern No. 20;
      }

      .cls-1 {
        fill: #fff;
      }

      .cls-3 {
        fill: #d19d0d;
        stroke: #d19d0d;
        stroke-width: 0.25px;
      }

      .cls-3, .cls-4 {
        stroke-miterlimit: 10;
      }

      .cls-4 {
        fill: #dd0707;
        stroke: #dd0707;
        stroke-width: 0.5px;
      }
    </style>
  </defs>
  <title>logo</title>
  <g>
    <text class="cls-1" transform="translate(0 126.2)">GUO</text>
    <text class="cls-2" transform="translate(0 126.2)">GUO</text>
  </g>
  <g>
    <text class="cls-1" transform="translate(214 126.2)">M<tspan x="41.8" y="0">EDIA</tspan></text>
    <text class="cls-2" transform="translate(214 126.2)">M<tspan x="41.8" y="0">EDIA</tspan></text>
  </g>
  <path d="M159.2,80.8h3.6l0.5-.5a3.2,3.2,0,0,1,1.2-.5h0.5a0.5,0.5,0,0,0,.5-0.2l0.6-.9-0.3-.2-1.5-.9a14.4,14.4,0,0,0-3.1-1.2l-3.4-.6A14.7,14.7,0,0,1,155,75a4.7,4.7,0,0,0,2.7,2.1,9.2,9.2,0,0,1,4.4,1.1l-2.5-.5h-2.5l-2.6.4-1.9.4,1.2,0.9,0.4,0.2h0.1a16,16,0,0,1,7.9.2,20.7,20.7,0,0,0-3.6-.2l-3.7.4-3.1.7-0.7.2a7.3,7.3,0,0,0,3.5.8A21.2,21.2,0,0,1,159.2,80.8Zm-0.1-13.2a11.6,11.6,0,0,1-.2-1.4,9.6,9.6,0,0,1,3,1.5l-0.3-.5h0a47.6,47.6,0,0,1-6.2-6.5,28.3,28.3,0,0,1-3.5-5.4h-0.2l-0.6-.2-1.6-.7a12.5,12.5,0,0,0,3.2,7.5A38.1,38.1,0,0,0,159.1,67.6Zm0.1-3.6,1.9,1.9,0.3,0.2L161.1,65a12.1,12.1,0,0,1,2.2,1l0.4,0.3a8.8,8.8,0,0,1-.4-1.2,63.8,63.8,0,0,1-5.4-6.9,29.2,29.2,0,0,1-3.1-5.9l-0.2-.2L153,50.8l-1.6-1.5c-0.3,2.7,1,5.5,2.4,7.8A42,42,0,0,0,159.2,64Zm1.4-3.1,2,2.6,0.5,0.6h0a10.3,10.3,0,0,1,0-1.9l0.7,0.5,1.2,1.2,0.8,0.9a11.2,11.2,0,0,1-.6-2.2c0-.2-0.1-0.4-0.1-0.7a45.2,45.2,0,0,1-4.4-6.6l-0.4-.5c-1.6-2.1-3.2-4.3-4.5-6.5a23.9,23.9,0,0,1-1.4-2.6c-0.5,2.7.3,5.5,1.4,7.9A42.2,42.2,0,0,0,160.7,60.9Zm-0.9-9.3a52.1,52.1,0,0,0,3,5.7l1.8,2.8,0.7,0.9h0a0.6,0.6,0,0,1,1-.1,11.6,11.6,0,0,1,1.6,1.9,11.9,11.9,0,0,1-.4-2.1,3.2,3.2,0,0,1,.1-1.5,0.5,0.5,0,0,1,.9-0.1,9.9,9.9,0,0,1,1.5,2V60.1L168.1,57c-3.1-5.4-6.1-10.8-8.8-16.3a42.8,42.8,0,0,1-2.2-5.3,17.1,17.1,0,0,0-.2,7.7A37.1,37.1,0,0,0,159.8,51.6Zm-5.7,32.5a21,21,0,0,1,3.8-1.2,24.5,24.5,0,0,1,4.1-.4l0.4-1V81.1a20.4,20.4,0,0,0-7.3.9,11.9,11.9,0,0,0-5.1,2.9h2.1Zm-50-43.9a66.2,66.2,0,0,0,5.2,6.4l2.3,2.4,0.7,0.7a1.5,1.5,0,0,1,0-.4,0.5,0.5,0,0,1,.8-0.5,3.2,3.2,0,0,1,1.2.7,9.4,9.4,0,0,1-.6-2.2,1.8,1.8,0,0,1,0-.8V46.3c-1.3-1.5-2.5-3.1-3.7-4.8s-3.1-4.8-4.5-7.4a102.1,102.1,0,0,1-7.2-16.6c-0.4-1.3-.8-2.6-1.2-3.8s0-.2-0.1-0.2a1.2,1.2,0,0,0-.8.5,2.2,2.2,0,0,0-.5,1.4,36.2,36.2,0,0,0,.1,4.6,33.6,33.6,0,0,0,.8,4.5A46,46,0,0,0,104.1,40.2Zm46.3,50.4,2.5-1a14,14,0,0,1,4.6-.7l-2.4.5-2.8.9-1.3.6-1.2.7-0.5.3,0.9,1.1a8.7,8.7,0,0,1,3.2-1,14.8,14.8,0,0,1,3.5,0,17.6,17.6,0,0,0-4.2.6,7,7,0,0,0-2,.8l1.7,1.5c1.6-.9,3.6-0.7,5.3-0.4a17.8,17.8,0,0,0-3.4.4l-1.3.5,0.6,0.4a21.6,21.6,0,0,0,4.1,2,1.3,1.3,0,0,1,0-.8,1.6,1.6,0,0,1,1.2-1,1.1,1.1,0,0,1-.7-1.1,1.4,1.4,0,0,1,1.2-.9,1.3,1.3,0,0,1-.8-1.1,1.1,1.1,0,0,1,1.1-.8,2.4,2.4,0,0,1-1.1-1.2A0.7,0.7,0,0,1,159,90a1.7,1.7,0,0,1,.5-1.4,2.5,2.5,0,0,1,.6-2.4,1,1,0,0,0,.4-0.4,1.6,1.6,0,0,0-.1-0.6,1.4,1.4,0,0,1,.3-1c0.3-.5.7-0.8,1.1-1.3h-0.2l-2,.2a20.2,20.2,0,0,0-3.9.9,21,21,0,0,0-3.6,1.6,16.6,16.6,0,0,0-2.9,2l1.8,0.6,1.1-.5a16.7,16.7,0,0,1,5.1-1.4l-2.6.8-2.9,1.4a13.3,13.3,0,0,0-2.6,1.7l-0.6.5,0.5,0.7ZM115,49.9a15.7,15.7,0,0,0,1.9,3.1,12.5,12.5,0,0,0,2.4,2.3l1.1,0.7h0.1a12,12,0,0,1-.9-2.1l-0.3-1a34.4,34.4,0,0,1-2.7-3l-1.6-2-0.6-.8-0.2-.2a4.1,4.1,0,0,0,.3,1.4A13.4,13.4,0,0,0,115,49.9Zm63.7,6.2L179,56a0.8,0.8,0,0,1,.9.6,23.6,23.6,0,0,1,.9,3.3,13.4,13.4,0,0,1,.8-3.2,1,1,0,0,1,.9-0.8,1,1,0,0,1,.6.5,6.7,6.7,0,0,1,.9,2.1,16.4,16.4,0,0,1,1.1-4.5l0.2-.4a84.4,84.4,0,0,1-.2-9.1c0.1-3.1.3-6.2,0.7-9.2a76.3,76.3,0,0,1,1.7-9.5c0.3-1.2.7-2.5,1.1-3.7l0.3-2.1c0.5-2.8,1.1-5.6,1.7-8.5a76.6,76.6,0,0,1,2.2-7.8,16,16,0,0,0,.7-2.1,6.5,6.5,0,0,0,.1-1,2.9,2.9,0,0,0,0-.5V-0.1h-0.1l-0.3.2-0.8.7-1.3,1.7a50.6,50.6,0,0,0-7.5,16,83.2,83.2,0,0,0-2.9,17.9,92.3,92.3,0,0,0,.5,16.2v0.5a40.8,40.8,0,0,1-1.2-7.5,73.1,73.1,0,0,1-.1-8.5q0-1.1.1-2.2c-0.1-4.6-.1-9.2.2-13.7,0.2-2.9.5-5.9,0.9-8.8A42.9,42.9,0,0,1,182,8a7.4,7.4,0,0,0,.3-1.6c0-.3-0.1-0.3-0.3-0.3a2,2,0,0,0-.8.6A10.8,10.8,0,0,0,180,8.5l-1,1.9a34.7,34.7,0,0,0-1.7,3.9,42.6,42.6,0,0,0-2,8.8,69.2,69.2,0,0,0,.3,18.1A109.5,109.5,0,0,0,178.7,56.2Zm10.4-18a47.5,47.5,0,0,1,1.4-5.4,34.1,34.1,0,0,1,2.6-6.2c0.3-3.5.7-7.1,1.2-10.6,0.2-1.7.5-3.4,0.9-5.1a33.2,33.2,0,0,0-2.7,4,42.5,42.5,0,0,0-2.6,5.7A61.1,61.1,0,0,0,187,31.6a91.5,91.5,0,0,0-1.3,14.3c0,1.5,0,3.1,0,4.6s0,1.5.1,2.3v0.4a0.5,0.5,0,0,1,.5.1,3.5,3.5,0,0,1,.6,1.6,19.4,19.4,0,0,1,.3,2.4c0.1,0.7.1,1.3,0.1,2a19.2,19.2,0,0,1,.7-1.9l0.4-.9a1.5,1.5,0,0,1,.6-0.7,0.5,0.5,0,0,1,.6.2,4.6,4.6,0,0,1,.5,1.9,22.4,22.4,0,0,1,.2,2.4,21,21,0,0,1,1.7-3.7l0.2-.4c-0.1-3,0-6.1.2-9.1s0.5-6.2.8-9.3a95.6,95.6,0,0,1,2.5-14,16.2,16.2,0,0,0-1.7,2.4,30,30,0,0,0-2,3.9,46.3,46.3,0,0,0-2.3,7.3,53,53,0,0,0-1.2,12c0,0.9,0,1.8,0,2.7a29.9,29.9,0,0,1-.5-6.9A45.5,45.5,0,0,1,189.1,38.2Zm-27.5,5.7,2,3.9,4.4,8.1,1.7,3h0.1a8.2,8.2,0,0,1,0-.9,1.1,1.1,0,0,1,.5-1.1,1.1,1.1,0,0,1,1,.7l0.8,1.2,0.3,0.5a6,6,0,0,1,0-1.5,82,82,0,0,1-5.7-12,74.6,74.6,0,0,1-4.6-17.3,36.5,36.5,0,0,1-.3-5.2c0-.4,0-0.7,0-1.1s0-.8.1-1.3a1.6,1.6,0,0,0-.2-1.1,1.6,1.6,0,0,0-.5.7l-0.4,1a15.8,15.8,0,0,0-.6,2.2,28.4,28.4,0,0,0-.4,4.6,54.2,54.2,0,0,0,.6,8.8A60.4,60.4,0,0,0,161.6,43.9Zm32,72.3a1.2,1.2,0,0,0,.3.8l1.2,1.9a15.5,15.5,0,0,0,2.6,2.9L198,122h0a0.6,0.6,0,0,0-.1-0.4,8.4,8.4,0,0,1-.9-1.5,8.5,8.5,0,0,1-.8-3l-1.9-.8A0.7,0.7,0,0,0,193.7,116.2ZM157.8,69.8a13.6,13.6,0,0,1,2.7.9,7.8,7.8,0,0,1-1.2-2.3l-2.9-2.2-2.1-.7-2.4-.3a23.6,23.6,0,0,0,3.2,2.9l2,1.4,0.5,0.3h0.2ZM89.7,17.5a44.4,44.4,0,0,0,2.2,7.9l0.5,1.1c1.5,2.7,3.1,5.5,4.8,8.1A128.7,128.7,0,0,0,107,48.4c1.3,1.5,2.6,3,3.9,4.4l0.7,0.7a1.2,1.2,0,0,1-.1-1c0.3-.5,1.1-0.2,1.5.1l1.1,1.1h-0.1a21,21,0,0,1-1.4-2.9c-1.4-1.3-2.8-2.7-4.2-4.2a65.9,65.9,0,0,1-5.3-6.6,45.1,45.1,0,0,1-7.3-15.8,62.4,62.4,0,0,1-3.1-6.6q-0.8-2-1.6-4.1l-0.7-2.1c-0.8-2.7-1.2-1.9-1.3-1.6A10.1,10.1,0,0,0,89,13,44.4,44.4,0,0,0,89.7,17.5Zm74.7,19.5A92.4,92.4,0,0,0,170.4,53l1.8,3.6,0.4,0.7a0.9,0.9,0,0,1,.4-0.4,0.8,0.8,0,0,1,1,.4,17.1,17.1,0,0,1,1.2,2.2,6.6,6.6,0,0,1,.1-1.2L174.7,57q-1.8-3.7-3.3-7.4a75.6,75.6,0,0,1-4.7-16.7,38.9,38.9,0,0,1,1-17.6l-0.9.8a9.9,9.9,0,0,0-1.7,3.6,35.8,35.8,0,0,0-1.1,8.9,55.8,55.8,0,0,0,.2,6.4q0.1,0.8.2,1.6v0.5Zm30.7,18.6,0.8-1.8,0.3-.9c0.3-.7,0-0.5-0.1-0.5a13.9,13.9,0,0,0-1.7,1.7,23.4,23.4,0,0,0-2.2,3.2,28.2,28.2,0,0,0-1.6,3.5c-0.4,1-.7,2.1-1,3.1a14.8,14.8,0,0,1,.2-1.7V62.1c0-.4,0-0.9,0-1.3a24,24,0,0,0-.2-2.9,7.8,7.8,0,0,0-.2-1.1c-0.2-.7-0.4-0.4-0.4-0.3l-0.3.6-0.4,1a19.4,19.4,0,0,0-.7,1.9l-0.3,1.2a20,20,0,0,1-.2,2.6q-0.1-2.4-.3-4.7c-0.1-.9-0.2-1.9-0.3-2.8s-0.2-.9-0.3-1.4l-0.2-.7c0-.1-0.3-0.6-0.5.1-1.1,2.8-1.4,5.7-1.7,10.8a42.2,42.2,0,0,1,0-5c-0.1,0,0,0-.1-0.1V59.5a12,12,0,0,0-.5-1.8c-0.1-.2-0.6-1.7-1-1.2a4.7,4.7,0,0,0-.6,1.6c-0.2.7-.3,1.3-0.4,2s-0.1.8-.1,1.3,0.5,2.9.7,4.5c-0.7-3.1-1.4-5.9-2.2-8.7-0.4-1.1-.8-0.5-0.8-0.4a11.9,11.9,0,0,0-.5,4,58.6,58.6,0,0,1,1.7,5.7c-1-2.6-2.7-7.3-3.2-8.4s-0.9-.5-0.9-0.4a7.4,7.4,0,0,0-.2,2.7,68.8,68.8,0,0,1,2.8,7c-1.1-2.2-3.3-7.3-4.5-9.4s-1-.7-1-0.1a9.5,9.5,0,0,0,.1,2.4v0.2l0.6,1.1c0.8,1.8,2,4.5,2.9,6.9-0.9-1.8-3.2-6.8-5.4-10.4-0.3-.5-0.7-0.9-0.8-0.2s0,0.4,0,.6,0.1,1.1.1,1.7,0.1,1.2.3,1.8a58,58,0,0,1,3.8,7.8c-1.6-2.8-3.5-6.4-5.3-9.2l-0.6-.8c-0.4-.6-0.8-0.8-0.7.2a16.4,16.4,0,0,0,.9,3.8,55,55,0,0,1,4,6.9c-1.7-2.9-4.1-6.3-6.3-9.2a2.3,2.3,0,0,0-.7-0.7,2,2,0,0,0,0,1,8.9,8.9,0,0,0,.3,1.5,12.9,12.9,0,0,0,.6,1.8l0.3,0.7h0l0.5,0.6,2.1,2.9a17.9,17.9,0,0,1,1.9,3.2,53.2,53.2,0,0,0-3.9-5.1L165.5,65l-1.1-1.2-0.7-.7a7,7,0,0,0,.2,1.9,10,10,0,0,0,.7,2l1.3,1.1a21.3,21.3,0,0,1,4,5.3,24,24,0,0,0-8.1-7.5,6.9,6.9,0,0,0,1.5,2.9l0.8,0.7a21.3,21.3,0,0,1,4.4,5.4,44.2,44.2,0,0,0-3.2-3.6,25.5,25.5,0,0,0-2.9-2.6l-1.6-1-1.3-.6a6.8,6.8,0,0,0,.5,1.7,8.2,8.2,0,0,0,1.1,2l0.5,0.5,0.7,0.4a20.2,20.2,0,0,1,5.1,4.2,26.7,26.7,0,0,0-9.3-5.4,5.8,5.8,0,0,0,1.3,2.1l0.9,0.7h0a9.3,9.3,0,0,1,4.9,2.9,12.3,12.3,0,0,0-2.1-1.4,13.1,13.1,0,0,0-2.4-.9,30.8,30.8,0,0,1-4.3-1.1,3.5,3.5,0,0,0,1.4,2l1.1,0.6h0l1.1,0.2a17.6,17.6,0,0,1,3.4,1,12.4,12.4,0,0,1,2.9,1.8l0.2-.2,1-.5h0.4a0.5,0.5,0,0,0,.3-0.3,4.4,4.4,0,0,1,1.1-1.4l1.2-.6,0.5-.2h0.7L172,74l0.5-.7a5.2,5.2,0,0,1,1.1-1.1,0.9,0.9,0,0,1,1.3,0c0.2,0.1.3,0.3,0.5,0.2l0.6-.5a4.8,4.8,0,0,1,1.4-1.3,1.1,1.1,0,0,1,1,.1c0.3,0.2.5,0.5,0.8,0.2a2.3,2.3,0,0,0,.5-0.7l0.6-.8a2.7,2.7,0,0,1,1.1-.8h1.1l0.3-.7a2.1,2.1,0,0,1,2.8-.6l2.3-1.4c0.4-.2,1.2-0.5,1.4.1a0.9,0.9,0,0,1,0,.6h0.6a1.6,1.6,0,0,1,.9,1.2h0a3,3,0,0,0-.9-0.7,1.2,1.2,0,0,0-.9.1l-0.9.5c0.1-.2.9-1.6,0.5-1.6a2.8,2.8,0,0,0-1.3.6l-1.4.8-0.3.2a0.9,0.9,0,0,1-.7-0.1,1.7,1.7,0,0,0-1.7.3,7.5,7.5,0,0,0-1.4,2.7,13.2,13.2,0,0,1,.3-1.6h-0.8a2.4,2.4,0,0,0-1.1.9,3.5,3.5,0,0,1-1.1,1.4,0.9,0.9,0,0,1-.8-0.1l-0.5-.3a1,1,0,0,0-1.1.5,5.6,5.6,0,0,1-1.3,1.3,0.8,0.8,0,0,1-1.1-.2,0.4,0.4,0,0,0-.5-0.1l-0.7.5a5.8,5.8,0,0,0-1,1.2l-0.5.8a0.9,0.9,0,0,1-.6.3l-1.2.4a3.1,3.1,0,0,0-1.2,1,2.2,2.2,0,0,1-.8,1.1l-1,.3a2.7,2.7,0,0,0-1.1,1.1,1.9,1.9,0,0,1-.5.7H165a3,3,0,0,0-1.5.5,3.1,3.1,0,0,0-.7,1.4,5.3,5.3,0,0,1-.7,1.3,7.3,7.3,0,0,0-1.1,1.3,1.4,1.4,0,0,0,0,.9,0.8,0.8,0,0,1-.1.6l-0.5.5a1.6,1.6,0,0,0-.4,1c0,0.1,0,.3,0,0.6a3.8,3.8,0,0,1,1.9-.6,4.6,4.6,0,0,0-2.1,1.4,1.1,1.1,0,0,0-.2.6,2,2,0,0,0,0,.3,4.5,4.5,0,0,1,1.9.1,9,9,0,0,0-2.3.5c-0.2.1-.2,0.2-0.2,0.2v0.2l0.6,0.5,1,0.6,1.3,0.5-2.7.2-0.4.2a0.5,0.5,0,0,0,.3.4l1.8,0.9-1.7.2a1,1,0,0,0-.8.5,1,1,0,0,0,.7.6l1.4,0.5a4.8,4.8,0,0,0-2.1.4,0.9,0.9,0,0,0-.2,1.4h0.1l3,0.8,3.2,0.5H166a39.1,39.1,0,0,0,4.6-.2l6.3-.6c0-.8,0-1.6.1-2.4a30.4,30.4,0,0,1,3.8-12.5,49.3,49.3,0,0,1,5-7.5l2.9-3.4a40,40,0,0,0,2.9-3.4,10,10,0,0,0,1.4-2.6,8.1,8.1,0,0,0,.3-1.3c0.2-1,0-1.1-.2-0.9a8.8,8.8,0,0,0-1.3,1.7,3.4,3.4,0,0,1,.4-1.1h0a37.1,37.1,0,0,1,1.6-6C194.2,58,194.6,56.9,195.2,55.7ZM167,27.6a64.6,64.6,0,0,0,3.6,17.6,108.3,108.3,0,0,0,5,12l0.4-.4a0.8,0.8,0,0,1,1,.5l0.9,2.2a10.2,10.2,0,0,1,.5-2.8,89.1,89.1,0,0,1-3.6-14.9q-0.4-2.6-.6-5.2A67.1,67.1,0,0,1,171,21.2c-0.2-1.8-.3-3.5-0.3-5.3s0-1.8,0-2.7,0.1-.9.1-1.3a1.8,1.8,0,0,0-.2-1.1,1.3,1.3,0,0,0-.5.5l-0.5.9a21,21,0,0,0-.8,2,28.4,28.4,0,0,0-1.2,4.2A36.9,36.9,0,0,0,167,27.6Zm38,86.2a7,7,0,0,0-1.6-1.4l-0.9-.5a2.6,2.6,0,0,1-.1.5,2.2,2.2,0,0,1-1.2,1.4,2.9,2.9,0,0,0,.8-1.1,2.4,2.4,0,0,0-.2-1.8,4.2,4.2,0,0,0-1.3-1.3l-0.3-.2h0c0.1,1,0,2.3-1.2,2.5a1.7,1.7,0,0,0,.7-1.2,5.2,5.2,0,0,0-.2-2,5.1,5.1,0,0,0-1-1.7l-1.5-1.5a24.5,24.5,0,0,0-6.7-4.4,23.2,23.2,0,0,0-4-1.4,25.5,25.5,0,0,0-4.3-.6,52.9,52.9,0,0,0-9,.4,56.9,56.9,0,0,1-6.8.4,13.7,13.7,0,0,0,4.6,1.4,24.6,24.6,0,0,1-5.9.6,23.7,23.7,0,0,0,6.2,1.4,31.9,31.9,0,0,0-8.5,3.1,26.4,26.4,0,0,1,3.9-.2,13.2,13.2,0,0,1,4.5-.6,26.6,26.6,0,0,0-7.8,2.6l3.2-.2,2.4-.5h0.7l-3,.8-4.1,1.7-2.6.8,2,0.3a20.9,20.9,0,0,0,3.4-.2,10.4,10.4,0,0,1,4.7-.8,14.2,14.2,0,0,0-8.4,4.2l2.6-.7,2.4-.3a10.9,10.9,0,0,1,4-1.3c-1.6.4-5.6,2.1-7.7,5.1l2.8-1.1,3.8-1.8-2.1,1.4-1.5,1.5a17.1,17.1,0,0,0-1.4,1.9,41.1,41.1,0,0,1,4.1-2.4,16,16,0,0,0-1.4,2.5,16,16,0,0,0,2.9-1.1,14.6,14.6,0,0,1-2.9,3,7.9,7.9,0,0,0,4.6-2.3,8.1,8.1,0,0,1-1.2,3,10.9,10.9,0,0,0,3.7-1.6,11.6,11.6,0,0,1-2.7,3.2,11,11,0,0,0,3.6-1.5,11.8,11.8,0,0,1-2.7,3.3,8.5,8.5,0,0,0,2.8-1.3,6.2,6.2,0,0,1,1.6-1.8h0a10.2,10.2,0,0,0-1.7,3.5h0a22.3,22.3,0,0,1,5.6-4.9,16.8,16.8,0,0,1,8.3-2.8,6.4,6.4,0,0,1,2.1.3,5.1,5.1,0,0,1,1.8,1.1l1.6,1.5,1.6,1.1a7.6,7.6,0,0,1,2.4,2.2l0.5,0.8a0.6,0.6,0,0,0,.7.4c0.3,0,.4,0,0.4-0.3v-0.4a3.3,3.3,0,0,0-.4-1.7l-1-1.6a7.7,7.7,0,0,1-.8-3.6h-0.3l-1-.4a8,8,0,0,0,.5,2.4,8.6,8.6,0,0,0,.7,1.4,1.1,1.1,0,0,1,.2,1.1,4.3,4.3,0,0,1,1.3,2.2l-1-1.3-1.5-1.4a17,17,0,0,1-2.7-3.3l-0.5-.9a4.8,4.8,0,0,1-.5-0.9,0.7,0.7,0,0,1,.1-0.8,1,1,0,0,1,.9-0.1l1.1,0.5,2.1,0.9,3.6,1.3,1.6,0.6h0.2a6.1,6.1,0,0,1-.6-1.1l0.9,1.1a7.2,7.2,0,0,1,1.2,1.4,1.5,1.5,0,0,1,0,1.5l-0.5.8-0.3.5h0c2.2-.9,3.2-3.7,3-6A6.6,6.6,0,0,0,205,113.8Zm-9.7-5.1a5.1,5.1,0,0,0,1.4,2h-0.3l-0.7-.4-0.7-.6a9.3,9.3,0,0,0-1.1-1.5h-0.2a3.4,3.4,0,0,0-1.5-.6h0C193.5,107.5,194.7,107.6,195.3,108.6Zm-1.2.6a0.4,0.4,0,1,1-.8.1h0a0.7,0.7,0,1,0,1.2.6l0.2,0.3h0.1a1.2,1.2,0,0,1-1,.8,1.3,1.3,0,0,1-1-.3,1.4,1.4,0,0,1-.4-0.9s0-.1,0-0.1a1.3,1.3,0,0,1,1.2-1.2h0l0.2,0.3v0.3h0v0.2ZM180,117.1a4.3,4.3,0,0,1,5.1-1.9A8.2,8.2,0,0,0,180,117.1Zm-1.3-2c2.4-1.9,5.7-2.8,8.6-.8A12.1,12.1,0,0,0,178.7,115.1Zm8-7.7a15.3,15.3,0,0,1,4.2-.1,8.8,8.8,0,0,1,2.3.8h0.1a1.7,1.7,0,0,0-1,2.4,1.7,1.7,0,0,0,1.5.9,1.7,1.7,0,0,0,1.4-.8l0.8,0.4a1.5,1.5,0,0,0-.1.6,0.4,0.4,0,0,0,.3.3,1,1,0,0,1-.9-0.8,1.9,1.9,0,0,1-1.3.7h-0.2a2.1,2.1,0,0,1-1.8-1,2,2,0,0,1-.2-1.5l0.3-.6A17.1,17.1,0,0,0,186.7,107.3Zm11.7,7.4c-0.2.6-1.2,0.4-1.6,0.3h-1.8a2.8,2.8,0,0,1-1.8-.2,0.9,0.9,0,0,0-1.1.2c-0.3.5,0.2,0.9,0.5,1.3a10.4,10.4,0,0,1,.9,1.5l0.9,1.4a5.3,5.3,0,0,1-1.1-1l-0.6-.8-0.6-.8a1.6,1.6,0,0,1-.7-1.3,1.2,1.2,0,0,1,1.2-1,1.8,1.8,0,0,1,.9.2h3.8a1.1,1.1,0,0,0,.8-0.1,1.1,1.1,0,0,0,.2-0.7,0.8,0.8,0,0,1,.3-0.6C198.3,113.8,198.5,114.4,198.3,114.8Zm2.2-1a0.8,0.8,0,0,0-.1-0.5,0.6,0.6,0,0,0-.5.2,5.3,5.3,0,0,0-1,.9,1.5,1.5,0,0,1,.9-1.4,0.6,0.6,0,0,1,.8.1A0.7,0.7,0,0,1,200.5,113.7ZM88.4,30.8a107.4,107.4,0,0,0,8.2,14.9L99,49l1,1.3c2,1.9,4,3.8,6.1,5.6s3.6,3,5.6,4.4l2.1,1.4a20.2,20.2,0,0,1-2.6-3.6,1.2,1.2,0,0,1-.1-1.4c0.4-.5,1.3-0.1,1.8.1l1.8,0.9-1.3-1.5-0.8-1c-1.6-1.6-3.3-3.2-4.7-4.9s-3.6-4.3-5.2-6.6A165.9,165.9,0,0,1,93.1,29l-0.7-1.2h0L88.6,21l-0.9-1.6-0.9-1.5L85.6,16a1.1,1.1,0,0,0-.5-0.5,0.8,0.8,0,0,0-.4.4,4,4,0,0,0-.4,2,17.8,17.8,0,0,0,.8,4.5A60.8,60.8,0,0,0,88.4,30.8Zm94.7,115.9,0.8-.3H184l0.4,0.3,0.5,0.3h0a3.8,3.8,0,0,0-1.1-1.6,30.2,30.2,0,0,1-3-3,8.6,8.6,0,0,0-1.5-1.5l-1.8-1.2a18.2,18.2,0,0,1-3.5-2.6,6,6,0,0,1-1.7-3.1,6.4,6.4,0,0,1,.4-3.3c0.4-1.1.9-2.1,1.3-3.1l0.5-1.1a9.1,9.1,0,0,1,.2-0.9l0.2-.7a10.5,10.5,0,0,1-3.7,1.1,25.7,25.7,0,0,0,2.8-2.9,8,8,0,0,1-4,1,8.8,8.8,0,0,0,2.7-2.5,6.6,6.6,0,0,1-3.5.9,6.9,6.9,0,0,0,1.7-2.4,6.8,6.8,0,0,1-2.4,1.3,10,10,0,0,1-2.8.3,20.8,20.8,0,0,0,2.9-2.4,12.9,12.9,0,0,1-2.4.7,18.7,18.7,0,0,1,1.1-2,35.6,35.6,0,0,0-3.9,2.4,15.9,15.9,0,0,1,2.5-3.9l-1.2.5a20.4,20.4,0,0,1-3.1,1,14.8,14.8,0,0,1,3.9-4.1l-2,.3a21.6,21.6,0,0,0-3.1,1l0.7-1a9.6,9.6,0,0,1,1.7-1.7l1.2-.8h-0.2a11.2,11.2,0,0,1-5.5-.8l2.6-.7,4.2-1.6h-1.9l-1.7.3,1-.8a10.5,10.5,0,0,1,2.5-1.4l-4.1.2a21,21,0,0,1,7.5-3.4,14.8,14.8,0,0,1-5.5-2.1,28.2,28.2,0,0,0,5.3-.1,8.4,8.4,0,0,1-3.2-1.4h-1.4a26.9,26.9,0,0,1-8.5-2.3,18.6,18.6,0,0,1-6.5-5,32.7,32.7,0,0,1-2.5-3.6q-1.1-1.9-2.1-3.8a60.9,60.9,0,0,1-3.3-8.3l-1.3-4.3a29,29,0,0,0-1.5-4.1,23.7,23.7,0,0,0-2.3-3.6l-2.7-3.6c-1.7-2.3-3.4-4.7-5-7.2l-0.6-1-0.3-.5V52.3a2.3,2.3,0,0,0,0,.6,4.5,4.5,0,0,0,.1.8,13.6,13.6,0,0,0,.5,1.7,27.6,27.6,0,0,0,1.7,3.7c1,1.8,2.1,3.6,3.1,5.4a10.3,10.3,0,0,1-1.3-1.4,9.9,9.9,0,0,0,.9,2.1,42.8,42.8,0,0,0,2.5,3.9,7,7,0,0,1-1.3-1.2l-0.9-1.1h0l-0.6-.4c-0.4-.2-0.5,0-0.4.3l0.3,0.8a13.4,13.4,0,0,0,2.9,3.8,8.8,8.8,0,0,1-1.5-1.2h0l-1.1-.5a0.7,0.7,0,0,0-.6,0,0.3,0.3,0,0,0,0,.4,4.6,4.6,0,0,0,.7,1.1,19.3,19.3,0,0,0,2.6,2.7l-0.9-.3-0.9-.2a2.2,2.2,0,0,0-1.1-.1,1,1,0,0,0,.3.5l0.6,0.6,1.3,1a4.3,4.3,0,0,1-1.6-.7,2.7,2.7,0,0,1-1.1-1.2c-0.2-.6.4-0.8,0.9-0.8H133a10.2,10.2,0,0,1-1.8-2.3c-0.3-.5-0.3-1.3.4-1.3h0.9L131.5,68c-0.3-.5-1-1.6-0.3-2.2a0.8,0.8,0,0,1,.7-0.1,10.9,10.9,0,0,1-.9-1.7,2.5,2.5,0,0,1-.2-1.6h-0.1a30.9,30.9,0,0,1-1.6-2.7l-2-1a20,20,0,0,1-3.1-2.1,19.7,19.7,0,0,1-2.7-2.6l-1.1-1.4-0.5-.8h-0.1v0.2a9.9,9.9,0,0,0,.2,1,11,11,0,0,0,2.3,4.9,31.8,31.8,0,0,0,5,4.6,21.6,21.6,0,0,1-5.5-4.4l-0.8-1.1a2.7,2.7,0,0,0,.2,1.2,8.5,8.5,0,0,0,1.5,2.9,13.4,13.4,0,0,0,5,3.7,11,11,0,0,1-5.1-3.1l-0.8-1h0l-0.3-.2c-0.7-.3-0.6.5-0.5,1a4.3,4.3,0,0,0,1,1.5l1.3,1.3a25.3,25.3,0,0,0,5.8,3.7,22.2,22.2,0,0,1-4.2-1.9h-0.4c-0.4,0-.3.5-0.2,0.7a3.9,3.9,0,0,0,1.4,1.6,9.5,9.5,0,0,0,2.3,1.1,6.9,6.9,0,0,1-2.7-1l-0.3-.2h-0.1a0.4,0.4,0,0,0-.2.5c0.5,1.2,2,2.2,4.4,2.9a17.4,17.4,0,0,1-4.2.1c-0.2,0-.4.1-0.2,0.4l0.7,0.8a10.7,10.7,0,0,0,3.9,1.8c-1.1,0-2,.2-2.1.6a0.7,0.7,0,0,0,.2.6,20,20,0,0,0,3,2.9l-2.3-.3c-0.2,0-.6,0-0.6.3a1.3,1.3,0,0,0,.5.7,7.2,7.2,0,0,0,3.3,1.9H128c-0.4,0-.8.1-0.7,0.3a2.1,2.1,0,0,0,.4.7,4.2,4.2,0,0,0,1.2.9,17.3,17.3,0,0,0,2.9,1.2h-0.1l-2.2-.4-1.4.3c-0.2.1-.6,0.2-0.5,0.5a2.4,2.4,0,0,0,.6.7,9.6,9.6,0,0,0,3.4,1.9,5.8,5.8,0,0,1-3.5-1.2l-0.7-.7a1.5,1.5,0,0,1-.5-0.8,1.3,1.3,0,0,1,1.1-1.2h0.4a3.3,3.3,0,0,1-1.5-1.6c-0.5-1.1.6-1.3,1.7-1.3l-0.4-.2a4.4,4.4,0,0,1-1.4-1.3,0.8,0.8,0,0,1,.4-1.3,2,2,0,0,1,1.2,0,9.9,9.9,0,0,1-1.9-2,0.9,0.9,0,0,1,.4-1.4h0.3A5.1,5.1,0,0,1,124,72a0.7,0.7,0,0,1,.1-1,1.8,1.8,0,0,1,1.2-.1l1.8,0.2a6,6,0,0,1-2.3-1.4,3.2,3.2,0,0,1-.9-1.2,0.8,0.8,0,0,1,.4-1,2.5,2.5,0,0,1-.8-1.2,0.9,0.9,0,0,1,.4-1.1l-1.3-1a7.5,7.5,0,0,1-2.4-3,1.5,1.5,0,0,1,.2-1.6,0.8,0.8,0,0,1,.6-0.2l-0.5-1.1a4.5,4.5,0,0,1-.3-1.5,2.3,2.3,0,0,1,0-.3,13.1,13.1,0,0,1-5.2-5.2l-0.3-.6h0l-0.4-.4a5.7,5.7,0,0,0-1.3-1h-0.3a1.7,1.7,0,0,0,.1.5,9.6,9.6,0,0,0,.5,1.3,25.3,25.3,0,0,0,1.5,2.8l0.7,1.1,0.2,0.3,2.1,2.1a23.5,23.5,0,0,1-4-3.1l-0.6-.6-0.7-.6c-0.4-.3-0.7-0.3-0.4.3l0.5,1,0.7,0.9,3.3,4.2a38.6,38.6,0,0,0-4.6-2.4c-0.1,0-.7-0.2-0.8,0a1.3,1.3,0,0,0,.3.7l1.2,1.9a25.6,25.6,0,0,0,2.4,2.8h0l1,1a45.5,45.5,0,0,0,5.5,4.5,24,24,0,0,1-3.7-2.3l-0.7-.6L114.7,64l-1-.4c-0.2-.1-0.6-0.2-0.6.1a3.7,3.7,0,0,0,.6,1.4,20.3,20.3,0,0,0,6.2,6.1l1.4,0.9a16.3,16.3,0,0,1-3.8-2l-0.5-.2-2.1-.6h-1c-0.4.1-.3,0.4-0.1,0.7a6,6,0,0,0,1.4,1.7,21.2,21.2,0,0,0,5.8,3.5l0.7,0.3-3.6-.6-3.8-.4a2,2,0,0,0-1,.1,1,1,0,0,0,.4.6l0.9,0.6a17.4,17.4,0,0,0,4.3,1.8l1.9,0.6-4.7-.2-2.3-.3c-0.1,0-.7,0-0.6.2a2.1,2.1,0,0,0,.6.7l1.7,1.4a13.7,13.7,0,0,0,3.5,1.8l1.5,0.5h-3.2c-0.3,0-1.6,0-1.5.5a3,3,0,0,0,1.2,1.3,7.9,7.9,0,0,0,1.7.9l3.9,1.2a15.8,15.8,0,0,1-3.4-.5l-1.8-.6c-0.5.3-.3,0.8,0.1,1.1a10.9,10.9,0,0,0,4.1,1.4l2.8,0.4-2,.5-1.9.4-1.6.3c-0.4.1-.3,0.2-0.2,0.3l1,0.8,1.7,0.9a22.8,22.8,0,0,0,3.5,1L121,93.2c-0.7.3-.3,0.6-0.2,0.6a11.1,11.1,0,0,0,4.4.8h-0.1a11.1,11.1,0,0,1-2.7.2c-0.3,1,.9,1.9,1.5,2.2a9.9,9.9,0,0,0,2.9.8,7,7,0,0,0-2.4.8c-0.4.4,1.1,1.1,1.3,1.2a6.7,6.7,0,0,0,2.3.3,3.7,3.7,0,0,1-1.6.3,33.3,33.3,0,0,1-7,2.5,27.4,27.4,0,0,1-4.5.6h-1.3l-0.2.4a1.3,1.3,0,0,0,0,.9,0.9,0.9,0,0,0,.7.5h2.1a34.4,34.4,0,0,0,10.2-3.2c-2.8,2.2-7.5,3.4-10.8,3.8h-0.1v0.2c-0.2.6-.4,1.4,0.2,1.7a3.2,3.2,0,0,0,2,.1l2.2-.4a37.6,37.6,0,0,0,8.9-3.8,24.2,24.2,0,0,1-8.8,4.3,10.1,10.1,0,0,1-2.1,2.9,24.3,24.3,0,0,0,13.4-5.1,18.7,18.7,0,0,1-9.3,5,12.2,12.2,0,0,1-.7,1.7l-0.9,1.6c3.5-.8,9.8-2.6,13.4-6.2a16.3,16.3,0,0,1-6.5,4.6,29.3,29.3,0,0,1-1.3,3.1,23.8,23.8,0,0,0,10.4-6.3,17.2,17.2,0,0,1-7.4,5.8,13.6,13.6,0,0,1-1.7,2,23,23,0,0,0,5.5-1l0.9-.8,2.5-2.1a26.7,26.7,0,0,0,2.9-2.6,13.6,13.6,0,0,1-2.1,2.4l-1.8,1.7-3.2,2.7,3.6-.9,1.9-.7,2.9-1.6a33.7,33.7,0,0,0,3.6-2.9,13.9,13.9,0,0,1-4.2,4,15.8,15.8,0,0,1-1.9,3.5,23,23,0,0,1-2.9,3.2,53.9,53.9,0,0,1-7.1,5.3,17.9,17.9,0,0,0-2.4,1.9l-1.9,1.8,1.2-.2,0.6-.2,0.5-.5h0.1a16.6,16.6,0,0,0-1.3,3.6,9.6,9.6,0,0,0-.2,1.5,11.8,11.8,0,0,1,1.9-2.8,17,17,0,0,0-1.9,4.1,3.8,3.8,0,0,0,0,2.5l0.3,0.5,0.3-.5a7.8,7.8,0,0,1,1.4-1.8l-0.9,1.8-0.5,1.1a4.5,4.5,0,0,0-.3,1l0.7-.4,0.8-.6,1.2-1-0.8.9h0.2a2.3,2.3,0,0,0,1.4-.8,1.5,1.5,0,0,1,1.1-.8l0.4,0.3a1.1,1.1,0,0,1,0,.9c-0.1.3-.3,1.2,0.1,1.3a1.5,1.5,0,0,0,.8-0.2l0.8-.4a11.6,11.6,0,0,0,1.8-1.5h0.1l-0.6,1.5a7.4,7.4,0,0,0-.4,1.5c0,0.2,0,.4,0,0.6a0.6,0.6,0,0,0,.1.5,1.6,1.6,0,0,0,1-.1l2.1-.7c-0.5.9-.9,1.9-1.5,2.8a1.9,1.9,0,0,0,1.2-.3l1.2-.8,0.9-.9a12.7,12.7,0,0,1-2.1,3.9,6,6,0,0,0,2.5-1.2l-1,2.3a5.3,5.3,0,0,0-.5,1.3s0,0.1.1,0.2h0.3a7.2,7.2,0,0,0,2-1.1c-0.2.7-.4,1.3-0.6,2a11.7,11.7,0,0,0-.4,3.7c0,0.2.2,0,.2,0l0.3-.7a9.6,9.6,0,0,1,2.5-3.7c-0.1.8-.5,3.1-0.5,3.6a6.3,6.3,0,0,0-.1.8c0,0.3.2,0.3,0.3,0.3l0.4-.2,0.8-.5,1.2-.7c-0.2.7-.5,1.4-0.6,2.1l-0.2,1.2v0.6a1.8,1.8,0,0,0-.1.5,2.5,2.5,0,0,0,.9-0.8l0.8-.7,0.8-.6a5,5,0,0,0,1-1.4,8.9,8.9,0,0,1-.9,3.8,2.8,2.8,0,0,0,1.9-1.1l0.7-1c-0.2.7-.4,1.4-0.5,2a8.1,8.1,0,0,0,0,4.2,6.8,6.8,0,0,1,.5-1.2,7.2,7.2,0,0,1,.3-1.8,9.5,9.5,0,0,0,.4,3.3,7.5,7.5,0,0,0,.7,1.6,8,8,0,0,1,.4-1.6c0.1-.4.3-0.8,0.4-1.2a12.2,12.2,0,0,1,.3-1.9v4.1a5.5,5.5,0,0,0,.1.8,2.9,2.9,0,0,0,.1.5v-0.2l0.3-.6,0.5-1.2,0.2-.6h0a4.3,4.3,0,0,1,.8-2.4,5.1,5.1,0,0,0-.3,2.7,2.8,2.8,0,0,0,.3.8,3,3,0,0,1,.8-1.6,4.3,4.3,0,0,0-.1,3,6.3,6.3,0,0,1,2.1-2.8,8,8,0,0,1,3.1-1.5l0.9-.2a2.3,2.3,0,0,0,1.2-1.4,8.1,8.1,0,0,1,.9-1.8l0.9-.9a1,1,0,0,0,.2-1.4,5.6,5.6,0,0,0-1-1,8.7,8.7,0,0,1-1.7-2.4,28.7,28.7,0,0,1-1.3-3.6l-0.8-2.5-2.2-5.9-1.4-3.6a5.2,5.2,0,0,1-.5-1.5,3.9,3.9,0,0,1,.6-1.9,11,11,0,0,0,.8-1.8,4.3,4.3,0,0,1-.3,1.8,6.1,6.1,0,0,0-.5,1.7,1.9,1.9,0,0,0,.2.8l0.4,0.9,1.6,4.1c0.9,2.4,1.7,4.8,2.5,7.2l2.4-1.2a22.5,22.5,0,0,0,3-2,16,16,0,0,0,2.5-2.6l1-1.4,0.7-1.1a11.3,11.3,0,0,1-2.7,4.6,3,3,0,0,1-.3,2.2,5.8,5.8,0,0,1-1.1,1.3,2.5,2.5,0,0,0,1.3-.1,4.5,4.5,0,0,0,1.9-1.4h0a3.6,3.6,0,0,1-2,1.8h-0.1l0.7,0.2a6.2,6.2,0,0,0,2.5-.6,11.9,11.9,0,0,1-.9,1.5l-0.5.6h1l0.8-.4a1.9,1.9,0,0,1-1,.7h0l0.6,0.2a6.1,6.1,0,0,0,2.3-.4l-0.8.5h1.2a8.3,8.3,0,0,0,2.6-1.1,8.4,8.4,0,0,1-1.5,1.8,5.4,5.4,0,0,1-1.4.8l0.9,0.3a3.5,3.5,0,0,0,1.4-.3l-0.6.4h1.3l1.1-.3h0.2l0.5-.7a4.5,4.5,0,0,1,1.1-1.1h0.1a5.3,5.3,0,0,0-1.1,1.8c-0.3.6,0.5-1.1,0.3-.5l-0.3.3c-0.2-2.2,0,0,.3-0.3a2.6,2.6,0,0,1,.9-0.7c0.8-.4,1.6,1.1,2.5,1.3a2.5,2.5,0,0,0,1.4,0l0.9-.4a2.8,2.8,0,0,0,.8-1.5A3.5,3.5,0,0,1,183.1,146.7ZM142.8,95a4.2,4.2,0,0,0-1.1,1.1,0.6,0.6,0,0,0-.1.6,0.9,0.9,0,0,0,.5.3l1,0.2c0.1,0,.1.1,0.1,0.2s0,0.4,0,.5a1.7,1.7,0,0,0,1.4,1.7,4.4,4.4,0,0,0,1.5-.1l1.6-.5a4.1,4.1,0,0,1-1.6.9l-0.9.2v0.2a2.4,2.4,0,0,0,1.1.9,3.6,3.6,0,0,0,2,0l1.5-.3a6.1,6.1,0,0,1-3.1.9,2.4,2.4,0,0,1-1.6-.8l-0.5-.8v-0.2h-0.5a2,2,0,0,1-1.3-1.1,3.2,3.2,0,0,1-.3-1.3c-0.6-.1-1.5-0.4-1.5-1.1S142.2,95.3,142.8,95Zm-9.1-12.2c0-.4.3-0.8,1.4-0.8a3.1,3.1,0,0,1-1.1-.9,1,1,0,0,1,0-1.2l0.4-.3a1.8,1.8,0,0,1-1-2.2c0,1,1.8,2.2,2.6,2.5-1.1-.1-1.7.2-1.6,0.6s1.3,1.4,2.9,2H135c-0.7.1-.8,0.4-0.2,0.9a11.8,11.8,0,0,0,2.9,2h-0.6l-0.2.2a2.4,2.4,0,0,0-1,1.6,1.1,1.1,0,0,0,1.2.9l1.6-.2a3.4,3.4,0,0,1-2,.6v0.2a1.9,1.9,0,0,0,1.4.9l2.4,0.2-1.2.4-1.4.7c-0.1.1-.8,0.6-0.5,0.7a10.3,10.3,0,0,0,3.7.4l-1.2,1.5c-0.2.3-.6,0.9-0.2,1.2a2.9,2.9,0,0,0,1.4.4c-0.8.3-2.2,0.2-2.1-.9a3.1,3.1,0,0,1,.9-1.6,9.2,9.2,0,0,1-2.2-.2c-0.5-.1-1.1-0.4-0.8-1a2.6,2.6,0,0,1,.9-0.9l0.5-.3a3.9,3.9,0,0,1-1.5-.5,1.5,1.5,0,0,1-.7-1.2,1.4,1.4,0,0,1-.7-0.5,1.5,1.5,0,0,1,.1-1.6l0.6-.8,0.2-.2C135.2,84.7,133.7,83.8,133.7,82.9Zm-54-33.1a21,21,0,0,0,2.3,3.8q2.6,3.7,5.5,7.3a69,69,0,0,0,9.7,10.3l3.4,2.2a71.1,71.1,0,0,0,7.6,4.3,40.1,40.1,0,0,0,4.9,2l1.5,0.5L113.4,79c-0.4-.3-1.2-1.1-0.8-1.6a2,2,0,0,1,1.8-.2l1,0.2h1.5l-2.2-1a7,7,0,0,1-1.6-1.1,1.4,1.4,0,0,1-.4-0.8,21,21,0,0,1-3.5-1.7l-3.8-2.5c-2.5-1.7-4.9-3.6-7.2-5.5A132.7,132.7,0,0,1,84.7,52.6,62.3,62.3,0,0,1,79.3,46a3.1,3.1,0,0,0-.2,1.6A7.3,7.3,0,0,0,79.7,49.8ZM84,46.8a20.8,20.8,0,0,0,.9,2c0.7,1.3,1.5,2.7,2.3,3.9a34.6,34.6,0,0,0,4.7,6.1h0a131.6,131.6,0,0,0,13,10.5c1.5,1.1,3,2.1,4.6,3l2.5,1.3,0.9,0.3h2.1l2.2,0.2h1.1l-1.8-1.1a11.3,11.3,0,0,1-2.7-2.4h-0.1a84.6,84.6,0,0,1-12.2-8.9A65.7,65.7,0,0,1,92,51.5l-2.4-2.2-2.8-2.4-1.6-1.1-0.8-.5a1.2,1.2,0,0,0-.7-0.2h0s0,0.1,0,.1a1.5,1.5,0,0,0,0,.5A6.7,6.7,0,0,0,84,46.8Zm0.6-11.1,0.2,0.7c0.4,1.1.8,2.2,1.2,3.3A54.4,54.4,0,0,0,90,47.3a62.8,62.8,0,0,0,11.1,13.3,95.9,95.9,0,0,0,12,9.2,1,1,0,0,1,0-.5,1.2,1.2,0,0,1,1.3-.6l1.7,0.3-1.5-1.5a13,13,0,0,1-1.3-1.7,7.8,7.8,0,0,1-.8-1.5c-0.2-.6-0.2-1.4.6-1.5a3.8,3.8,0,0,1,1.8.6l1.2,0.5-1.2-1.1a66.6,66.6,0,0,1-12-9c-4.5-4-8.6-8.4-12.6-12.9l-3.7-4.2-1.2-1.3L85,35.1c-0.7-.7-0.6,0-0.5.2ZM79.9,60.5a43.4,43.4,0,0,0,5,7.5A62.9,62.9,0,0,0,91,74.5a51.8,51.8,0,0,0,6.7,5.3,28.3,28.3,0,0,0,3.5,2l1.5,0.6H103a92.3,92.3,0,0,0,13.6,2.2l-0.5-.3c-0.6-.5-1.8-1.8-0.7-2.5a3.5,3.5,0,0,1,1.6-.3h0.2l-1.5-.8-0.8-.2L113,80a38.7,38.7,0,0,1-4-1.5,73,73,0,0,1-7.6-4,79.4,79.4,0,0,1-7.4-5,85.2,85.2,0,0,1-7-5.8c-1.3-1.2-2.5-2.4-3.6-3.6l-2.5-2.8-1.2-1.4c-0.2-.3-0.8-0.8-1.2-0.4a2.1,2.1,0,0,0-.1,1.9A22.2,22.2,0,0,0,79.9,60.5Zm40.6,33.8a1.5,1.5,0,0,1-.7-0.6h0c-4.7.6-9.5,1.1-14.3,0.3l-1.1-.2a6.6,6.6,0,0,0,1.1,1.4,7.5,7.5,0,0,0,3.6,2,19,19,0,0,0,8.9-.5l2.8-.8,0.9-.3a1.7,1.7,0,0,1,.1-0.8Zm2.2-2.1a10,10,0,0,1-2.2-.7l-1.9-1.1a2.3,2.3,0,0,1-.9-0.9,65.6,65.6,0,0,1-16,.2l-3.3-.4L96.8,89H96.1c-1.1-.1-0.3.5-0.1,0.6l0.9,0.6,1.9,1a23.5,23.5,0,0,0,4.1,1.6,32,32,0,0,0,8.6,1.1,54.9,54.9,0,0,0,5.8-.4l2.5-.3h0.2a3.6,3.6,0,0,1,1.8-.8Zm-1.2-4-2.4-.5a6.6,6.6,0,0,1-2.3-1,1.5,1.5,0,0,1-.6-1.1,1.1,1.1,0,0,1,.1-0.4A96.2,96.2,0,0,1,101,82.6c-2.9-.7-5.8-1.5-8.6-2.5l-4.2-1.6-2.1-1L85,76.9l-1.3-.7-0.9-.5a4.1,4.1,0,0,0-2-.6c-0.3,0-.2.3-0.1,0.5l0.4,0.7,0.4,0.6a20.7,20.7,0,0,0,2.9,3.1,33.6,33.6,0,0,0,7.6,4.9c5.1,2.4,8.8,3.8,13.5,4.6h2.5a57.8,57.8,0,0,0,8.4-.4l1.3-.2a2.8,2.8,0,0,1,1.4-.4Zm3,9.7a4.6,4.6,0,0,1-2.5-1.7l-3.1,1a28,28,0,0,1-4.3.9,15.5,15.5,0,0,1-5.7-.2v0.3a1.3,1.3,0,0,0,.7,1.5,4.5,4.5,0,0,0,1.9.4,34.4,34.4,0,0,0,10.2-1.2,26.6,26.6,0,0,1-10.6,1.8v0.3a1.6,1.6,0,0,0,.6,1.7,3,3,0,0,0,1.8.6h2.2a29.6,29.6,0,0,0,8.6-2.1l1.4-.6-1.2-.5a1,1,0,0,1-.5-1.4Zm10.3,49.5h-0.9l0.8-.6a8.7,8.7,0,0,0,1.3-1.8,3.6,3.6,0,0,1-1.5.6,1.7,1.7,0,0,1-1.2-.3l1.1-2-1.5.4h-0.7a0.9,0.9,0,0,1-.4-1c0-.3,0-0.5.1-0.8a7.6,7.6,0,0,1,.3-1l-1.2.7a2,2,0,0,1-1.3.3c-0.7-.3-0.5-1.3-0.4-1.9s0.2-.6,0-0.6l-0.3.3-0.5.5a2.2,2.2,0,0,1-2.2.8l-0.2.2c-0.3.3-1.6,1.6-1.9,0.6a1.7,1.7,0,0,1,.2-1v-0.2a3.4,3.4,0,0,1-.7-3.3h0a6.7,6.7,0,0,1-.1-0.9,7.7,7.7,0,0,1,.2-2,8.7,8.7,0,0,1,.9-2.2,15.8,15.8,0,0,1-2.6.3l2.2-2.3a20.3,20.3,0,0,1,2.3-2.1c-4.8.9-9.6,1.5-14.4,2l-8.6.8-4.2.3-2.1.2h-1c-0.8.2-.3,0.6,0.1,0.8l1,0.4a20.7,20.7,0,0,0,4.3,1.1l2.7-.6,7.8-1.6h0.5l-7.1,1.8-8.5,2-6.6,1.5-4.4.8c-0.3.1-.6,0.3,0.2,0.5l1.1,0.2h1.3a28.4,28.4,0,0,0,4-.1,57.7,57.7,0,0,0,8.9-1.5c2.9-.7,5.7-1.5,8.5-2.5l9.7-3.4a108.9,108.9,0,0,1-15.1,5.8l-1.8.5a46.3,46.3,0,0,0-6.6,3,19.2,19.2,0,0,0-3.6,2.5,2.9,2.9,0,0,0-1.1,1.6c-0.1.6,0.8,0.6,1.4,0.3l7.3-3,6.2-2.6,3.5-1.5,7.9-3.5a111.8,111.8,0,0,1-11.4,5.6l-13.4,5.7-7.5,3.1a4.4,4.4,0,0,0-1.6,1.1,2.7,2.7,0,0,0-.7,1.8c2.8-.8,5.6-1.7,8.3-2.7l6.2-2.5,5.6-2.5,12.1-5.7c-2.3,1.5-8.7,4.8-10.8,5.7l-5.6,2.5L93.1,148h0l-0.5.2-1.7.9a17.2,17.2,0,0,0-2.8,2.1l-0.9.9a2.1,2.1,0,0,0-.4.6c-0.1.4,0.5,0.2,0.7,0.1l1.5-.2a29.5,29.5,0,0,0,4.3-1l1.2-.4c5.1-2.7,12.2-6.8,16.1-8.7-3.2,2.3-11.3,6.7-15.2,8.7-1.7.9-8.6,4.2-9.8,6.5a33.3,33.3,0,0,0,6.6-1.7l3.3-1.3h0.3c7.5-4.8,18.7-12,24.7-16.7-5.5,5.3-30.5,20.9-31.7,21.7l-0.8.5a3.9,3.9,0,0,0-1.4,1.2c-0.1.3,0.3,0.3,0.5,0.2a43.7,43.7,0,0,0,5.9-2.9,220.6,220.6,0,0,0,25.4-16.8,0.8,0.8,0,0,1,1.2.1,2.7,2.7,0,0,0,.9,1.1c0.4,0.1.7-.4,1.2-0.3s0.4,0.8.8,0.9h0.7l0.9-.4a0.8,0.8,0,0,1,.7-0.1,1,1,0,0,1,.4.6,1.5,1.5,0,0,0,1.2.9,3.8,3.8,0,0,0,1.5-.4,2.2,2.2,0,0,1-1.9.8,1.5,1.5,0,0,1-.9-0.5l-0.3-.5-0.2-.5h-0.3l-0.5.3-1.1.4a1,1,0,0,1-1-.4,2.2,2.2,0,0,1-.3-0.6l-0.7.3a1.2,1.2,0,0,1-1-.4,5.5,5.5,0,0,1-.5-0.9,0.5,0.5,0,0,0-.7-0.1c-2.5,2.1-6.1,4.6-9.8,7.1a2.8,2.8,0,0,0,1.4.2l0.8-.3a2.9,2.9,0,0,1,.4-0.5c0.3-.1.4,0.3,0.6,0.4h0.7a4,4,0,0,0,1.4-.6l0.8-.6a2.5,2.5,0,0,1,.7-0.6h0.7l0.6-.3-0.3-.2-0.6-.6-0.2.2-0.5.4a1.5,1.5,0,0,1-1.5-.2,1.6,1.6,0,0,0,1.4-.1,2.8,2.8,0,0,1,.8-0.8,0.7,0.7,0,0,1,.7.3l0.6,0.6,0.5,0.2H118a5.8,5.8,0,0,0,2-.8l0.9-.3,0.3-.2h0.1a0.8,0.8,0,0,1,1-.3l1.3,0.7a2.4,2.4,0,0,0,1.5.6l0.6-.2,0.4-.2h0.4l0.4,0.4a1.1,1.1,0,0,0,.7.2l1-.2a4.5,4.5,0,0,0,1.5-1.3l0.4-.6a4.7,4.7,0,0,1-.7,1.4l0.5,0.5a1.3,1.3,0,0,0,1.4-.1,12.8,12.8,0,0,0,.6,1.7,1.3,1.3,0,0,0,.9.9H134a6.8,6.8,0,0,0,1.3-.9l-0.6.8h0.2l0.7,0.4a7.4,7.4,0,0,1,1-2.4A3.8,3.8,0,0,1,134.8,147.3Z" transform="translate(0 0.1)"/>
  <path d="M191.5,109.7v0.2a2.2,2.2,0,0,0-.1.5,2,2,0,0,0,.1.8l0.2,0.4L192,112l0.9,0.4h0.1l-0.7-.4-0.3-.3-0.2-.3a2.2,2.2,0,0,1-.2-0.7v-0.3c0-.1,0-0.2,0-0.2v-0.2Z" transform="translate(0 0.1)"/>
  <path d="M135.3,64.3s-2.2-3.2-3.2-3.9a4.2,4.2,0,0,0-2-.8H129s-2.1-1-1.6,1.6,1.8,5.5,1.9,7.8l0.5,6.6c0.2,2-1,1.4,1.4,6.5s1.2,3.3,2.6,8.6a22,22,0,0,0,5.5,9.9c1.7,1.8,5.3,4.7,8.8,4.9s5.3-.8,5.8-1.5-0.7-4.3-1.2-4.9a71.4,71.4,0,0,0-5.7-4.5s-5.2-2.8-5.5-3.9-2.1-5.2-2.7-6.6-0.9-4.9-1.5-6.7-1.8-4.8-1.8-5.4-0.5-2.7-.5-3.4S135.3,64.3,135.3,64.3Z" transform="translate(0 0.1)"/>
  <path d="M118.5,53.5a1,1,0,0,1,1.7-.2l8.7,7.5s2.2,7.1,2.4,7.3,3.3,10.1,3.5,10.4,1.8,9.4,1.8,9.8-0.1,5.2-.1,5.2l-3.7,1.9-7.3-2.7s-0.4-6.6-.4-6.9-1.7-10.4-1.8-10.7-1.1-8.2-1.1-8.2l-1.9-2.6-1.6-3.1-0.2-2.6s-0.6-2-.6-2.3a9.8,9.8,0,0,1,.6-1.8V53.5Z" transform="translate(0 0.1)"/>
  <g>
    <path class="cls-3" d="M200.2,141.7a2,2,0,0,1-.4,1,2.3,2.3,0,0,1,1.3.8,1.9,1.9,0,0,1,.4,1.5,1.9,1.9,0,0,0,.3-1.2,2.8,2.8,0,0,0-1-1.7Z" transform="translate(0 0.1)"/>
    <path class="cls-3" d="M191.3,155a2,2,0,0,1-.9.4,1.8,1.8,0,0,0,1.1.8,2,2,0,0,0,1.7-.4l0.4-.4-0.3.2A1.8,1.8,0,0,1,191.3,155Z" transform="translate(0 0.1)"/>
    <path class="cls-3" d="M199.7,141.2a1.6,1.6,0,0,1-.5,1.5,2.3,2.3,0,0,1-1.8.4h-0.9V143l-0.4.5a2.1,2.1,0,0,1-1.1.4,0.9,0.9,0,0,0-.7.3l-0.5.8-0.8.7a4,4,0,0,1-1.7.5,0.6,0.6,0,0,0-.5.5l-0.3.8a1.1,1.1,0,0,1-.5.8,1.3,1.3,0,0,0-.7.5,0.6,0.6,0,0,0,.2.7,1,1,0,0,1,.3.7,2.4,2.4,0,0,0,.1.9l0.5,0.8,0.5,0.9a5.2,5.2,0,0,1,.4,1,1.1,1.1,0,0,1,0,.6,1,1,0,0,1-.8.5h-1.1a3.6,3.6,0,0,0,0-.7,11.9,11.9,0,0,0-.2-1.5,2.9,2.9,0,0,0-.4-0.9l-0.5-.4a2.7,2.7,0,0,1-.5-0.9l-0.5-.9a1.6,1.6,0,0,0-1.4-.8,4.5,4.5,0,0,0-1.3,0l-0.7.3-0.8.2-1,.3,0.2-.5c0.2-.6.3-0.6,0.6-1.3a3.4,3.4,0,0,1,.9-1.1h0.4l1.9-.4a6.8,6.8,0,0,0,2.7-1,13,13,0,0,0,1.7-1.7l1-1.2,0.4-.6,0.5-.8a1.9,1.9,0,0,1,.4-0.7h1.4l0.5,0.2h0l-0.5.6-1.1,1-1.7,1.2-1.1.9,2-1.3a10.5,10.5,0,0,0,2.1-1.4c0.4-.4.6-1.2,1.3-1.3h1.2l0.6-.2,0.3-.2,0.2,0.4a1,1,0,0,1,0,.6h-1c-0.6-.2-1.2.4-1.7,0.6l-1,.6a7.6,7.6,0,0,0-1.6,1.5c-0.7.5-1.5,0.8-2.2,1.3h-0.1l1.8-.6,0.7-.4,1-1,0.9-.6,0.5-.3,0.9-.6a1,1,0,0,1,.6,0h1l1.3-.3A0.4,0.4,0,0,1,199.7,141.2Z" transform="translate(0 0.1)"/>
    <path class="cls-3" d="M198.5,143.5a3.4,3.4,0,0,1,.8,1.6,2.5,2.5,0,0,0-.2-1.8H199Z" transform="translate(0 0.1)"/>
  </g>
  <path class="cls-4" d="M199.8,108.7a10.2,10.2,0,0,0-.1-5.9c-1.6-6.1-11.3-4.8-13.2-13.1,0,0-.2,5.2,6.7,9.7,0,0-9-1.4-7.8-14.8a15.5,15.5,0,0,0,.8,10.4s-2.9-2-2.3-7c0,0-1.4,5.6,3.9,11-0.1,0,0,.2.6,0.6l0.3,0.3a21.8,21.8,0,0,0,4.1,3c3.2,2.5,6.1,5.2,6.7,5.7v0.1h0Z" transform="translate(0 0.1)"/>
  <g>
    <path class="cls-3" d="M173.9,153.7h0.2l0.4,0.3,0.8,0.3h0a2,2,0,0,0-.7-1l-0.8-.3A1.7,1.7,0,0,1,173.9,153.7Z" transform="translate(0 0.1)"/>
    <path class="cls-3" d="M172.7,152.1h0.2l0.4,0.3,0.7,0.2h0a1.6,1.6,0,0,0-.6-0.9l-0.7-.2A1.7,1.7,0,0,1,172.7,152.1Z" transform="translate(0 0.1)"/>
    <path class="cls-3" d="M174.1,154.5a1.8,1.8,0,0,1,.2.8,1,1,0,0,1-.2.8l-0.7.4-1.4.6h-1a1.6,1.6,0,0,0-1.3,1,1.4,1.4,0,0,1-1.2.7,1.9,1.9,0,0,0-1.3.4,1.7,1.7,0,0,0-.5.6,2.8,2.8,0,0,0-.2,1.2,0.9,0.9,0,0,1-.1.6,2.8,2.8,0,0,1-.7.1c-0.7.3-.2,1.4,0.1,1.8a2.5,2.5,0,0,0,1.2,1,2.3,2.3,0,0,1,1,1.4,1,1,0,0,1,.2.8l-0.5.5-0.6.5c-0.2.1-.3,0-0.4-0.1a4.6,4.6,0,0,1-.9-1.6,3.9,3.9,0,0,0-1-1.5l-0.7-.6-0.5-.4-1.1-.4,0.8-.5a6.2,6.2,0,0,0-2.6,1.4,9.9,9.9,0,0,0-1.5,1.4,4.3,4.3,0,0,0,0-.9,7.3,7.3,0,0,1,0-1,5.2,5.2,0,0,1,.3-1.2v-0.8l1.3-.8a33.4,33.4,0,0,0,4.3-3.5l2.2-2.3a20.6,20.6,0,0,1,1.6-1.9,0.8,0.8,0,0,1,.6-0.3h0.6a3,3,0,0,0,1.3-.8,1.1,1.1,0,0,1,.7-0.3,1,1,0,0,1,.4.9H172a7,7,0,0,1-1.5.6h-1.2a3.4,3.4,0,0,0-1,1.3,16.2,16.2,0,0,0-1.2,1.2c-0.3.5-.9,0.9-1.2,1.4a1.6,1.6,0,0,1-.5.6l-0.6.2h0.4l0.5-.2,0.4-.5,0.4-.4a4.2,4.2,0,0,0,.9-1,4.5,4.5,0,0,1,.9-0.8,5.3,5.3,0,0,0,.8-1.1,0.8,0.8,0,0,1,.5-0.4h0.3a4.9,4.9,0,0,0,2.2-.7h0.7a0.8,0.8,0,0,1,.6.7s0,0.3,0,.5h-0.1l-3.2.9a1.9,1.9,0,0,0-1.1.6l-0.5.7-0.5.5-0.4.2-0.9.7-0.6.7-0.4.6-0.7.3a0.6,0.6,0,0,0-.3.5,0.6,0.6,0,0,1,.4-0.3l0.7-.2a1.4,1.4,0,0,0,.5-0.5l0.5-.6,0.9-.8,0.8-.5a3.4,3.4,0,0,0,.6-0.8,1.5,1.5,0,0,1,1-.7l3.3-.9A0.5,0.5,0,0,1,174.1,154.5Z" transform="translate(0 0.1)"/>
    <path class="cls-3" d="M174.8,155.6a3,3,0,0,1,1.3.9,1.8,1.8,0,0,1,.4.8,2.1,2.1,0,0,0-.1-1.4,2.6,2.6,0,0,0-1.4-1.3h-0.2A2.6,2.6,0,0,1,174.8,155.6Z" transform="translate(0 0.1)"/>
    <path class="cls-3" d="M168.2,167.2l-0.7.6a2.3,2.3,0,0,0,2,.8,2.2,2.2,0,0,0,1.1-.8l-0.7.2A2.1,2.1,0,0,1,168.2,167.2Z" transform="translate(0 0.1)"/>
    <path class="cls-3" d="M162.5,162.4h0l-0.3.4h0a1.7,1.7,0,0,1-1.5.6,15.9,15.9,0,0,0-1.7-.2h-0.2a8.4,8.4,0,0,1-3.5-.5l-1.7-.4c0.3-.2.8,0.2,0.7-0.3s1.2-1.1,2.5-1.6a6.5,6.5,0,0,0,4-.1,3.8,3.8,0,0,0,1.1-.6s0.3,0.1.8,1.8A1.3,1.3,0,0,1,162.5,162.4Z" transform="translate(0 0.1)"/>
  </g>
</svg>
