{
  "DEFAULT_LOCALE": "en_us",
  "DEBUGGING": "true",
  "DEFAULT_PROFILE_USERNAME": "milesguo",
  "SYS_URL": "http://localhost:8888",
  "SYS_URL_API": "http://localhost:5000",
  "SYS_DOMAIN": "localhost",
  "BROADCAST_URL": "broadcasts.guo.media",
  "DEFAULT_PROFILE_USERNAME": "milesguo",
  "DEBUGGING": "true",
  "LICENCE_KEY": "1-2-3-4-5-6",
  "KEY_ENCRYPT_DECRYPT": "def000005213910c5b5eab19c97fc856975b92b9c0810dc16cb5392147ccf9862c2360f75d9d597371516266fdd687096cf5ed97684337d0f2208ba38f822bda73e2bd02",

  "db": {
    "name": "kwok7503_social",
    "user": "root",
    "password": "root",
    "host": "localhost"
  },

  "s3": {
    "enabled": 1,
    "region": "us-east-1",
    "key": "",
    "secret": "",
    "bucket": "guo-media-test",
    "endpoint": "https://d1psem87g88yq1.cloudfront.net/uploads"
  },

  "system": {
    "url": "http://localhost",
    "version": "2.5.1",
    "uploads": "https://d1psem87g88yq1.cloudfront.net/uploads",
    "phone": "+19292536858",
    "public": 1,
    "live": 1,
    "message": "",
    "title": "\u90ed\u5a92\u4f53 GUO.MEDIA",
    "description": "\u4e00\u5207\u90fd\u662f\u521a\u521a\u5f00\u59cb\uff01\u90ed\u5a92\u4f53 GUO MEDIA \u73b0\u6b63\u63a8\u51fa\u8bd5\u884c\u7248\uff0c\u5e0c\u671b\u5404\u4f4d\u597d\u53cb\u591a\u591a\u652f\u6301\u3002\u6211\u4eec\u81f4\u529b\u63d0\u4f9b\u4e00\u4e2a\u81ea\u7531\u7684\u793e\u4ea4\u76f4\u64ad\u5e73\u53f0\uff0c\u8ba9\u5927\u5bb6\u968f\u610f\u8868\u8fbe\u4e0d\u540c\u610f\u89c1\u3002\u90ed\u5a92\u4f53\u4e3a\u5927\u5bb6\u63d0\u4f9b\u7f51\u7ad9\u548cAPP\u4e00\u7ad9\u5f0f\u7684\u793e\u4ea4\u5e73\u53f0\uff0c\u8ba9\u5927\u5bb6\u62e5\u6709\u81ea\u5df1\u7684\u4e2a\u4eba\u9875\u9762\uff0c\u81ea\u7531\u53d1\u90ed\u6587\uff0c\u4e92\u76f8\u5173\u6ce8\u5bf9\u65b9\uff0c\u5206\u4eab\u76f8\u7247\u5f71\u7247\u7b49\uff0c\u4fdd\u8bc1\u8a00\u8bba\u81ea\u7531\u4e0d\u88ab\u6253\u538b\u3002",
    "keywords": "\u90ed\u5a92\u4f53, guo media, \u90ed\u6587\u8d35",
    "email": "support@guo.media",
    "currency": "USD",
    "logo": "/content/themes/default/images/logo.png",
    "wallpaper_default": 1,
    "wallpaper": "",
    "random_profiles": 0,
    "favicon_default": 1,
    "favicon": "",
    "ogimage_default": 1,
    "ogimage": ""
  },

  "broadcast": {
    "url": "https://d14hlb7q4cr44.cloudfront.net/46032602"
  },

  "email": {
    "smtp": {
      "enabled": 1,
      "authentication": 1,
      "ssl": 1,
      "server": "server.guo.media",
      "port": 465,
      "username": "noreply@guo.media",
      "password": "",
      "setfrom": "noreply@guo.media"
    },
    "post": {
      "likes": 0,
      "comments": 0,
      "shares": 0
    },
    "notifications": 0,
    "wall_posts": 0,
    "mentions": 0,
    "profile_visits": 0,
    "friend_requests": 0
  },

  "uploads": {
    "directory": "content/uploads",
    "prefix": "guomedia"
  },

  "contact": {
    "enabled": 1,
    "email": "contact@guo.media"
  },

  "geolocation": {
    "enabled": 1,
    "key": ""
  },

  "registration": {
    "enabled": 1,
    "type": "free"
  },

  "activation": {
    "enabled": 0,
    "type": "email"
  },

  "directory_enabled": 0,
  "pages_enabled": 1,
  "groups_enabled": 1,
  "events_enabled": 1,
  "blogs_enabled": 1,
  "market_enabled": 0,
  "games_enabled": 0,
  "daytime_msg_enabled": 0,
  "verification_requests": 0,
  "profile_notification_enabled": 0,
  "stories_enabled": 0,
  "wall_posts_enabled": 1,
  "smart_yt_player": 1,
  "default_privacy": "public",
  "packages_enabled": 0,
  "age_restriction": 0,
  "minimum_age": 13,
  "getting_started": 0,
  "delete_accounts_enabled": 1,
  "max_accounts": 0,

  "social": {
    "share_enabled": 0,
    "login_enabled": 0
  },

  "facebook": {
    "login_enabled": 0,
    "appid": 168371333761316,
    "secret": ""
  },

  "twitter": {
    "login_enabled": 0,
    "appid": "pC8lzi1DGs7JKdQVl7vWAlEb7",
    "secret": ""
  },

  "google": {
    "login_enabled": 0,
    "appid": "411990592525-2u9b9mr9330vucooa8klu816o09qhilt.apps.googleusercontent.com",
    "secret": ""
  },

  "instagram": {
    "login_enabled": 0,
    "appid": "",
    "secret": ""
  },

  "linkedin": {
    "login_enabled": 0,
    "appid": "",
    "secret": ""
  },

  "vkontakte": {
    "login_enabled": 0,
    "appid": "",
    "secret": ""
  },

  "twilio": {
    "sid": "AC42b6f21c8b65d781dd1cd25d76fff4e3",
    "token": "",
    "phone": "+17739855790"
  },

  "chat": {
    "enabled": 0,
    "status_enabled": 0
  },

  "max_avatar_size": 102400,
  "max_cover_size": 102400,
  "photos_enabled": 1,
  "max_photo_size": 1024000,

  "videos_enabled": 1,
  "max_video_size": 4294967295,
  "video_extensions": "mp4, mov",
  "video_streaming_enabled": 0,

  "audio_enabled": 1,
  "max_audio_size": 1024000,
  "audio_extensions": "mp3, wav",

  "file_enabled": 1,
  "max_file_size": 5000000,
  "file_extensions": "txt, zip, pdf",

  "censored": {
    "words_enabled": 1,
    "words": "zeronet,script,qwe,asd,ass,test,pussy,fuck,shit,asshole,dick,tits,boobs,\u6253\u70ae,\u88f8\u804a, \u90ed\u7ea2\u536b\u5175,\u90ed\u8111\u6b8b\u7c89,\u90ed\u5f3a\u5978,\u90ed\u536b\u5175,\u90ed\u9152\u9b3c,\u90ed\u6d41\u6c13,\u90ed\u4e09\u79d2,\u90ed\u9a97\u5b50,\u8c0e\u8a00\u90ed,\u90ed\u7325\u7410,\u90ed\u543b\u9b3c,\u90ed\u5996,\u90ed\u5996\u7c89,\u90ed\u7279\u52a1,\u90ed\u5927\u9a97 ,\u9a97\u9a97\u90ed,\u90ed\u9a97,\u90ed\u50bb,\u90ed\u50bb\u903c,\u50bb\u903c\u90ed\u6587\u8d35,\u90edsb,sb\u90ed,\u90ed\u761f\u9b3c,\u90ed\u9a97\u9a97,\u90ed\u9b3c,\u6587\u9f9f,\u5c0f\u4e11\u6587\u9f9f,\u90ed\u7a33\u8dea,\u90ed\u55bd\u5570,\u90ed\u4e94\u6bdb,\u90ed\u6b7b\u4eba,\u9020\u5047\u90ed,\u90ed\u9a97\u8d37,\u90ed\u9a97\u6c47,\u90ed\u9a97\u5978,\u90ed\u901a\u7f09\u72af,\u90ed\u738b\u516b,\u90ed\u6587\u76f2,\u4e71\u4f26\u8d35,\u90ed\u72d7\u8d35,\u90ed\u8d3c,\u90ed\u5978\u732a,\u90ed\u6cfc\u5987,\u7eff\u5e3d\u90ed,\u90ed\u5978, \u90ed\u4e03, \u90ed\u5927\u5ffd\u60a0, \u90ed\u6587\u9b3c,\u90edXX,\u50bb\u5305\u5b50,\u90ed\u7ea2\u901a\u72af,\u90ed\u7c89, \u90ed\u571f\u8c6a,\u90ed\u5458\u5916"
  },

  "reCAPTCHA": {
    "enabled": 0,
    "site_key": "6LeMvD0UAAAAALzyeeGmJRoL2f6yuyRyVEmbL0rF",
    "secret_key": ""
  },

  "session_hash": "",

  "paypal": {
    "enabled": 0,
    "mode": "sandbox",
    "id": "",
    "secret": ""
  },

  "creditcard_enabled": 0,
  "alipay_enabled": 0,
  "bitcoin_enabled": 0,

  "stripe": {
    "mode": "test",
    "test_secret": null,
    "test_publishable": null,
    "live_secret": null,
    "live_publishable": null
  },

  "data_heartbeat": 86400,
  "chat_heartbeat": 4294967295,
  "offline_time": 59,
  "min_results": 5,
  "max_results": 6,
  "min_results_even": 5,
  "max_results_even": 6,
  "analytics_code": "&lt;!-- Global site tag (gtag.js) - Google Analytics --&gt;\r\n&lt;script async src=&quot;https:\/\/www.googletagmanager.com\/gtag\/js?id=UA-111414205-1&quot;&gt;&lt;\/script&gt;\r\n&lt;script&gt;\r\n  window.dataLayer = window.dataLayer || [];\r\n  function gtag(){dataLayer.push(arguments);}\r\n  gtag(&#039;js&#039;, new Date());\r\n\r\n  gtag(&#039;config&#039;, &#039;UA-111414205-1&#039;);\r\n&lt;\/script&gt;",

  "css": {
    "customized": 1,
    "background": "#fafafa",
    "link_color": "",
    "header": "",
    "header_search": "",
    "header_search_color": "",
    "btn_primary": "",
    "menu_background": "",
    "custome_css": ""
  },

  "affiliate": {
    "type": "registration",
    "payment_method": "both"
  },

  "affiliates": {
    "enabled": 0,
    "min_withdrawal": 50,
    "per_user": "0.10"
  },
  "test": {
    "user": {
      "email": "",
      "password": ""
    },
    "sys": {
      "url": "http://localhost"
    }
  },
  "bugsnag_key": "",
  "environment": "development"

}
