<svg xmlns="http://www.w3.org/2000/svg" height="480" width="640" viewBox="0 0 640 480">
  <g fill-rule="evenodd" stroke-width="1pt">
    <path d="M0 0h213.335v479.997H0z"/>
    <path fill="#ffd90c" d="M213.335 0H426.67v479.997H213.335z"/>
    <path fill="#f31830" d="M426.67 0h213.335v479.997H426.67z"/>
  </g>
</svg>
