<svg xmlns="http://www.w3.org/2000/svg" height="480" width="640" viewBox="0 0 640 480">
  <g fill-rule="evenodd">
    <path fill="#ffe700" d="M640 480H0V0h640z"/>
    <path fill="#36a100" d="M640 160.003H0V0h640z"/>
    <path fill="#006dbc" d="M640 480H0V319.997h640z"/>
  </g>
</svg>
