<svg xmlns="http://www.w3.org/2000/svg" height="480" width="640" viewBox="0 0 640 480">
  <path fill="#0038a8" d="M0 319.7h640V480H0z"/>
  <path fill="#fff" d="M0 160h640v160H0z"/>
  <path fill="#d52b1e" d="M0 0h640v160H0z"/>
  <g fill="none" stroke="#000" transform="translate(-116.364) scale(1.45455)">
    <circle cx="300" cy="165" r="42.2" stroke-width="1.076"/>
    <circle cx="300" cy="165" r="34.67" stroke-width=".478"/>
    <circle cx="300" cy="165" r="26.56" stroke-width=".438"/>
  </g>
  <path d="M287.317 263.68l-7.116 4.227-2.176-3.665c-.403-.68-.654-1.234-.75-1.662a1.93 1.93 0 0 1 .132-1.254c.185-.408.503-.746.957-1.015.394-.233.785-.352 1.17-.353a2.3 2.3 0 0 1 1.11.28c.225.12.472.322.74.605-.068-.314-.094-.557-.078-.73.01-.114.065-.305.165-.573.1-.268.186-.458.26-.57l1.43-2.29 1.476 2.486-1.477 2.466c-.194.316-.298.558-.313.724-.016.224.036.436.155.637l.115.194 2.89-1.715zm-5.544.306l-.55-.927c-.06-.102-.208-.277-.444-.526a.676.676 0 0 0-.436-.225.765.765 0 0 0-.495.106c-.23.137-.364.314-.4.533-.037.218.064.528.302.93l.574.965zm-6.703-5.498l-2.163-6.504 1.677-.557 1.354 4.07 1.248-.414-1.256-3.777 1.602-.533 1.256 3.777 1.548-.515-1.393-4.19 1.78-.59 2.2 6.62zm-2.836-9.673l-.484-4.223c-.105-.92.035-1.634.42-2.143.385-.51.98-.81 1.79-.9.83-.096 1.507.08 2.03.525.526.445.847 1.18.964 2.205l.16 1.39 3.05-.348.293 2.552zm3.213-2.953l-.07-.623c-.057-.49-.182-.825-.374-1.004a.828.828 0 0 0-.688-.222.92.92 0 0 0-.627.333c-.16.193-.212.526-.158 1l.083.725zm-3.475-12.582l.273-2.536 4.906.53a4.16 4.16 0 0 1 1.355.375c.416.197.768.475 1.057.834.29.358.48.722.572 1.092.13.514.158 1.117.083 1.81-.043.4-.118.833-.225 1.3-.107.468-.26.852-.462 1.152-.2.3-.47.565-.804.796-.336.23-.67.377-1.008.44-.54.1-1.013.13-1.417.085l-4.905-.53.274-2.537 5.022.542c.45.048.814-.038 1.093-.26.28-.222.443-.553.49-.995.048-.438-.04-.794-.26-1.07-.223-.276-.563-.438-1.02-.487zm1.105-6.065l1.58-4.52c.263-.753.652-1.266 1.166-1.54a1.92 1.92 0 0 1 1.597-.12c.462.162.808.445 1.038.848.153.27.23.61.228 1.025.33-.515.707-.847 1.128-.996.42-.15.88-.138 1.378.036.405.14.737.363.994.664.258.3.423.648.497 1.04.047.245.025.58-.064 1.007-.12.568-.21.94-.273 1.118l-1.457 4.168zm3.916-1.364l.367-1.05c.132-.376.16-.66.08-.853-.078-.193-.24-.332-.485-.418-.227-.08-.43-.07-.61.034-.18.103-.333.337-.46.703l-.373 1.066zm3.07 1.074l.43-1.23c.146-.417.174-.736.087-.958a.79.79 0 0 0-.505-.464.73.73 0 0 0-.646.06c-.2.12-.374.39-.52.813l-.43 1.226zm-3.073-9.659l1.32-2.19 5.343 3.224 2.062-3.418 1.745 1.053-3.384 5.608zm5.004-7.578l1.64-1.97 6.36 5.3-1.642 1.97zm11.126-4.276l2.142-.947c.296.574.458 1.127.488 1.658.03.53-.07 1.034-.293 1.51-.224.475-.617.954-1.18 1.437-.682.587-1.325.966-1.928 1.14-.604.173-1.277.145-2.02-.085-.743-.23-1.45-.735-2.12-1.514-.892-1.038-1.302-2.074-1.23-3.107.073-1.032.615-1.983 1.625-2.85.79-.68 1.55-1.055 2.277-1.124.728-.07 1.486.132 2.275.605l-1.386 1.853c-.223-.14-.406-.225-.548-.257a1.472 1.472 0 0 0-.692 0 1.51 1.51 0 0 0-.63.333c-.44.378-.624.844-.554 1.4.048.414.314.903.797 1.465.6.696 1.115 1.083 1.548 1.16.434.077.842-.05 1.225-.378.37-.32.562-.664.573-1.036.01-.37-.112-.792-.367-1.262zm8.815-3.172l-2.57 1.37.29 1.395-2.308 1.23-1.15-8.767 2.462-1.312 6.638 5.84-2.36 1.26zm-1.315-1.326l-2.207-2.196.598 3.054zm7.817-8.477l3.744-.647c.74-.127 1.353-.13 1.842-.008.49.12.914.344 1.276.667.36.323.65.72.87 1.195.22.474.378.99.474 1.546.15.872.168 1.565.053 2.08a3.413 3.413 0 0 1-.618 1.35 2.735 2.735 0 0 1-1.023.844 5.933 5.933 0 0 1-1.464.482l-3.744.647zm2.84 1.412l.77 4.455.617-.107c.526-.09.89-.214 1.093-.37.203-.154.342-.388.418-.7.075-.314.057-.797-.056-1.45-.15-.864-.393-1.43-.73-1.7-.337-.272-.832-.35-1.485-.238zm7.793-2.837l6.848.292-.076 1.766-4.287-.183-.056 1.314 3.976.17-.072 1.687-3.977-.17-.07 1.63 4.412.19-.08 1.872-6.973-.3zm9.964.785l2.484.608-1.483 6.06 3.877.95-.485 1.978-6.36-1.557zm13.28 4.407l3.66 2.164c.796.47 1.28 1.013 1.454 1.627.173.614.053 1.27-.36 1.97-.426.72-.975 1.154-1.647 1.303-.67.15-1.45-.038-2.34-.563l-1.204-.713-1.563 2.644-2.21-1.307zm.416 4.345l.54.318c.423.25.765.353 1.024.308a.828.828 0 0 0 .592-.414.92.92 0 0 0 .113-.7c-.058-.245-.293-.488-.704-.732l-.627-.37zm7.177 9.648l-2.134-1.984-1.224.728-1.915-1.78 7.915-3.942 2.042 1.9-3.36 8.18-1.958-1.824zm.826-1.676l1.356-2.8-2.693 1.56zm.992 5.501l6.824-4.682 2.41 3.514c.448.652.734 1.19.86 1.61.124.42.107.84-.05 1.26-.16.418-.455.777-.89 1.075-.378.26-.76.402-1.145.43a2.296 2.296 0 0 1-1.125-.208c-.232-.106-.492-.29-.778-.555.09.31.13.55.125.722-.002.114-.044.31-.126.582a3.253 3.253 0 0 1-.22.586l-1.28 2.377-1.635-2.383 1.313-2.558c.172-.328.26-.575.264-.743a1.08 1.08 0 0 0-.196-.624l-.128-.186-2.77 1.9zm5.513-.667l.61.89c.066.096.225.26.476.494.124.12.274.185.45.195a.762.762 0 0 0 .486-.14c.22-.15.34-.336.363-.557.023-.22-.098-.523-.362-.908l-.635-.926zm2.559 12.391l-1.08-2.706-1.417.135-.97-2.428 8.842-.18 1.033 2.592-6.534 5.956-.99-2.486zm1.464-1.16l2.426-1.953-3.1.258zm2.159 9.044l1.702-.255.585 3.91-3.49.52c-.622-.67-1.068-1.28-1.338-1.83-.27-.546-.465-1.214-.584-2.004-.145-.97-.098-1.787.142-2.45.24-.66.662-1.21 1.267-1.644.604-.435 1.33-.716 2.18-.843.893-.134 1.698-.066 2.414.204a3.62 3.62 0 0 1 1.746 1.394c.347.516.59 1.243.73 2.18.137.905.156 1.594.06 2.067a2.665 2.665 0 0 1-.596 1.23c-.3.35-.703.636-1.21.864l-.8-2.373c.294-.147.505-.353.633-.618s.164-.584.108-.956c-.082-.554-.34-.968-.775-1.24-.435-.27-1.07-.345-1.903-.22-.886.133-1.494.394-1.824.784-.33.39-.45.883-.36 1.478.042.283.123.547.243.79.122.246.305.52.552.82l.77-.114zm5.41 12.014l-.226 2.542-4.915-.438a4.16 4.16 0 0 1-1.362-.35 2.994 2.994 0 0 1-1.072-.816c-.295-.353-.493-.714-.592-1.082-.14-.51-.18-1.113-.117-1.807.036-.4.103-.836.202-1.306.097-.47.244-.855.44-1.16a2.99 2.99 0 0 1 .79-.81c.33-.237.662-.39.997-.458.54-.112 1.01-.15 1.416-.113l4.915.438-.227 2.542-5.032-.45c-.45-.04-.812.055-1.087.28-.275.228-.432.563-.47 1.005-.04.44.054.794.28 1.065.228.272.57.428 1.027.47zm-9.15 8.756l.91-2.767-1.172-.807.817-2.483 6.89 5.54-.87 2.65-8.835.37.836-2.543zm1.87.05l3.11.06-2.542-1.792zm2.96 6.73l-1.46 2.435-3.256-.003 1.538 2.87-1.45 2.42-2.473-5.232-2.974-1.782 1.318-2.198 2.973 1.782z"/>
  <g fill="#009b3a" stroke="#000" stroke-width=".145">
    <path d="M328.117 211.346s23.35 10.06 19.272 30.847c-4.078 20.787-17.078 20.647-22.174 22.945-5.098 2.297-8.614 5.585-10.625 5.125-2.01-.46-4.67-2.012-4.67-2.012s-.212 3.415 3.882 4.037c4.094.62 9.476-5.388 12.06-6.056 2.586-.668 18.456-2.39 22.318-23.54 4.507-22.58-19.917-30.68-20.06-31.344z"/>
    <path d="M339.9 215.768a3.205.76 75.104 0 1-1.54.118 3.205.76 75.104 1 1 1.54-.118z"/>
    <path d="M339.1 215.986a3.303.737 63.335 1 1-1.393.51 3.303.737 63.335 0 1 1.392-.51zm-2.343 1.542a3.128.778 17.053 0 1-.146 1.58 3.128.778 17.053 0 1 .147-1.58z"/>
    <path d="M337.107 216.67a3.29.74 34.225 1 1-.672 1.332 3.29.74 34.225 1 1 .672-1.332z"/>
    <path d="M338.096 216.262a3.344.727 46.194 1 1-1.017 1.042 3.344.727 46.194 0 1 1.016-1.042z"/>
    <path d="M339.725 219.2c.013.015-.9.51-1.108.582-.207.074-.488-.275-1.083.03-.595.306-1.004.863-1.134 1.19-.13.327.17.464.888.114.72-.35.91-.904 1.256-1.12.347-.218.93-.537 1.26-.655.143-.312.61-.983.85-1.37.24-.384 1.185-1.02 1.53-1.76.3-.612.186-1.133-.215-.915-.403.217-.922.833-1.164 1.275-.242.44-.035 1.004-.303 1.418-.212.3-.723 1.212-.778 1.213zm7.229 2.386a1.08 4.807-1.585 1 1-2.17-.52 1.08 4.807-1.585 1 1 2.17.52z"/>
    <path d="M345.747 221.543a5.008 1.036 77.49 1 1-2.097.105 5.008 1.036 77.49 1 1 2.097-.105z"/>
    <path d="M342.008 222.706a4.665 1.112 34.91 1 1-.725 2.198 4.665 1.112 34.91 1 1 .725-2.198z"/>
    <path d="M342.765 221.644a4.99 1.04 50.904 0 1-1.37 1.607 4.99 1.04 50.904 1 1 1.37-1.606z"/>
    <path d="M344.277 221.5a5.096 1.018 61.837 1 1-1.752 1.036 5.096 1.018 61.837 1 1 1.752-1.037z"/>
    <path d="M345.557 226.43c.015.026-1.415.324-1.726.337-.31.013-.583-.613-1.51-.442-.924.17-1.675.786-1.963 1.197-.288.41.08.74 1.192.56 1.11-.178 1.557-.887 2.11-1.042.552-.156 1.463-.353 1.96-.374.303-.384 1.17-1.137 1.63-1.58.462-.445 1.98-.933 2.702-1.84.618-.74.635-1.538.007-1.406-.63.132-1.552.78-2.033 1.306-.482.524-.38 1.423-.89 1.895-.392.336-1.403 1.413-1.48 1.39zm5.193 4.843a1.074 4.828 8.74 1 1-2.026-.93 1.074 4.828 8.74 1 1 2.026.93z"/>
    <path d="M349.6 230.983a1.03 5.04-2.05 1 1-2.067-.3 1.03 5.04-2.05 1 1 2.068.3z"/>
    <path d="M345.732 231.42a4.688 1.106 46.026 1 1-1.106 2.03 4.688 1.106 46.026 1 1 1.106-2.03z"/>
    <path d="M346.663 230.517a5.026 1.032 61.79 1 1-1.63 1.324 5.026 1.032 61.79 1 1 1.63-1.323z"/>
    <path d="M348.147 230.663a5.136 1.01 72.543 1 1-1.9.687 5.136 1.01 72.543 1 1 1.9-.687z"/>
    <path d="M348.525 235.768c.008.028-1.442.048-1.75 0-.305-.046-.46-.717-1.394-.725-.935-.01-1.78.454-2.135.804-.356.35-.056.746 1.064.783 1.118.037 1.682-.577 2.25-.625.567-.047 1.494-.067 1.984.008.365-.322 1.348-.9 1.88-1.25.53-.35 2.102-.54 2.97-1.295.738-.615.898-1.4.26-1.39-.638.01-1.657.475-2.222.9-.565.426-.628 1.333-1.21 1.7-.445.257-1.627 1.127-1.697 1.09m2.515 6.298a1.074 4.83 31.31 0 1-1.472-1.7 1.074 4.83 31.31 0 1 1.473 1.7"/>
    <path d="M350.096 241.324a1.022 5.072 20.618 0 1-1.757-1.132 1.022 5.072 20.618 0 1 1.756 1.132m-3.665-1.192a4.764 1.088 69.934 0 1-1.79 1.426 4.764 1.088 69.934 0 1 1.79-1.426"/>
    <path d="M347.623 239.68a1.015 5.107-4.863 0 1-1.99.554 1.015 5.107-4.863 1 1 1.99-.553"/>
    <path d="M348.917 240.437a.996 5.205 5.55 1 1-1.987-.148.996 5.205 5.55 1 1 1.987.147"/>
    <path d="M347.274 245.324c-.003.03-1.324-.55-1.584-.72-.26-.172-.138-.857-.98-1.252-.845-.395-1.79-.314-2.247-.137-.458.177-.34.67.66 1.166.998.498 1.747.162 2.28.352.532.19 1.378.556 1.793.828.455-.147 1.57-.276 2.185-.38.618-.106 2.115.368 3.195.026.907-.265 1.356-.926.775-1.18-.582-.255-1.685-.247-2.36-.086-.678.16-1.087.976-1.758 1.077-.5.053-1.91.37-1.958.307m.857 7.695a1.257 5.5 48.457 1 1-1.063-2.41 1.257 5.5 48.457 1 1 1.062 2.41"/>
    <path d="M347.332 251.87a1.194 5.792 37.466 1 1-1.56-1.885 1.194 5.792 37.466 1 1 1.56 1.885"/>
    <path d="M343.696 249.223a1.248 5.54-3.478 1 1-2.44.927 1.248 5.54-3.478 1 1 2.44-.927"/>
    <path d="M345.15 249.15a1.173 5.896 11.633 0 1-2.372-.11 1.173 5.896 11.633 1 1 2.372.11"/>
    <path d="M346.328 250.444a1.157 5.978 22.12 1 1-2.14-.882 1.157 5.978 22.12 1 1 2.14.882"/>
    <path d="M342.91 255.26c-.013.03-1.276-1.09-1.506-1.37-.23-.282.13-.995-.67-1.736-.798-.74-1.864-.994-2.426-.964-.562.03-.594.616.342 1.526.936.91 1.87.81 2.395 1.212.524.403 1.335 1.112 1.702 1.563.55.002 1.818.264 2.53.37.714.108 2.206 1.173 3.507 1.185 1.085.037 1.797-.53 1.24-1.022-.556-.49-1.772-.88-2.57-.948-.798-.067-1.516.684-2.288.553-.57-.122-2.223-.28-2.256-.37m-2.298 7.345a1.407 6.065 79.752 1 1 .29-2.905 1.407 6.065 79.752 1 1-.29 2.904"/>
    <path d="M340.496 261.048a1.343 6.355 68.504 0 1-.478-2.696 1.343 6.355 68.504 0 1 .478 2.696"/>
    <path d="M338.416 256.423a1.403 6.085 26.238 0 1-2.86-.53 1.403 6.085 26.238 1 1 2.86.53"/>
    <path d="M339.87 257.208a1.323 6.45 41.823 0 1-2.23-1.475 1.323 6.45 41.823 0 1 2.23 1.475"/>
    <path d="M340.292 259.128a1.305 6.538 52.67 1 1-1.583-2.076 1.305 6.538 52.67 0 1 1.582 2.076"/>
    <path d="M334.357 261.717c-.03.023-.637-1.773-.705-2.173-.067-.4.668-.87.302-2.038-.366-1.166-1.257-2.023-1.816-2.32-.56-.296-.91.242-.503 1.65.406 1.406 1.364 1.85 1.65 2.537.284.686.68 1.83.788 2.47.53.32 1.61 1.303 2.24 1.817.63.514 1.49 2.39 2.738 3.154 1.03.662 2.026.534 1.757-.255-.27-.79-1.23-1.864-1.963-2.39-.734-.525-1.837-.225-2.51-.797-.483-.445-1.993-1.553-1.976-1.656"/>
    <path d="M330.765 267.986a1.763 6.137 89.068 0 1 .01-3.526 1.763 6.137 89.068 0 1-.01 3.526"/>
    <path d="M329.95 262.474a1.704 6.35 37.587 0 1-2.616-2.188 1.704 6.35 37.587 1 1 2.616 2.188"/>
    <path d="M330.808 265.28a1.742 6.213 66.472 0 1-1.246-3.255 1.742 6.213 66.472 0 1 1.246 3.256m1.672-53.411a3.812.775 41.126 0 1-1.446.788 3.812.775 41.126 1 1 1.447-.788m-1.876 1.585a3.86.765 8.163 0 1 .293 1.585 3.86.765 8.163 1 1-.293-1.585"/>
    <path d="M331.36 212.452a4.038.732 26.817 1 1-.765 1.252 4.038.732 26.817 0 1 .766-1.252m-27.666 49.556s5.144 1.103 9.615 2.728c4.47 1.625 11.264 7.203 13.09 7.52 2.048.092 4.888-.607 5.966-3.565-3.154.843-5.045 2.12-8.056.466-1.064-.403-4.548-3.575-8.367-5.272-3.82-1.698-11.52-3.634-11.52-3.634l-.727 1.758m5.484-46.503c-.02-.044 5.92-3.123 5.92-3.123l-6.53 1.67-.757 1.148 1.366.306"/>
    <path d="M314.794 216.946c-2.292-.417-5.817-1.187-8.062-1.367 1.552-1.72 3.69-4.625 5.007-6.408-.87 1.7-2.237 3.944-2.776 5.572 1.58.853 4.064 1.52 5.83 2.202"/>
    <path d="M308.117 215.87c-.025-.04 5.26-4.074 5.26-4.074l-6.11 2.734-.543 1.263 1.393.077"/>
    <path d="M313.732 216.888c-2.308-.44-5.86-1.248-8.116-1.442 1.524-1.77 3.614-4.764 4.902-6.603-.84 1.755-2.168 4.068-2.678 5.75 1.602.886 4.107 1.585 5.892 2.295"/>
    <path d="M307.245 216.204c-.015-.045 6.195-2.594 6.195-2.594l-6.67 1.098-.863 1.075 1.338.42"/>
    <path d="M313.034 216.946c-2.335-.194-5.943-.63-8.197-.58 1.3-1.966 3.014-5.238 4.072-7.247-.626 1.874-1.667 4.37-1.974 6.134 1.69.727 4.248 1.165 6.098 1.692"/>
    <path d="M306.605 216.233c-.034-.034 4.197-5.114 4.197-5.114l-5.318 3.976-.247 1.356 1.368-.22"/>
    <path d="M313.005 217.28c-2.502-.047-6.38-.267-8.772-.055 1.183-2.237 2.677-5.93 3.6-8.196-.477 2.09-1.332 4.887-1.48 6.834 1.867.675 4.633.97 6.652 1.417"/>
    <path d="M305.76 217.44c-.03-.044 5.098-4.89 5.098-4.89l-6.167 3.413-.422 1.46 1.493.018"/>
    <path d="M311.885 217.44c-2.688.01-6.827-.135-9.45.16 1.74-2.495 4.116-6.6 5.58-9.12-.946 2.315-2.45 5.418-3.012 7.567 1.875.696 4.796.954 6.882 1.394"/>
    <path d="M304.045 217.804c-.026-.048 6.51-5.514 6.51-5.514l-7.36 3.913-.757 1.62 1.607-.02"/>
    <path d="M310.91 217.6c-2.662.385-6.784.818-9.34 1.47 1.366-2.673 3.133-7.005 4.223-9.666-.606 2.39-1.65 5.623-1.9 7.795 1.957.417 4.888.262 7.017.4"/>
    <path d="M303.172 218.895c-.038-.04 5.016-6.948 5.016-6.948l-6.26 5.66-.335 1.734 1.58-.445"/>
    <path d="M309.44 218.43c-2.68.25-6.82.475-9.41.997 1.514-2.6 3.522-6.836 4.76-9.437-.74 2.354-1.964 5.53-2.336 7.687 1.932.515 4.868.507 6.987.753"/>
    <path d="M302.27 219.623c-.026-.05 6.386-5.526 6.386-5.526L301.41 218l-.732 1.632 1.592-.01"/>
    <path d="M308.656 218.706c-2.672.564-6.818 1.278-9.37 2.098 1.248-2.73 2.817-7.122 3.786-9.82-.493 2.396-1.387 5.656-1.532 7.815 2 .274 4.956-.083 7.116-.094"/>
    <path d="M301.208 219.913c-.043-.03 4.08-7.574 4.08-7.574l-5.522 6.55-.09 1.73 1.532-.707"/>
    <path d="M308.656 219.143c-2.867.745-7.335 1.723-10.04 2.75 1.04-3.103 2.228-8.077 2.963-11.134-.25 2.697-.835 6.378-.73 8.796 2.23.22 5.434-.307 7.806-.414"/>
    <path d="M300.408 221.66c-.043-.045 5.14-7.592 5.14-7.592l-6.572 6.135-.277 1.915 1.708-.46"/>
    <path d="M307.52 220c-2.817.892-7.217 2.1-9.86 3.26.888-3.123 1.838-8.103 2.427-11.162-.122 2.68-.532 6.348-.315 8.73 2.23.1 5.394-.594 7.75-.827"/>
    <path d="M299.375 222.78c-.05-.036 3.907-8.38 3.907-8.38l-5.554 7.216.025 1.927 1.622-.764"/>
    <path d="M306.445 221.15c-2.887.658-7.378 1.5-10.115 2.44 1.168-3.038 2.566-7.924 3.43-10.926-.365 2.66-1.106 6.284-1.107 8.678 2.213.28 5.425-.152 7.792-.192"/>
    <path d="M298.445 223.58c-.035-.053 6.382-6.56 6.382-6.56l-7.524 4.857-.613 1.842 1.755-.14"/>
    <path d="M305.165 222.284c-2.86.384-7.298.798-10.028 1.484 1.327-2.978 2.993-7.812 4.022-10.782-.522 2.672-1.468 6.287-1.616 8.723 2.143.503 5.307.38 7.62.574"/>
    <path d="M297.18 222.924c-.048-.04 4.342-8.205 4.342-8.205l-5.89 6.904-.093 1.955 1.64-.656"/>
    <path d="M305.514 221.31c-3.11 1.273-7.968 3.048-10.882 4.618.955-3.692 1.963-9.54 2.588-13.136-.112 3.115-.533 7.4-.273 10.14 2.47-.077 5.963-1.15 8.567-1.622"/>
    <path d="M296.583 225.412c-.05-.044 5.198-9.416 5.198-9.416l-6.86 7.967-.19 2.225 1.853-.776"/>
    <path d="M304.32 222.473c-3.046 1.433-7.816 3.46-10.655 5.172.79-3.692 1.535-9.512 1.998-13.088.027 3.074-.202 7.318.18 10.005 2.46-.218 5.9-1.475 8.478-2.09"/>
    <path d="M295.52 226.837c-.056-.033 3.794-10.133 3.794-10.133l-5.677 9.05.144 2.194 1.74-1.11"/>
    <path d="M302.983 223.317c-3.04 1.457-7.8 3.52-10.63 5.255.766-3.695 1.475-9.517 1.916-13.095.045 3.072-.157 7.315.242 9.997 2.46-.238 5.895-1.523 8.47-2.157"/>
    <path d="M294.663 228.044c-.047-.05 5.868-8.935 5.868-8.935l-7.398 7.312-.36 2.216 1.89-.594"/>
    <path d="M302.706 222.852c-2.71 2.164-7 5.344-9.443 7.722-.004-3.73-.504-9.48-.805-13.016.68 2.928 1.355 7.04 2.304 9.504 2.39-.85 5.525-2.95 7.944-4.21"/>
    <path d="M294.954 228.466c-.065-.01.68-10.707.68-10.707l-2.828 10.41.79 1.96 1.358-1.664"/>
    <path d="M301.935 223.84c-2.718 2.15-7.018 5.31-9.47 7.675.01-3.732-.465-9.487-.752-13.025.668 2.932 1.325 7.05 2.264 9.52 2.39-.84 5.534-2.923 7.958-4.17"/>
    <path d="M294.27 230.284c-.06-.025 2.735-10.462 2.735-10.462l-4.732 9.62.373 2.15 1.624-1.308"/>
    <path d="M301.63 224.088c-2.57 2.53-6.66 6.286-8.93 9.006-.403-3.828-1.534-9.67-2.223-13.265 1.015 2.925 2.152 7.067 3.396 9.488 2.377-1.147 5.392-3.66 7.757-5.23"/>
    <path d="M294.285 231.623c-.068-.01.51-11.127.51-11.127l-2.732 10.81.85 2.04 1.372-1.723"/>
    <path d="M300.815 225.935c-2.75 2.273-7.104 5.618-9.574 8.11-.085-3.876-.727-9.846-1.116-13.517.766 3.036 1.553 7.302 2.587 9.854 2.447-.906 5.636-3.116 8.106-4.447"/>
    <path d="M293.47 232.888c-.06-.036 3.874-10.466 3.874-10.466l-5.81 9.273.153 2.297 1.783-1.104"/>
    <path d="M300.772 225.98c-2.433 2.573-6.308 6.393-8.46 9.157-.383-3.88-1.46-9.802-2.115-13.444.965 2.965 2.045 7.16 3.226 9.612 2.252-1.17 5.108-3.728 7.35-5.326"/>
    <path d="M293.615 233.426c-.068 0-.458-11.065-.458-11.065l-1.79 11.022 1.026 1.915 1.223-1.87"/>
    <path d="M299.58 226.808c-2.355 2.597-6.112 6.453-8.18 9.24-.497-3.883-1.746-9.802-2.508-13.442 1.05 2.96 2.253 7.152 3.505 9.595 2.214-1.19 4.99-3.773 7.182-5.392"/>
    <path d="M292.99 234.532c-.062-.02 1.236-11.24 1.236-11.24l-3.296 10.63.657 2.185 1.403-1.575"/>
    <path d="M299.07 227.244c-2.152 2.813-5.61 7.014-7.46 9.986-.792-3.812-2.487-9.578-3.524-13.124 1.273 2.84 2.79 6.894 4.226 9.202 2.12-1.4 4.695-4.24 6.758-6.064"/>
    <path d="M292.946 235.58c-.064-.004-.713-11.255-.713-11.255l-1.417 11.165 1.02 1.967 1.11-1.878"/>
    <path d="M298.852 227.884c-2.02 2.945-5.28 7.357-6.99 10.446-.99-3.796-2.984-9.513-4.205-13.03 1.423 2.794 3.153 6.795 4.71 9.044 2.06-1.52 4.504-4.515 6.485-6.46"/>
    <path d="M293.645 236.626c-.063-.02 1.145-11.304 1.145-11.304l-3.222 10.626.68 2.224 1.397-1.546"/>
    <path d="M298.445 228.932c-1.742 3.208-4.583 8.048-6.003 11.357-1.323-3.638-3.82-9.044-5.35-12.37 1.665 2.58 3.744 6.316 5.494 8.336 1.908-1.797 4.066-5.116 5.86-7.324"/>
    <path d="M293.252 237.557c-.063.018-3.16-10.72-3.16-10.72l1.068 11.3 1.424 1.593.668-2.173"/>
    <path d="M298.372 230.183c-1.815 3.2-4.772 8.024-6.257 11.323-1.33-3.627-3.854-9.017-5.4-12.333 1.69 2.572 3.798 6.298 5.58 8.312 1.974-1.792 4.217-5.1 6.077-7.302"/>
    <path d="M293.397 239.58c-.066 0-1.16-11.273-1.16-11.273l-1.044 11.273 1.128 1.932 1.077-1.933"/>
    <path d="M298.56 231.172c-1.865 3.156-4.9 7.91-6.437 11.175-1.272-3.658-3.707-9.107-5.2-12.46 1.65 2.612 3.695 6.388 5.445 8.443 2.003-1.745 4.3-5 6.193-7.158"/>
    <path d="M293.295 240.48c-.066.008-2.09-11.07-2.09-11.07l-.103 11.338 1.283 1.785.91-2.052"/>
    <path d="M297.76 232.772c-2.012 3.022-5.267 7.56-6.957 10.714-1.095-3.74-3.266-9.35-4.595-12.803 1.52 2.723 3.383 6.635 5.03 8.808 2.083-1.603 4.53-4.695 6.523-6.718"/>
    <path d="M292.32 241.717c-.064-.018.937-11.315.937-11.315l-3.083 10.73.744 2.186 1.403-1.6"/>
    <path d="M297.877 233.048c-1.72 3.273-4.536 8.22-5.924 11.58-1.436-3.568-4.115-8.847-5.756-12.095 1.764 2.5 3.98 6.132 5.82 8.07 1.92-1.875 4.066-5.276 5.86-7.555"/>
    <path d="M291.943 242.663c-.065.02-3.473-10.546-3.473-10.546l1.337 11.214 1.496 1.527.64-2.194"/>
    <path d="M297.412 233.892c-1.202 3.592-3.23 9.067-4.09 12.67-1.95-3.19-5.38-7.79-7.485-10.624 2.112 2.07 4.84 5.156 6.94 6.657 1.61-2.262 3.21-6.072 4.635-8.703"/>
    <path d="M295.026 243.52c-.064.024-3.76-10.4-3.76-10.4l1.644 11.154 1.537 1.465.58-2.22"/>
    <path d="M297.383 234.997c-1.176 3.605-3.164 9.1-4 12.714-1.972-3.17-5.436-7.734-7.56-10.545 2.127 2.047 4.875 5.105 6.99 6.583 1.592-2.278 3.165-6.105 4.57-8.75"/>
    <path d="M295.055 245.295c-.06.033-4.837-9.726-4.837-9.726l2.817 10.8 1.68 1.214.34-2.29"/>
    <path d="M297.02 235.9c-.752 3.74-2.092 9.475-2.505 13.176-2.323-2.86-6.284-6.89-8.715-9.37 2.346 1.724 5.424 4.36 7.69 5.524 1.32-2.487 2.44-6.506 3.53-9.33"/>
    <path d="M295.375 246.823c-.066.013-2.608-10.906-2.608-10.906l.43 11.322 1.366 1.693.812-2.11"/>
    <path d="M297.034 237.063c-.398 3.825-1.194 9.713-1.26 13.453-2.57-2.534-6.874-6.01-9.517-8.154 2.488 1.4 5.788 3.61 8.144 4.463 1.078-2.653 1.816-6.804 2.634-9.762"/>
    <path d="M295.506 247.623c-.05.05-6.895-7.874-6.895-7.874l5.197 9.535 1.9.65-.2-2.312"/>
    <path d="M297.18 238.4c-.414 3.824-1.233 9.707-1.313 13.446-2.56-2.55-6.85-6.05-9.486-8.207 2.484 1.413 5.775 3.642 8.128 4.507 1.088-2.646 1.842-6.793 2.67-9.746"/>
    <path d="M296.277 249.44c-.06.036-5.296-9.49-5.296-9.49l3.328 10.653 1.738 1.137.23-2.3"/>
    <path d="M297.485 239.972c-.252 3.846-.823 9.775-.746 13.517-2.663-2.392-7.092-5.63-9.812-7.628 2.537 1.263 5.914 3.29 8.3 4.013.974-2.71 1.553-6.9 2.257-9.903"/>
    <path d="M296.946 251.186c-.053.047-6.543-8.297-6.543-8.297l4.772 9.846 1.868.77-.097-2.32"/>
    <path d="M297.557 241.746c-.228 3.85-.763 9.784-.664 13.525-2.676-2.367-7.124-5.568-9.856-7.54 2.545 1.24 5.934 3.24 8.323 3.94.958-2.72 1.512-6.915 2.197-9.924"/>
    <path d="M297.543 252.597c-.062.03-4.588-10.003-4.588-10.003l2.54 10.95 1.65 1.316.398-2.263"/>
    <path d="M297.732 242.895c.13 3.862.152 9.84.598 13.552-2.874-1.997-7.585-4.584-10.478-6.18 2.64.893 6.188 2.426 8.623 2.802.697-2.837.856-7.088 1.257-10.175"/>
    <path d="M298.343 252.204c-.04.064-8.38-5.737-8.38-5.737l7.104 7.828 1.974.102-.697-2.193"/>
    <path d="M297.994 243.303c.333 3.844.667 9.802 1.308 13.484-2.983-1.882-7.836-4.283-10.816-5.764 2.69.79 6.323 2.184 8.78 2.467.55-2.853.488-7.096.728-10.188"/>
    <path d="M299.245 254.343c-.052.048-6.983-8.027-6.983-8.027l5.29 9.638 1.91.696-.217-2.307"/>
    <path d="M298.605 244.772c.494 3.828 1.078 9.773 1.873 13.42-3.052-1.705-7.988-3.815-11.02-5.12 2.713.63 6.392 1.807 8.853 1.942.43-2.89.186-7.133.295-10.242"/>
    <path d="M300.64 255.695c-.038.063-8.315-5.876-8.315-5.876l7.014 7.943 1.974.136-.673-2.205"/>
    <path d="M298.866 246.4c.746 3.784 1.72 9.676 2.752 13.25-3.145-1.417-8.188-3.06-11.286-4.078 2.737.373 6.47 1.2 8.923 1.104.232-2.93-.29-7.154-.39-10.275"/>
    <path d="M301.557 256.86c-.052.047-6.878-8.155-6.878-8.155l5.16 9.73 1.904.734-.187-2.31"/>
    <path d="M299.317 247.448c1.092 3.68 2.608 9.434 3.963 12.866-3.24-.994-8.38-1.962-11.54-2.563 2.74.007 6.508.335 8.925-.09-.045-2.96-.957-7.108-1.348-10.212"/>
    <path d="M301.92 256.874c-.014.075-9.608-2.06-9.608-2.06l9.138 4.544 1.846-.695-1.375-1.79"/>
    <path d="M299.943 248.597c1.077 3.685 2.57 9.447 3.912 12.886-3.238-1.013-8.375-2.01-11.53-2.628 2.74.02 6.507.37 8.925-.04-.033-2.96-.93-7.112-1.307-10.218"/>
    <path d="M303.492 257.892c-.03.068-9.194-4.44-9.194-4.44l8.246 6.684 1.976-.185-1.028-2.058"/>
    <path d="M299.463 249.237c1.826 3.358 4.496 8.652 6.527 11.71-3.368-.258-8.583-.07-11.79.04 2.675-.6 6.42-1.11 8.69-2.06-.656-2.884-2.404-6.74-3.427-9.69"/>
    <path d="M304.946 258.895c-.017.074-9.553-2.638-9.553-2.638l8.966 5.077 1.884-.576-1.298-1.863"/>
    <path d="M300.452 250.663c1.846 3.344 4.546 8.62 6.596 11.662-3.368-.23-8.578.003-11.78.14 2.668-.623 6.407-1.165 8.67-2.134-.675-2.88-2.445-6.724-3.486-9.667"/>
    <path d="M306.154 259.68c-.034.065-8.903-5.325-8.903-5.325l7.78 7.444 2 .02-.876-2.14"/>
    <path d="M301.194 251.506c2.137 3.122 5.302 8.073 7.61 10.865-3.33.21-8.424 1.122-11.557 1.676 2.562-.974 6.18-2.006 8.308-3.275-.94-2.807-3.053-6.44-4.36-9.264"/>
    <path d="M306.808 260.466c-.003.08-9.61-.226-9.61-.226l9.508 2.81 1.69-1.05-1.588-1.534m5.572-46.56c0-.03 6.913-1.153 6.913-1.153l-6.88.16-1.2.617 1.166.376"/>
    <path d="M316.176 215.375c-2.006-.606-5.038-1.62-7.097-2.07 2.187-.87 5.426-2.41 7.42-3.357-1.535.96-3.764 2.192-4.952 3.155 1.148.78 3.23 1.575 4.628 2.272"/>
    <path d="M312.074 214.14c-.008-.03 6.69-1.84 6.69-1.84l-6.93.885-1.046.717 1.286.237"/>
    <path d="M316.496 215.87c-2.344-.22-5.94-.67-8.252-.694 1.743-1.543 4.186-4.124 5.69-5.71-1.034 1.49-2.625 3.467-3.31 4.876 1.57.63 4.093 1.053 5.872 1.528"/>
    <path d="M309.586 214.62c.006-.032 6.952-.786 6.952-.786l-6.773-.217-1.267.557 1.09.445"/>
    <path d="M314.736 216.132c-2.132-.408-5.37-1.118-7.526-1.37 2.048-1.006 5.033-2.736 6.87-3.798-1.37 1.036-3.395 2.39-4.42 3.4 1.298.643 3.542 1.223 5.076 1.768"/>
    <path d="M308.99 214.546c-.018-.026 6.12-2.633 6.12-2.633l-6.703 1.77-.803.815 1.386.048"/>
    <path d="M314.532 216.902c-1.774-.732-4.49-1.973-6.246-2.49 1.36-1.263 3.274-3.48 4.453-4.838-.82 1.358-2.075 3.114-2.63 4.46 1.18 1.003 3.084 1.987 4.422 2.87"/>
    <path d="M309.34 214.997c-.014-.04 4.76-2.063 4.76-2.063l-5.185.71-.637.924 1.06.43m-3.984 44.582c.004.075-9.867.073-9.867.073l9.99 2.443 1.64-1.074-1.763-1.443"/>
    <path d="M307.128 260.22c-.01.07-10.02-2.332-10.02-2.332l9.622 4.718 1.886-.607-1.488-1.78"/>
    <path d="M308.772 260.888c0 .076-9.95-.5-9.95-.5l9.95 2.997 1.705-.967-1.705-1.53"/>
    <path d="M302.46 253.863c2.587 2.852 6.465 7.397 9.18 9.913-3.34.505-8.374 1.855-11.47 2.68 2.46-1.182 5.983-2.516 7.964-3.947-1.334-2.656-3.967-6.01-5.675-8.647"/>
    <path d="M310.14 261.397c-.02.07-9.945-3.254-9.945-3.254l9.344 5.556 1.957-.414-1.358-1.89"/>
    <path d="M303.375 254.517c2.82 2.573 7.076 6.703 9.985 8.918-3.202.922-7.962 2.91-10.89 4.125 2.272-1.5 5.563-3.285 7.342-4.98-1.58-2.525-4.496-5.6-6.437-8.063"/>
    <path d="M310.954 262.008c.015.077-9.437 1.856-9.437 1.856l9.944.677 1.405-1.385-1.91-1.147"/>
    <path d="M308.99 261.412c.01.076-9.842.755-9.842.755l10.155 1.745 1.555-1.184-1.868-1.316"/>
    <path d="M310.808 261.935c-.007.073-10.177-1.63-10.177-1.63l9.96 4.037 1.837-.735-1.62-1.672z"/>
    <path d="M312.496 262.488c.005.075-9.968.187-9.968.187l10.155 2.302 1.63-1.08-1.817-1.41z"/>
    <path d="M305.66 255.914c2.797 2.664 7.008 6.927 9.908 9.246-3.298.734-8.22 2.428-11.248 3.463 2.367-1.347 5.783-2.92 7.653-4.484-1.532-2.555-4.41-5.716-6.314-8.226z"/>
    <path d="M313.906 262.895c-.013.07-10.17-2.557-10.17-2.557l9.745 4.893 1.924-.545-1.498-1.79z"/>
    <path d="M306.634 256.495c3.008 2.37 7.565 6.193 10.635 8.2-3.128 1.14-7.73 3.45-10.562 4.862 2.156-1.65 5.307-3.657 6.955-5.468-1.765-2.41-4.907-5.275-7.03-7.595z"/>
    <path d="M314.765 263.448c.02.076-9.28 2.5-9.28 2.5l9.976-.01 1.298-1.478-1.993-1.01z"/>
  </g>
  <path d="M327.58 249.484l-7.58-5.238-7.58 5.238 2.842-8.38-6.633-5.24h8.526l2.843-8.382 2.84 8.382h8.53l-6.634 5.24 2.843 8.38z" fill="#fedf00" stroke="#000" stroke-width=".435"/>
</svg>
