<svg xmlns="http://www.w3.org/2000/svg" height="480" width="640" viewBox="0 0 640 480">
  <g fill-rule="evenodd" stroke-width="1pt">
    <rect rx="0" ry="0" height="477.9" width="640"/>
    <rect rx="0" ry="0" height="159.3" width="640" y="320.7" fill="#fff"/>
    <path fill="#1291ff" d="M0 0h640v159.3H0z"/>
  </g>
</svg>
