<svg xmlns="http://www.w3.org/2000/svg" height="480" width="640" viewBox="0 0 640 480">
  <path d="M640.013 480.02V.03H.003v479.99h640.01z" fill="#006"/>
  <path d="M-.006 73.341h76.034L-.006 26.768V.03h43.503L149.86 64.75V.03h59.892v64.72L316.11.03h43.88v26.738L283.58 73.34h76.41v73.37h-76.41l76.41 46.573v26.746h-43.88l-106.36-64.73v64.73h-59.892V155.3L43.497 220.03H-.006v-26.746l76.034-46.574H-.006V73.341z" fill="#fff"/>
  <path fill="#ce1126" d="M331.685.027L211.525 73.39h28.764L359.983.027h-28.298zM359.998 220.03l-119.822-73.323h28.89l90.932 55.843v17.48zM120.38 73.372L-.01.009v17.52l91.373 55.843h29.016zM120.129 146.686L-.013 220.009h28.748l120.16-73.323h-28.766z"/>
  <path fill="#ce1126" d="M-.006 88.56h162.621V.027h35.195V88.56h162.18v42.962H197.81v88.505h-35.195v-88.505H-.005V88.56z"/>
  <g>
    <path d="M399.67 640.77c-.046 16.332-2.623 33.927-23.764 42.308-21.142-8.381-23.719-25.976-23.765-42.308h47.529z" stroke-width="1.112" fill="#8fc5ff" transform="matrix(4.4862 0 0 4.4867 -1190.9 -2609)" stroke="#fff"/>
    <path d="M375.9 683.08c9.584-3.799 15.353-9.493 18.8-16.104-.516.02-1.597-.011-2.064-.043-.52-.034-20.271-2.018-22.61-2.876-2.035-.746-9.799.634-13.423 1.929 3.381 7.032 9.237 13.106 19.297 17.094z" fill="#366cc9" transform="matrix(4.4862 0 0 4.4867 -1190.9 -2609)" stroke-width="1.102" stroke="#000"/>
    <path d="M361.13 672.95c.323-.105.94-.08 1.183-.036.286.052.338.078.442-.234s.338-.234.52-.078.649.078.831-.182c.182-.259.234-.233.416-.052.182.182.26.13.442.078.182-.051.494-.259.65-.545s.389-.39.519-.234.26.234.442.208.234.156.208.389c-.026.234.078.286.52-.077.39.389.519.233.519-.182 0-.416-.103-1.949-.259-2.157s-.312-.806-.338-1.274c-.049-.883-.052-.935-1.118-1.481 0-.312-.078-.442-.831-.39.026-.104-.104-.416-.26-.546s-.182-.182-.104-.545c.312.026.65-.026.832-.286.181-.26.779-.208 1.143-.052s.832.182 1.533.078c.26-.208.702-.442 1.17-.702.467-.26.597-.364.623-.728.067-.933-.26-2.001-.52-2.494-.259-.494-.337-1.118-.701-1.898-.396-.849-.39-1.065-.832-1.585-.121-.143-.26-.26-.286-.545-.026-.286-.13-.676-.441-.962-.786-.721-1.092-3.041-1.404-4.756-.179-.983-.052-3.3-.467-3.664-.702-.572-1.04-.468-1.508-.65-.338-.468-.493-1.403-.805-2.235-.494.078-.832.598-1.17.78s-.39.182-.39.65c0 .467-.26 1.117-.727 1.845-.468.727-1.248.52-1.897 1.611-1.43-1.741-1.456-2.235-1.56-2.729-.104-.493-.338-.597-1.143-1.299 0-.208-.104-1.039-.026-1.507-.598-.494-1.04-.416-1.325-.052-.286.364-.494.909-.936 1.117-.265.337-1.064 1.187-1.718 2.199.595 9.044 2.636 18.022 8.773 25.202z" fill="#5d3100" transform="matrix(4.4862 0 0 4.4867 -1190.9 -2609)" stroke-width=".138" stroke="#000"/>
    <path d="M399.67 640.77c.018-6.152-.324-12.125-.168-17.359-7.9-3.535-18.295-4.262-23.596-4.262-5.302 0-15.697.727-23.597 4.262.156 5.234-.185 11.207-.168 17.359h47.529z" stroke-width="1.08" transform="matrix(4.4862 0 0 4.4867 -1190.9 -2609)" stroke="#fff" fill="#ff0"/>
    <path d="M394.613 297.888c1.166 1.867 3.266 5.075 3.499 6.82.817-1.692 1.458-2.445 1.633-3.495s1.4-3.092.933-4.2-.816-1.983.467-1.166c1.278.816 1.032 2.23.753 4.316-.753 5.711-3.144 6.878-3.494 10.728 3.44 8.102.874 11.019 4.602 18.947.584.35 2.14-.274 2.607-.157 1.978-1.4 3.459-.893 6.254-.31 2.8.584 4.315 2.562 4.315 4.312s0 2.216.584 3.266 1.75 2.683 1.516 3.85c-.233 1.162.233 1.862.583 2.445s-.116 1.867-.466 2.683-.234 1.867 1.166 3.616c1.4 1.746 4.661 9.095 4.661 13.407 0 4.316.233 6.299 1.983 7.111 1.75.817 2.333 1.517 2.1 3.383s.816 11.544 1.05 13.06.816 1.167 1.516 1.984c.695.812 1.162 1.745 3.495 1.745s4.584-.31 6.1-.076c2.1 2.916 3.383 6.878 3.85 9.328s.426 5.792 1.243 5.792 1.633.117 1.4-2.916-.467-3.5-1.517-5.012c-1.05-1.516-1.633-2.216-1.05-3.15s.7-2.45.467-3.616-.583-2.912 1.4-.583c1.982 2.333 2.566 2.916 3.149 3.733s.812 2.333.7 3.733c-.117 1.395.112 1.979.928 1.279.817-.696 1.866.466 1.4 1.983s.117 2.45 1.516 2.916 1.983.817 2.333 1.867 1.516 1.512 1.516-.584c0-2.1-.816-6.532-1.4-7.928-.582-1.4-1.049-4.433-1.166-6.182s-.466-2.212-1.283-2.562-1.516-.934-1.633-1.75-.816-1.108-1.341-1.108-.987-.409-1.279-.992-.583-.641-1.166-.7-1.516.292-1.808-.641-.7-2.275-1.283-3.033-1.108-.992-1.166-3.612c-.059-2.625-.117-2.975-.934-3.908s-2.216-3.379-2.799-4.429c-.579-1.05-1.162-2.1-1.162.117 0 2.212 0 3.379 1.395 4.195 1.4.817 1.75.817 1.167 1.983s0 1.983.233 2.8.7 1.633 0 2.445c-.7.817-1.4.584-1.283-.695.117-1.283-.35-2.8-.929-3.85-.583-1.05-1.05-1.75-1.75-1.166s-1.282-.117-.816-.584.35-.816 0-1.166-.466-.7.117-1.4.583-1.05.233-2.679c-.35-1.633-2.916-9.794-4.082-11.66s-1.05-3.267.466-1.4 2.8 3.5 2.916 5.011c.117 1.517.467 2.45.933 3.033s.817.35 1.05-.933 1.167-.816-.466-3.262c-1.633-2.45-4.666-6.532-5.832-13.877s-1.633-12.244-2.8-14.223c-1.162-1.983-1.512-2.45-1.628-4.316s0-3.733-.817-5.128c-.816-1.4-1.4-1.634-1.516.466-.117 2.095.116 6.762.7 7.578s.233 2.912.116 4.079-1.951 2.32 1.867 4.666c1.516.933 1.278 2.216 1.05 3.033-.234.812-.467.695-1.284-.583-.816-1.284-1.633-2.334-2.45-3.033s-.932-1.167-.816-2.8.467-2.8 0-3.379c-.466-.583-.7-.116-.933.812-.233.934-.466 3.5-.933 4.2s-.7.233-1.05-1.283.117-3.845.933-6.528 1.283-5.483.584-8.978c-.7-3.5-.35-4.55-3.033-7.462-2.678-2.916-5.711-5.716-6.994-9.327-1.283-3.617-1.516-6.766-2.916-8.4-1.395-1.628-3.378-3.728-4.661-4.311v-5.362c0-1.283-.583-2.1-2.1-1.866s-2.45 1.516-3.378 3.261c-.933 1.75-1.633.934-2.916 3.967s-3.15 4.545-3.15 7.811z" fill="#cf6200"/>
    <path d="M403.047 332.077c.933.583 1.826.973 3.225.273s3.073-2.719 4.94-.735c1.862 1.978 2.911 5.245 2.911 7.81 0 2.563 0 7.346 2.916 10.029 2.916 2.678 4.428 5.478 4.545 8.978.116 3.495 1.4 8.86 1.75 10.26.35 1.396 1.166 3.03 2.099 3.962s1.633 3.617 1.75 6.412c.116 2.8-.35 4.783 0 6.183s0 2.566-1.05 1.866-1.283-1.05-1.866-2.216-1.283-.934-.7.816 2.333 3.379 3.849 3.379 1.983.233 2.916 1.166c.929.933 1.045 1.4 2.678 1.4s1.866 0 3.383.467 1.516.233 2.333 0 1.628.466 2.211 1.983 1.983 5.711 1.983 6.878 0 2.333.817 3.5.583 2.333-.35 1.633-.933-.467-1.633-.35-1.167-.234-2.095-.817c-.933-.583-.35-.466-1.283-1.866s-1.517-1.867-1.517-.817-.116 2.333-.816 1.75-1.05-.583-1.633 0-.817 1.05-1.516-.117-1.517-1.166-2.217-1.4-.7-.233-1.045-1.283c-.35-1.05-1.4-1.283-2.333-1.283s-1.4-.467-1.516-1.166c-.117-.696-.7-1.163-1.166-1.513s-.234-1.166-.35-1.983-.817-.466-1.283-.7-.817-.116-.817-1.283-.467-1.516-.816-2.333c-.346-.816 0-1.633.233-2.562.233-.933.116-1.516-.579-2.333-.7-.816-.117-1.633-1.983-3.266s-2.8-.233-3.382-4.079c-.584-3.85-1.75-11.777-2.8-13.06s-1.745-2.217-2.795-2.567-1.75-.116-1.866-2.333c-.117-2.212-.816-5.011-2.216-6.411s-1.983-1.867-2.683-2.45-.933-1.633 0-3.612c.933-1.983.583-4.666.467-5.95-.117-1.278-.467-2.911-.234-4.31s.117-3.15-.233-4.084-.816-1.166-.233-1.866zM431.13 298.92c-1.579 2.032-3.261 3.733-5.437 5.285-2.176 1.557-4.975 2.8-3.423 5.443 1.557 2.642 2.8 2.956 3.11 4.975.313 2.02.78 3.733 2.332 4.2 1.557.462 2.176.153 2.176 3.419s0 4.509 1.4 5.752 1.242 2.485 1.866 5.442c.619 2.952.619 9.328 2.485 13.68s6.065 12.594 5.599 14.304-1.09 2.952.776 4.971c1.866 2.024 3.109 4.976 3.266 6.685.152 1.714.467 2.333 2.328 1.714 1.867-.624 2.8-1.247 3.423-2.023.62-.777 1.862-.62 3.576.31 1.709.932 4.351 1.866 5.904.932 1.556-.933 2.332-2.328 3.732-2.328 2.176-1.557 2.952-4.823 3.419-5.752.466-.933.157-.933-.777-1.867s-.466-2.49-.623-4.042c-.153-1.557-.776-3.886-2.642-7.309-1.862-3.419-2.952-7.618-4.195-8.704-1.243-1.09-1.866-3.733-2.023-4.976-.153-1.243-1.553-2.333-2.486-3.266-.933-.929-1.866-2.329-2.952-7.771-1.09-5.443-1.866-9.328-1.866-10.261s-.157-1.09-1.09-1.4-1.4-1.867-1.086-2.643c.31-.776-.314-1.552-.623-2.485s0-2.643.623-3.576c.62-.934.467-3.576-.157-5.752s-1.242-4.043-3.732-4.357c-2.486-.31-2.952-.929-3.885-2.952-.933-2.02-1.867-5.595-2.176-6.376-.31-.776-.776-.933-2.642.624-1.867 1.552-2.486 2.068-2.486 4.976 0 1.866.31 2.485.929 3.576.623 1.085.78 1.4 1.247 4.352s3.109 7.618-.314 10.26c-3.419 2.643-2.952 3.267-2.795 5.13.153 1.866-.933 3.108-1.557.466-.619-2.643 0-4.195 1.867-5.438 1.866-1.247 3.575-2.8 2.332-4.51-1.247-1.709-1.709-5.751-1.866-7.618s-.466-2.49-1.557-1.09z" fill="#cf6200"/>
    <path d="M403.406 338.538c-.085 1.265.197 2.656.296 3.773.116 1.283.466 3.966-.467 5.95-.933 1.978-.7 3.028 0 3.611.04.031.077.063.112.094 1.903-.637 2.15-2.76 1.638-3.787-.543-1.085-.386-2.409.233-3.495.624-1.09.624-1.71.08-2.49-.546-.776-.546-.776.077-2.952.548-1.916-.834-1.902-1.97-.704zM423.324 368.688c-.35-1.4-1.632-6.766-1.75-10.26-.116-3.5-1.628-6.3-4.544-8.979-2.274-2.095-2.772-5.46-2.88-8.058-1.709-1.045-2.431-.57-2.288 1.373.153 2.095 2.252 3.11 1.943 6.138-.31 3.033-.31 2.257 1.166 3.733s2.019 2.876 1.243 3.5c-.776.619-.857 1.709.233 2.095 1.086.39 1.167 1.557 1.01 2.642-.157 1.09.856 1.324 1.475 2.1.624.776.7 2.643.081 3.733-.623 1.086-.7 2.795.386 1.867 1.09-.934 1.557-.081 2.41 1.395.74 1.274 1.358.875 2.161.489a9.836 9.836 0 0 1-.646-1.768zM438.488 395.833c-.7 1.4-1.516.933-2.216.233s-1.517-.7-1.167-1.983.234-1.517-.7-2.217c-.107-.08-.215-.152-.323-.224-.291-.009-.632-.009-1.076-.009-1.633 0-1.75-.466-2.679-1.4a7.84 7.84 0 0 0-.574-.52c-.018.224-.009.52-.009.87 0 1.283 0 1.05-1.283 1.4s-1.05-1.283-1.283-2.333a3.854 3.854 0 0 0-.202-.628c-1.404-.27-2.884-1.75-3.414-3.334-.583-1.75.117-1.983.7-.816s.817 1.516 1.866 2.216 1.4-.466 1.05-1.866c-.112-.449-.139-.97-.125-1.548-.252-.453-.593-.821-1.041-1.019-1.867-.816-1.283-1.05-1.167-2.566.117-1.512-.233-1.512-1.4-.7-1.166.817-1.282-.117-1.282-2.445 0-2.333-1.517-2.333-1.862-.7-.35 1.633-.933.583-1.633-1.75s-1.633-2.916-1.75-.7c-.099 1.875-.619 2.324-1.84 1.283.216 1.355.405 2.62.557 3.617.583 3.845 1.516 2.445 3.383 4.078s1.283 2.45 1.983 3.266c.695.817.812 1.4.578 2.333-.233.93-.578 1.746-.233 2.562.35.817.817 1.167.817 2.333s.35 1.05.816 1.284c.292.143.668.062.942.179.3-.395.574-.88.924-1.23 1.4-1.4 3.5.117 4.2 1.867s1.511 2.217 2.561.817.7-1.167 1.866.116 1.633 1.05 1.633 1.05 1.167-.466 1.983.234 1.283.583 2.795-1.634c1.516-2.216-.695-1.516-1.395-.116zM442.615 331.852c.462-3.418.153-6.837 1.552-8.085 1.4-1.242 3.11-3.728 2.952 1.557-.152 5.286-.31 4.976-1.395 6.219-1.09 1.243-2.023 1.552-.933 3.576 1.086 2.019 1.243 2.176 1.086 5.285-.153 3.11-.153 4.352 1.09 5.909 1.242 1.552 1.552 1.71 1.866 3.419.31 1.71 1.395 4.042 2.795 5.285s2.956 4.819 3.109 7.309c.157 2.486 2.333 3.11 4.351 4.819 2.024 1.71-.462 2.952-2.018 2.176-1.553-.776-.933 0-1.867 1.086-.933 1.09-1.242 1.247-2.018-.62s-3.423-3.109-4.666-3.575-2.328-2.49-3.419-4.51c-.933-1.736-2.78-3.006-4.468-3.136.467 1.31.718 2.338.583 2.827-.466 1.71-1.09 2.952.777 4.971 1.866 2.024 3.108 4.976 3.266 6.685.152 1.714.466 2.333 2.328 1.714 1.866-.623 2.8-1.247 3.423-2.023.619-.777 1.862-.62 3.575.31 1.71.932 4.352 1.866 5.904.932 1.557-.933 2.333-2.328 3.733-2.328 2.175-1.557 2.952-4.823 3.418-5.752.467-.933.157-.933-.776-1.867s-.467-2.49-.624-4.042c-.152-1.557-.776-3.886-2.642-7.309-1.862-3.419-2.952-7.618-4.194-8.704-1.243-1.09-1.867-3.733-2.024-4.976-.152-1.243-1.552-2.333-2.485-3.266-.933-.929-1.866-2.329-2.952-7.771-.852-4.253-1.512-7.551-1.759-9.238-1.117 1.781-1.88 2.216-2.283.996-.467-1.396-1.09-2.176-1.71-1.243-.623.933-.78-.776-.78-1.552 0-.781-.152-.934-.933-.934-.776 0-.153-1.242-.467-3.576-.31-2.333-.776-2.642-1.085.158-.31 2.795-1.867 4.504-1.243 5.128.62.623.31 1.866-.314 3.733-.62 1.862-.31 2.952.157 4.195s-.31 3.576-.624 5.6c-.31 2.018 1.248 4.037 1.714.618zM414.217 303.945c-1.152.085-1.942 1.095-1.283 4.626.413 2.185-1.242 1.71-1.861.62-.624-1.087-1.09-3.42-2.333-5.443-1.247-2.02-.624 1.4-.776 3.266-.157 1.866 1.085 1.866 2.176 3.419 1.085 1.557.152 2.18-1.09 2.18s-.62 2.486-.31 4.195-.31 2.024-1.247.624c-.929-1.4-.31-3.576-.153-6.218.153-2.643.31-2.024-1.4-2.643-1.709-.624-1.4-.933-.776-2.49.62-1.553 1.243-2.333.467-3.11-.78-.776-.624-1.242.619-1.4 1.243-.152.78-1.085 1.866-1.4 1.09-.309 1.557.158 1.71-1.861.13-1.687.695-2.724 1.96-2.212.763 2.598 1.754 6.64 2.431 7.847zM429.874 322.25c0 3.267 0 4.51 1.4 5.753s1.243 2.485 1.866 5.442c.62 2.952.62 9.328 2.486 13.68.556 1.297 1.323 2.943 2.108 4.657 1.032-.812 1.93-2.207 2.248-2.947.462-1.09-.933-3.267-2.024-5.129-1.085-1.866.157-2.49 1.243-4.823 1.09-2.329-.152-2.486-1.862-3.11-1.713-.618-1.713-2.175-2.646-4.66s-.777-3.577-.153-4.977c.62-1.4.153-2.485-1.09-2.8-1.243-.309-.933-1.242-.467-2.795.467-1.556.776-1.866-1.085-1.4-1.414.35-1.754.615-2.176 1.127.103.448.152 1.072.152 1.983z" fill="#00b800"/>
    <path d="M447.774 328.757c-.17 1.866-.157 2.8-.623 3.418-.462.624-.153 1.557.314 2.49s.776 2.177.31 3.886.309 3.11 1.242 3.576 1.4 0 1.09 2.176c-.314 2.176.933 4.51 2.019 5.442 1.09.934 1.866 2.486 1.71 3.42-.153.932.78 1.866 1.865 2.332 1.09.467.934.624.934 1.243 0 .624.466.624 1.709.933s2.176 1.09 3.575 2.8 3.419 2.643 3.11.776 0-3.109-1.867-4.042c-1.862-.934-3.262-5.443-4.042-8.552-.776-3.11-3.262-7.304-4.661-8.08-.157-2.181.157-3.267-1.243-4.357-1.4-1.086-1.866-2.486-1.866-3.576 0-1.086-.776-2.486-1.4-2.795-.619-.314-.933-1.09-.933-2.024s-1.086-.776-1.243.934z" fill="#5d3100"/>
    <path d="M439.52 412.164c2.795-.233 10.376-2.45 11.188-3.15 1.867 1.284 5.132 3.034 6.532 3.034-2.683.583-4.432.233-5.132-.234.35.817 1.283 2.1 1.866 2.217-2.566-.117-5.477-.7-6.41-1.633-2.217.933-5.95 1.166-8.044-.234zM444.544 415.664c.992.292 5.944 1.108 6.586 1.108-1.633 1.396-.233 2.737 2.508 2.504-1.342.175-2.804.682-1.808.875 2.39.466 8.86-1.284 10.143-1.983-2.216 2.858-12.996 5.482-17.429-2.504zM448.986 422.753c1.336-.7 4.66-.467 6.235.292-1.75.641-5.186.641-6.235-.292z" fill="#00d860"/>
    <path d="M453.965 422.663c2.391-.408 9.152 1.225 11.543-.233-.816 2.158-5.074 2.45-6.532 1.983-1.453-.467-2.853-1.05-3.844-.992.525-.291-.35-.35-1.167-.758z"/>
    <path d="M456.433 425.983c1.808.287 8.277-.525 10.26-1.283 2.095.7 6.235 1.804 7.169 1.687-1.983 1.225-5.774.525-6.994 0-3.5 1.167-6.357 1.517-10.435-.404z" fill="#00d860"/>
    <path d="M459.528 427.06c2.589.583 4.796.166 7.344-.686.794.34 2.665.758 4.423.673 1.171.668 2.746 1.601 4.262 1.718-1.574.642-7.348 0-8.51-.641-2.916.058-7.932.7-9.152 1.691-.058-.817.471-1.952 1.633-2.755z" fill="#00d860"/>
    <path d="M456.433 413.914c2.018.673 9.326.35 13.054-1.4 1.472-.69 2.383.467.7 1.05-6.06 2.1-10.843 2.917-14.338 1.05-1.381-.736-1.516-1.4.584-.7z"/>
    <path d="M492.233 403.999c-8.977 4.195-14.926 5.478-27.398 1.633-1.162-.36-1.983 0-.7.816 1.283.812 8.16 2.679 9.794 2.795s1.05.875.058 1.167-1.283.992.058.467 8.834-.723 11.893.875c1.337.7 1.687.583 1.57.058s.584-.875 1.575-.992 1.575-.466.817-.758-.875-.467-.292-.758.642-.583-.233-.758-1.458-.409-.642-.817c.817-.404 2.042-.7 2.975-.812.233-.642-.175-2.333.525-2.916z" fill="#00d860"/>
    <path d="M477.293 405.075c5.133.364 14.576-1.983 19.592-6.878 1.745 1.046 4.194 2.212 5.477 2.445s2.45 1.4.467 1.4-4.782-.816-6.06-1.4c-6.65 4.083-14.429 5.425-19.359 5.017-1.395-.117-1.745-.7-.117-.584z"/>
    <path d="M462.13 377.078c1.75 1.225 4.84 3.262 8.86 2.97 1.983 1.575 5.074 2.917 6.474 3.209-2.683 1.108-5.599 2.041-6.357 2.916-1.225-1.167-2.795-.992-3.203-1.575-1.167.933-.992 1.517-.233 1.983s6.644 1.458 8.102 1.05 1.848.799.641 1.22c-3.15 1.109-9.268.059-11.368-3.32-2.1-3.383-3.907-4.666-9.618-1.575-.642-1.633-.642-2.041-1.75-2.041s-3.15-1.458-1.575-1.4 6.24-.641 10.027-3.437z" fill="#00d860"/>
    <path d="M463.52 384.571c-.973.242-3.732 1.75-4.719 1.867-.991.116-2.74 1.516-.933 1.574 1.804.059 4.137-1.924 5.42-2.1s1.4-1.633.233-1.34zM469.173 390.494c-.69.12-3.67.816-4.486.758s-1.633.175-1.574.758.291.933-.934.817-2.274.35-2.566.7-.525.7.7.816 1.866.233 3.266-.408 2.741-1.633 4.258-1.692c1.511-.058 3.028-2.041 1.336-1.75z" fill="#00d860"/>
    <path d="M465.001 394.083c1.274.825 7.577 2.975 9.852 2.8s1.848.91.117 1.283c-3.558.754-7.9-.794-10.844-3.15-1.458-1.166-.116-1.575.875-.933z"/>
    <path d="M494.835 397.179c-4.823 1.539-9.736.991-11.718.466s-3.791-.641-2.45.642c1.341 1.279 5.657 2.154 8.102 1.512-8.685 1.983-10.96 1.808-13.113 1.458-2.158-.35-6.209-.274-7.927-.117-1.283.117-3.033-.058-3.79-.524s-.992-1.342 1.282-1.109c2.27.234 2.566-.233.583-.525s-4.724.525-2.04 2.217 8.568-.117 12.3.933c3.728 1.05 11.655 1.808 19.179-4.258.386-.31 1.05-1.162-.408-.695zM471.147 390.09c.175.583.175 1.225 0 1.633s-.175.933.584.35 1.224-1.283 1.982-.875 2.683.35 3.554.233c.879-.116 1.166-.291-.113-.816-1.283-.525-2.566-.7-3.266-.642s-1.574-.117-2.157-.35-.759-.117-.584.467z" fill="#00d860"/>
    <path d="M483.574 392.333c-.991.058-2.74-.583-3.674-.991s-2.27-.467-1.279.874c.987 1.342 5.303 2.1 6.82 1.459s.874-1.342 2.386-.409c1.516.934 3.091 1.575 4.2 1.575s1.515 0 .29-.7-1.807-.875-1.924-1.458-.291-.933.817-.583 2.39.991 3.266.525 2.503-1.517 3.96-1.517l.35-.875c-2.099-.175-3.436.467-4.019.7s-1.633.35-2.74.175-2.567-.291-2.917-.583-.35-.525.583-.7 1.225-.817-.058-.583-4.72.116-6.527-.467c-1.808-.579-2.567-.637-3.325-.35-.758.292-.641 1.108.467 1.167s3.616.291 4.49 1.108.759.875-.233.467-2.8-.175-.933 1.166z" fill="#00d860"/>
    <path d="M498.782 390.224l-.35.875c2.158-.058 7.407.467 9.094 1.517 1.633-1.283 1.341-1.692 2.508-1.458s2.624.641 3.266.291 1.108-.291 1.808-.175c.695.117 2.211-.175 3.086-.7s2.683-1.225 3.733-1.225 2.328-.233.408-.525c-1.925-.291-4.84.292-5.832.642-.987.35-3.961.583-5.711.583s-4.136.875-6.12.35-4.723-.175-5.89-.175z" fill="#00d860"/>
    <path d="M525.79 389.192c-3.495 2.567-7.695 3.15-12.706 3.5-1.458.103-1.009.516.234.642 5.244.525 11.31-1.4 13.288-3.5.574-.606.511-1.61-.817-.642z"/>
    <path d="M501.968 395.16c1.516.058 6.76 1.4 8.452 1.983 1.283-.117 1.633-.408 1.4-.875s-.409-.992 1.924-.875c2.328.117 7.694.058 8.685.058.817-.35 2.62-1.75 3.437-1.808-2.095.117-10.84.583-11.947.467s-1.691 0-2.391.408-1.108.583-1.983.233-2.45-.816-3.32-.291c-.875.525-2.683.058-4.257.7z" fill="#00d860"/>
    <path d="M522.425 395.429c.816-.35 2.62-1.75 3.436-1.808 1.516-.117 3.266.525 4.083.641s1.69-.058 1.108-.7-.059-1.75 2.332-1.458c2.387.292 3.612.7 5.945.467s3.382 1.516 7.81-.233c-.35 1.75.467 1.866 1.283 1.516s1.75-.233 3.15.817 9.91 1.166 11.892.816c1.979-.35 3.029.7 1.512 1.167-1.512.466-1.866 1.166-1.512 1.633.346.462.696 1.045-1.166.812-1.866-.233-2.216.35-3.15 1.05s-1.166.933-3.732.467c-2.561-.467-3.028-.117-4.428.116s-1.75.234-3.149-.233-4.428-.933-6.294-.35-3.266 1.166-4.9.7-1.749-.233-.699-1.283 1.283-.934 3.266-1.167c1.983-.229 3.5-.812 2.1-1.629s-1.867-.7-3.733.234-2.8 1.512-4.894.35c-2.1-1.167-3.15-.934-4.55-.584s-3.727-.466-5.71-1.341zM529.423 398.929c-2.67.38-3.387-1.337-6.177-.988-.934.117-2.508 1.28-.35 1.104 2.153-.175 4.486.992 6.585.817s1.167-1.108-.058-.933zM526.328 400.948c1.404-.512 4.315.466 5.54.233s2.391.525 1.108.933-4.374-.758-5.774-.35-2.794-.117-.874-.816zM498.468 408.485c1.925.063 8.86-.233 11.602-6.061.21-.449.408-.642 1.283-.059s4.082 2.508 10.085 3.033c1.682.148 3.499.992.116.759s-8.743-1.167-10.551-2.275c-3.033 4.778-8.48 5.344-12.535 5.245-2.445-.059-1.861-.7 0-.642z" fill="#00d860"/>
    <path d="M513.452 400.544c-.933 1.283-4.14 3.5-5.599 3.616-1.453.117-5.827-.292-6.935-.7s-2.45-.292-.875.817 5.482 1.866 7.052 1.516c1.575-.35 3.383-.875 4.608-.116s3.499 2.211 4.836 1.92c1.341-.287 4.082-.287 4.957.117.875.408 2.391 1.633.117.933s-4.141-.117-5.19-.584c1.166 1.634 3.812 4.258 6.064 4.258.525 0 .875.934-.233 1.459 1.108.524 3.67.933 5.011-.292-.35.467-.175.758.408 1.05s1.284.7.234.816-3.437.409-4.136.117c2.27 1.454 8.16 3.787 14.162 2.62 1.144-.22 1.75-.695-.116-.641-3.85.116-4.078.058-4.778-.346-.7-.413-.583-.758.525-1.108 1.103-.35 3.903-.758 5.07-.758s2.332-.467-.059-.467-5.303 0-6.47-.408-2.04-.933-.816-1.75 2.508-.583 3.091-1.342c-3.849-.058-8.573-2.1-5.948-3.961.61-.436.408-.467-.584-.584s-3.903-.933-5.127-1.633-.409-1.283.583-1.458c-2.275.408-6.824-.816-9.852-3.091zM547.637 400.454c-2.1 1.575-6.06 2.216-7.752 2.216s-1.925.584-.583.759 2.8.35 3.382.175.933-.234 1.804.175c.875.408 2.74.641 4.374.116s4.311-.758 5.42-.7 2.332.117.116-.525c-2.212-.641-5.828-.175-6.703.059s-3.266.058-1.982-.35 2.39-1.05 3.032-1.575c-.466-.117-.758-.233-1.108-.35zM546.56 404.986c-1.808 1.341-4.427 2.62-7.11 2.736 2.45.875 4.49 3.383 6.06 3.267-.758.466-1.686 1.166-2.678 1.283 1.517.408 4.078-.058 6.178-1.225 3.5.992 8.044.35 9.56-.933-2.275 0-5.011-.817-6.236-1.867 1.108 0 2.154-.7 2.678-1.337-2.62.463-7.11-.816-8.452-1.924z" fill="#00d860"/>
    <path d="M542.837 412.299c.991-.117 1.92-.817 2.678-1.283-1.92.641-10.318-.7-12.821-2.917-2.508-2.212-2.508-.525-.759 1.05s4.837 3.966 10.902 3.15zM548.983 417.638c-1.05.583-6.06.933-7.694.583s-2.333-.175-1.924.467.583 1.225-.759 1.05-3.732.117-4.72.466c-.99.35-2.215 1.225-.116.875 2.095-.35 4.02-.758 5.595-.35s7.168.525 8.277.059.35-.467-.175-.467-.759-.35 0-.7 1.341-1.341 1.516-1.983zM500.487 410.863c-2.1.933-9.093 2.8-10.96 2.917-2.332 1.05-4.194 1.633-5.36 1.633.816.7 3.96 1.395 5.244 1.05-.7.695-2.329 1.512-2.912 1.862 1.862-.234 4.078.233 5.011.35-2.45 1.4-5.827 1.866-7.577 1.633.583.816 1.4 1.633 2.45 1.633-2.217.583-4.9.583-6.3.116.584 1.167 1.167 1.867 1.984 1.984-1.866.233-4.2.583-6.178-.584 1.512 1.983 4.895 2.679 9.91 2.1 5.011-.583 9.21-2.8 10.377-3.733-2.1.233-4.899.35-6.299.117 2.8-.7 8.86-3.266 9.91-4.316-1.166 0-2.328-.35-3.149-.934 1.633.234 7.348-.462 9.098-1.162-2.1-.466-3.383-1.75-3.966-2.566 7.344 2.333 15.518 1.57 19.47.583.933-.233 1.046-1.418-.816-1.283-3.266.233-9.56-.7-11.193-1.516 1.516 1.166 3.382 1.866 4.665 2.1-3.032.816-7.227 1.4-13.409-1.984z" fill="#00d860"/>
    <path d="M486.49 418.356c.583-.35 2.212-1.167 2.912-1.862-1.283.345-4.428-.35-5.245-1.05 1.167 0 3.029-.583 5.361-1.633-4.194-.117-7.11-.117-8.627-.933s-4.31-.584-5.36-.35-.7 1.983 3.727 1.516c-1.866 1.283-6.877 1.75-8.743 1.283.466 1.512.816 3.029.35 3.846 2.45 1.4 8.86 3.15 12.01 2.916-2.8-1.05-4.316-2.217-1.984-2.45s3.616-.7 5.6-1.283z" fill="#00d860"/>
    <path d="M479.267 425.938c5.581-.466 13.055-.565 19.004-5.599 1.516-1.283 2.535-.852 1.05.467-3.145 2.8-10.96 6.644-18.42 6.761-3.038.05-4.429-1.4-1.634-1.629z"/>
    <path d="M521.079 416.696c-1.4.525-5.307 1.166-6.47.991-1.166-.175-2.857-.233-3.79.35s-.992.934.291 1.05 2.916.234 3.733.175c-1.05.584-1.75 1.4-1.983 1.75 1.866-.467 5.303.35 6.294.933-.758.234-1.633-.058-2.274-.408 3.149 3.325 12.476 3.325 13.992 2.741-.7.525-1.341 1.05-2.041 1.225 2.624.467 5.653.409 8.627-1.341-.992.175-3.961-.117-4.72-.175a5.597 5.597 0 0 1 2.27-1.342c-1.161-.233-4.836-.116-5.71.35.35-.7.991-1.575 1.69-1.866-4.607 0-10.2-.059-12.242-1.167 3.266.35 6.882-1.575 8.394-1.575-2.562-.058-5.361-.641-6.061-1.691zM509.37 419.253c-2.275.467-5.711 1.4-6.644 1.925s-1.925.817.116.817 7.578.233 8.802.408c-3.09-.467-7.285-.583-8.102-.583s-1.75-.059-.233-.525 3.5-1.517 6.06-2.042zM504.749 424.682c.812 0 4.37 0 5.77-1.225 1.457 1.109 4.257 2.679 6.06 2.679 1.808 0 1.633.467.058.641-1.57.175-4.66-.753-6.235-1.92-2.1.758-3.845.117-5.653-.175zM477.742 440.386c3.611 1.4 8.394 2.45 11.889 1.283 1.982 1.75 6.065 1.866 8.277 1.4 2.216-.467 4.199-.7 6.648.116 2.445.817 7.46.875 8.86 2.037-1.283.063-4.024 0-4.665.18-.642.17-.292.579.875 1.22-3.962-.233-10.785 1.458-12.88 3.266.753-1.808 3.086-4.257 6.76-4.257-2.1-.754-8.802-.812-10.96.525-.641-.7-1.4-1.862-1.457-2.329-3.554 2.037-10.552-.875-13.347-3.441zM468.5 433.835c4.303-.615 7.232-1.983 8.515-3.266.758.7 3.903 1.4 7.344.35-.7.525-.758 1.516-.466 2.041-2.275.058-6.59 1.167-8.044 1.925-1.458.754-5.716 1.279-7.11.52-1.4-.753-1.459-1.395-.238-1.57z" fill="#00d860"/>
    <path d="M483.888 432.983c-2.274.058-6.59 1.166-8.044 1.924.292.584.467 1.512.525 2.154 4.195-1.516 13.813-2.445 17.488-1.862-1.75.117-5.074 1.92-6.936 2.154 4.544-.35 8.977.583 10.139.875 1.166.291 1.4 1.166.525 1.983s-1.279.933.583.991c1.866.059 5.715-.175 7.465-1.866-.7-.758-2.508-.467-3.033-.992 1.225-.408 2.625-1.283 3.15-1.925-3.15-.058-4.316-.116-5.366-.35-1.05-.228-1.808-.524-.525-1.22 1.283-.7 1.866-1.283 2.275-1.75-2.275.642-5.828 1.167-8.802-1.166 1.108.291 3.728.116 4.66-.292-.99-.525-1.803-.933-2.62-.933 2.388-1.167 7.111-2.217 12.94.116 2.915-.233 6.064-.116 8.276.467.933-.933 2.916-3.15 3.966-3.733-6.877.583-19.237-.7-19.004-4.312-2.216 2.912-7.344 4.545-9.56 4.079-.233 1.05.7 2.333 1.517 3.033-2.333.466-6.299.816-8.16.466 1.049 1.05 3.027 1.984 4.194 1.867-2.445 0-3.728.467-5.653.292z" fill="#00d860"/>
    <path d="M498.154 441.193c1.867.059 5.716-.175 7.465-1.866-.7-.758-2.507-.467-3.032-.992 1.224-.408 2.624-1.283 3.149-1.925 4.894-.403 9.268-.17 11.364-.812 2.1-.641 7.465-.291 8.514-.583-4.665.754-5.598 1.162-5.832 1.92s1.517 1.4 2.625 1.4c-2.1-.116-4.724 2.1-4.958 2.975-2.794-1.633-4.136.292-4.427.933-1.167-.466-5.016-.35-6.999 1.342-2.562-.759-4.253-1.167-6.819-.759 1.575-.35 1.283-1.4-1.05-1.633zM520.54 427.554c1.575-.059 5.012.116 6.236-.059-.816.409-1.862 1.167-2.095 1.517 3.962-.467 9.38-.758 10.956-.525-1.92-.292-3.903.933-4.895 1.575s-.408 1.05.933 1.225 3.15 1.224.7.875-7.286-.35-8.452-.175-1.808-.409-.117-.642 2.854-.817 3.67-1.283c-1.4.35-4.078.35-4.894.116s-1.342-.7-.409-.933.292-.583-.7-.466-3.499 1.166-4.898 2.508c1.516-1.575 2.857-2.975 3.965-3.733z" fill="#00d860"/>
    <path d="M502.775 430.2c1.925 2.159 4.195 3.384 7.81 3.5.759.023 2.172 1.041.35 1.109-4.898.175-7.343-.992-9.501-4.142-.444-.646.377-1.547 1.341-.466zM531.98 389.417c2.575 1.216 7.752 2.274 11.777 2.1.7-.032 2.108.717.345.874-4.545.409-8.627-.228-12.413-2.333-1.05-.583-.7-1.108.291-.641z"/>
    <path d="M534.582 389.372c3.962-.117 6.936-.058 8.16 1.108 2.27-.7 6.353-1.108 7.286-.933s1.983-.233-.175-.758c-2.158-.52-7.169-.696-8.743-.404-1.575.287-6.474.462-8.102.287.7.117 1.162.233 1.574.7zM549.97 390.942c1.866-.991 7.227-.058 8.86-.758-1.166 1.4 3.733 1.516 7.986.408-1.633 1.05-5.128 1.225-6.644 1.867s-2.333.175-3.5-.35-4.136-1.575-6.702-1.167z" fill="#00d860"/>
    <path d="M566.838 390.583c-4.253 1.108-9.152.992-7.985-.408-1.633.7-6.994-.233-8.86.758 1.924-1.166 3.382-.233 4.777-2.624.875.179 2.916.296 3.616-.638 1.225.292 3.383.817 4.024 1.454.642.642 1.629-.175.812-1.162 1.925-.7.704.83 5.19-.292.934-.233 3.208-.641 3.966-.7-1.516 1.225-3.324 2.562-5.54 3.612z" fill="#00d860"/>
    <path d="M373.36 664.19c-.017-1.966-.207-18.422-.207-22.226 0-.91-.468-.728-.468 0v22.122c.215.039.505.078.675.104zM380.59 640.77l.812 23.461-.142.188-.471.007-.513-23.656h.314zM387.43 660.58c-.066-2.389-.366-13.448-.482-18.9-.015-.727-.448-.6-.441.026.047 4.391.308 16.672.356 18.887.17 0 .463-.017.567-.013z" transform="matrix(4.4862 0 0 4.4867 -1190.9 -2609)" stroke-width=".138" stroke="#000" fill="#ff0"/>
    <path d="M376.6 644.67l-6.913-.104c-.389 1.403 1.352 1.377 2.002 1.013.753.572 1.325.52 1.741.052.598.494 1.351.364 1.663.052.832.624 1.689 0 1.507-1.013zM377.12 648.15l-7.069-.026c-1.221 1.169.364 1.741 1.716.935.182.39 1.013.624 1.663.312.598.468 1.351.13 1.741-.26.728.338 1.585.442 1.949-.961zM376.92 652.57l-6.809-.052c-.13 1.221 1.248 1.065 1.793.754.52.805 1.664.623 2.106.155.649.442 1.247.338 1.585-.078.754.65 1.377-.181 1.325-.779zM377.26 656.99l-7.614-.13c-.416 1.299.753 1.533 1.299 1.221.182.754 1.195.494 1.455-.052.39.39.884.182 1.118-.078.104.702.987.728 1.663.13 1.377.962 2.677-.156 2.079-1.091zM384.01 655.17l-6.341-.052c.286 1.299.909 1.637 1.923.883.754.78 2.001.494 2.313.104 1.377 1.118 2.131-.182 2.105-.935zM383.36 650.83l-6.133-.182c.104 1.559 1.585 1.507 2.339.831.572.728 1.585.52 1.949 0 .78.78 2.053.312 1.845-.649zM384.17 645.94h-6.601c.078 1.091 1.533 1.715 2.651.676.311 1.247 1.507.857 2.027.363.753.962 2.494-.129 1.923-1.039zM383.78 642.62l-5.899.078c-.104.961 1.299 1.377 1.819.597.286.494 1.273.442 1.559-.026.468.728 1.04.234 1.221 0 .676.494 1.404.26 1.3-.649zM390.69 644.77l-7.225-.078c-.026.753.754 1.065 1.221.753 0 .728 1.014.962 1.664.39.442.624 1.741.806 2.261-.052 1.065.884 2.209.26 2.079-1.013zM390.59 650.7l-7.069-.026c.052.987 1.195 1.325 1.845.805.156.832 1.04.884 1.559.468.624.702 1.664.754 2.235-.026.858.312 1.508-.416 1.43-1.221zM390.22 656.03l-5.588-.078c0 .988 1.17 1.118 1.69.598.545.65 1.377.65 1.845.13.753.65 1.897.468 2.053-.65z" fill="#fff" transform="matrix(4.4862 0 0 4.4867 -1190.9 -2609)" stroke-width=".138" stroke="#000"/>
    <path d="M381.26 664.42c-3.014.052-6.081.052-8.16-.26s-2.734-.604-4.158-1.455c-2.131-1.273-2.651-1.585-5.665-3.352-.462-.271-.963.065-.312.493 3.04 2.001 4.192 2.743 5.639 3.691 1.507.987 2.479 1.864 3.404 2.91 1.196 1.352 2.079 1.378 2.625 1.17s1.404-.494 2.261-.286c.858.208 2.001.234 2.599.13.546.494 1.793.39 2.495.234.701-.156 1.221-.234 1.715-.13s1.247.026 1.741-.052 1.793-.208 2.703-.078c.909.13 1.845.052 2.443-.13.597-.182 1.689-.13 2.053-.026.519-.39.779-.884.909-1.403.611-.078.814-.154.949-.507.247-.65.48-1.287.559-1.572h.246l.078-.585-.506-.585.182-1.117.545-.13c.026-.338-.13-.858-.234-1.066-3.274.13-6.484.234-8.783.286-.26.208-.546.754-.598 1.092-1.403.233-2.235.337-2.599.415s-.567.107-.857.494c-.468.624-.91 1.351-1.274 1.819z" transform="matrix(4.4862 0 0 4.4867 -1190.9 -2609)" stroke-width=".138" stroke="#000"/>
    <path d="M391.78 660.45c.159-.551.584-2.035 1.354-4.84.129-.468-.325-.653-.493-.052-.916 3.275-1.262 4.503-1.378 4.912.176-.003.428-.022.517-.02z" transform="matrix(4.4862 0 0 4.4867 -1190.9 -2609)" stroke-width=".138" stroke="#000"/>
    <path d="M396.85 654.96c-1.105.571-1.638.792-2.144.597-.466-.179-1.151-.28-1.552-.083a.523.523 0 0 1-.021.135 493.286 493.286 0 0 1-1.048 3.768c.818.289 2.227.328 2.556-.025.337-.364 1.26-.286 1.728-.26.299-.39.416-.871.338-1.105s-.052-.649.065-.974.273-1.378.078-2.053z" transform="matrix(4.4862 0 0 4.4867 -1190.9 -2609)" stroke-width=".138" stroke="#000" fill="#fff"/>
    <path d="M371.69 645.58c-1.222 3.534-5.458 11.461-8.014 14.014M365.64 660.75c2.901-2.244 10.236-9.528 11.483-12.594M370.11 652.52c-.337 2.677-1.11 7.452-1.526 9.973M371.24 658.48c-.987.962-2.387 2.641-3.427 3.551M380.54 653.14c-.831.805-1.78 1.744-2.611 1.978M381.02 653.27c.731.779 1.77 1.659 2.628 1.893M380.45 648.96c-.753.649-1.871 1.413-2.884 1.699M380.88 649.11c.65.546 1.342 1.342 2.173 1.706M377.72 645.94c.805-.234 2.004-.858 2.628-1.507M380.71 644.31c.705.805 2.056 1.455 2.732 1.637M377.88 642.7c.831-.182 1.861-.624 2.407-1.404M380.6 641.08c.701.598 1.933 1.462 2.738 1.54M386.53 643.41c-.451.468-1.556 1.309-2.257 1.296M386.99 643.37c.325.52 1.144 1.316 1.612 1.381M383.8 650.67c.909-.312 2.183-1.056 2.82-1.823M387.12 648.91c.266.48 1.28 1.565 1.852 1.786M384.88 655.95c.416-.09 1.547-.652 1.858-1.315M387.26 654.27c.429.533 1.481 1.507 2.131 1.741M370.58 656.87c1.273-.403 3.846-1.965 5.12-3.447M373.26 655.3c1.065.753 2.303 1.507 3.251 1.676M370.34 652.52c.702-.299 1.624-.809 2.339-1.549M373.22 650.87c.286.402 2.388 1.686 3.284 1.699M372.68 646.72c-.546.441-1.858 1.234-2.495 1.403M373.18 646.75c.728.506 2.167 1.4 3.154 1.4M372.68 642.66c-.585.662-1.572 1.685-2.391 1.919M373.15 642.81c.455.728 1.673 1.712 2.466 1.842M383.67 647.18c1.822 3.359 5.201 7.465 8.618 9.622M378.2 643.46c2.767 3.976 8.199 12.695 13.367 15.914M392.52 655.97a18.428 18.428 0 0 1-4.795 4.607M392.21 657.07c-1.741-2.78-2.641-6.295-3.943-10.924M374.15 658.51l2.144 5.899M373.75 658.37l1.896 6.017M373.34 658.09l1.76 6.262M373.16 658.19l1.359 6.128M374.47 664.1h1.699M375.95 663.46h-1.602M375.77 662.96h-1.546M375.59 662.46h-1.475M375.39 661.92h-1.404M373.89 661.44h1.332M373.79 661h1.264M373.68 660.52h1.202M373.59 660.09h1.134M373.49 659.65h1.078M373.4 659.24h1.02M373.3 658.86h.991M373.24 658.54h.923M371.57 658.55l-1.208 4.932M371.92 658.46l-1.037 5.21M372.2 658.27l-.839 5.549M372.56 658.16l-.609 5.803M372.68 663.63h-1.923M372.68 663.1h-2.225M372.68 662.55h-2.095M372.68 662.03h-1.965M372.68 661.5h-1.838M372.68 660.91h-1.692M372.68 660.4h-1.569M372.68 659.88h-1.436M372.68 659.38h-1.316M372.68 658.94h-1.212M372.68 658.59h-1.121M372.68 664.09v-5.88M379.15 656.27l-4.029 8.08M379.4 656.14l-3.43 8.254M379.65 656.05l-2.721 8.383M379.82 656.2l-2.116 8.238M377.8 664.06h-2.534M378 663.32h-2.359M378.11 662.72h-2.17M378.32 662.07h-2.053M378.42 661.55h-1.897M378.6 660.95h-1.787M378.78 660.25h-1.618M378.92 659.72h-1.488M379.07 659.11h-1.348M379.18 658.7h-1.247M379.28 658.31h-1.143M379.38 657.91h-1.053M379.47 657.56h-.968M379.56 657.21h-.887M379.66 656.85h-.8M379.74 656.52h-.721M382.36 656.4l1.763 5.58M382.7 656.52l2.139 5.355M383 656.53l2.505 5.237M386.11 661.32l-2.763-4.888M386.11 661.31h-2.192M385.73 660.65h-2.019M385.36 659.99h-1.851M384.98 659.32h-1.688M384.61 658.66h-1.529M384.23 658h-1.36M383.86 657.34h-1.194M383.48 656.67h-1.032M385.74 656.83l-1.725 5.173M386.26 656.6l-1.6 5.303M385.4 661.78l1.174-4.992M386.88 656.96l-.988 4.75M384.22 661.41h1.731M384.44 660.76h1.65M384.65 660.12h1.572M384.86 659.48h1.491M385.08 658.83h1.41M385.3 658.19h1.329M385.51 657.55h1.248M385.72 656.9h1.027M387.67 657.01l.846 3.547M387.98 656.84l1.169 3.697M388.38 656.83l1.275 3.702M388.9 657.03l1.277 3.477M390.06 660.2h-1.638M389.87 659.68h-1.556M389.68 659.16h-1.491M389.49 658.64h-1.43M389.29 658.12h-1.358M389.1 657.6h-1.284M388.91 657.08h-1.218" transform="matrix(4.4862 0 0 4.4867 -1190.9 -2609)" stroke-width=".138" stroke="#000" fill="none"/>
    <path d="M479.626 380.309c3.616-2.329 9.794-1.862 12.943.466 3.732-2.095 10.493-1.516 13.643 1.284 4.777-3.262 8.86-3.729 13.52-.584 3.617-2.562 9.211-2.795 13.527.234 4.194-1.984 8.86-3.612 12.938.7-2.445-1.75-7.694-3.267-12.938.816-4.083-4.083-11.193-2.566-13.526.233-3.033-3.616-9.444-4.2-13.293.234-4.194-3.5-10.488-3.617-13.871-.934-2.683-2.1-6.644-3.845-12.943-2.45z" fill="#00b800"/>
    <path d="M543.33 375.329c-18.537 3.203-58.935.933-67.795-1.284-3.046-.762-2.216-1.866.35-1.283 10.21 2.32 32 2.333 44.01 1.75 2.332-3.091 6.002-8.336 7.11-9.795s1.597-1.592 3.908-1.983c4.136-.7 6.5-1.076 10.085-1.691.058.466.058 1.05.058 1.4-.292.233-.583.641-.817.758 0 2.391.467 8.22.933 10.32.467-.059 1.05-.234 1.342-.292.816-.234 1.628 1.866.816 2.1z" fill="#cf6200"/>
    <path d="M573.702 376.226c.668-.018 2.064-.05 2.45-.058.758-.018 1.82-.539 2.287-1.705s1.911-5.479 2.436-7.287l-1.866-2.813c.408-2.32.933-5.465.992-6.106.933-.35 1.92-.7 2.386-.875.117-.525-.112-1.952-.583-2.419-7.985.305-31.883 1.136-36.257 1.194-1.05 0-1.521-.045-1.92 1.458-2.217 8.278.847 19.894 9.21 26.584.583.466 1.319.076.345-.817-1.395-1.283-3.553-3.908-5.011-6.501 1.633-.027 4.944-.08 5.935-.121.476 1.96 1.965 6.097 2.257 6.797s1.01.799.668-.247c-.803-2.45-1.225-5.24-1.574-6.582 1.516-.036 4.374-.009 6.123-.107.085 2.216.319 5.186.377 6.003s.758.875.772-.058c.018-.934.036-4.877.022-6.04 1.974-.053 4.495-.139 5.428-.139-.13 1.261-.372 5.34-.462 5.986-.134.95.364 1.4.597.058s.7-4.478.83-6.066c.79-.023 2.867-.108 3.741-.13-.085 1.243-1.251 5.02-1.601 6.012s.215 1.023.61.085c.413-.96 1.691-4.751 1.808-6.106z" fill="#cf6200"/>
    <path d="M547.233 375.284c-.641-1.284-2.624-5.847-2.8-9.167 1.692-.031 5.923-.112 7.964-.157.3 2.504 1.072 7.897 1.48 9.176-2.386.058-5.302.134-6.644.148zM553.783 365.906c.22 1.912 1.22 8.476 1.382 9.234 1.732-.103 5.742-.117 6.438-.175-.072-1.75-.355-8.314-.386-9.247-1.813.05-6.523.166-7.434.188zM544.766 357.786c-.323 1.678-.381 5.262-.292 6.792 2.042.04 7.066-.08 7.761-.139-.17-1.74-.444-4.89-.619-6.855-1.664.071-5.742.17-6.85.202zM553.11 357.561c.059 1.633.422 5.626.539 6.847 1.763-.05 6.078-.14 7.536-.189-.076-1.494-.314-6.308-.34-6.891-2.342.063-6.25.21-7.735.233zM562.352 357.292c.072 1.516.265 5.797.206 6.905 1.87-.05 5.446-.085 6.555-.175.085-1.521.332-5.869.215-6.977-2.1.081-5.446.193-6.976.247zM570.606 356.978c0 1.283-.161 5.792-.22 7.017 1.853-.072 6.061-.22 7.156-.247.292-1.503.875-5.406 1.05-7.053-1.75.059-6.707.247-7.986.283zM577.83 365.278c-2.392.077-6.237.18-7.538.23-.201 2.951-.57 8.053-.744 9.22 2.104-.046 6.357-.18 7.29-.207.7-1.4 2.216-5.77 2.566-7.112-.525-.816-.933-1.283-1.575-2.13zM562.621 365.682c0 1.05.184 8.565.229 9.207 1.368-.045 4.921-.094 5.446-.153.265-2.925.664-8.529.736-9.229-2.423.067-4.8.14-6.411.175zM531.666 363.887l-3.037.539c-1.4 2.261-6.586 9.256-7.227 10.072 3.611-.103 9.26-.21 10.619-.34-.1-1.876-.35-9.342-.355-10.27zM533.012 363.618c.072 2.392.3 8.763.359 10.454 1.79-.103 5.087-.318 6.429-.435-.31-3.006-.875-10.185-.992-11.06-1.503.274-4.455.794-5.796 1.041z"/>
    <path d="M377.29 656.93c.091.001.103.079-.001.078l-7.678-.095c-.104-.001-.09-.079.001-.078l7.678.095zM383.33 650.78c.091.003.102.081-.002.078l-6.083-.167c-.104-.003-.089-.081.002-.078l6.083.167zM376.91 652.54c.091.001.103.079-.001.078l-6.808-.05c-.104 0-.09-.078 0-.078l6.809.05zM377.11 648.12c.091 0 .104.078 0 .078l-7.121-.037c-.104 0-.09-.078.001-.077l7.12.036zM376.62 644.63c.091.001.102.08-.001.078l-6.919-.104c-.104-.002-.09-.08.001-.078l6.919.104z" transform="matrix(4.4862 0 0 4.4867 -1190.9 -2609)" stroke-width=".138" stroke="#000"/>
    <path d="M383.78 642.59c.091-.001.105.077.001.078l-5.938.057c-.104.001-.092-.077-.001-.078l5.938-.057z" fill="#fff" transform="matrix(4.4862 0 0 4.4867 -1190.9 -2609)" stroke-width=".138" stroke="#000"/>
    <path d="M384.15 645.91c.091 0 .104.078 0 .078h-6.562c-.104 0-.091-.078 0-.078h6.562zM390.59 650.64c.091 0 .104.078 0 .078h-7.072c-.104 0-.091-.078 0-.078h7.072zM390.69 644.73c.091.001.103.079-.001.078l-7.225-.071c-.104-.001-.09-.079.001-.078l7.225.071zM384.01 655.12c.091.001.103.079-.001.078l-6.356-.042c-.104-.001-.09-.079.001-.078l6.356.042zM390.22 655.98c.091.001.103.079-.001.078l-5.587-.074c-.104-.001-.089-.079.002-.078l5.586.074z" transform="matrix(4.4862 0 0 4.4867 -1190.9 -2609)" stroke-width=".138" stroke="#000"/>
    <path d="M395.26 657.05c.157-.349.179-1.151.089-1.455a1.106 1.106 0 0 1-.647-.04 2.973 2.973 0 0 0-.341-.106c-.022.402-.168 1.426-.348 1.822-.314.089-.947-.015-1.307-.128l-.262.942a3.45 3.45 0 0 0 1.452-.009c-.035.601-.114 1.148-.439 1.526.531.012 1.006-.066 1.18-.252a.403.403 0 0 1 .053-.048c.245-.41.252-.944.311-1.304.181.013.415-.039.519-.143s.273-.156.442-.143c.154.012.394-.02.699-.143.008-.184.044-.384.107-.558.034-.095.071-.253.102-.444-.387.185-1.25.494-1.61.483z" transform="matrix(4.4862 0 0 4.4867 -1190.9 -2609)" stroke-width=".138" stroke="#000" fill="#ef072d"/>
    <path d="M370.46 623.2c-.791.023-2.513.039-2.875.242-.361.204-.52.294.113.407s1.704.414 2.291.776c.587.361 1.079 1.001.917 1.914-.485 2.743.949 5.381 3.027 6.376.201.096.249.169.204.542s-.181.995-.294 1.153c-.113.159-.169.419.192.294-.248.464-.802 1.391-.971 1.628-1.661-.203-3.016.023-3.141 1.763-.012.17.046.441.305.012.26-.43.554-.837 1.265-.95-.418.644-.553 1.221-.485 1.594.067.373.169.599.35.124.181-.474.514-.918.87-1.187.135-.101.226-.124.124.17s.045.927.249 1.142c.203.214.305.124.248-.226-.056-.351.032-1.084.463-1.312.621-.327 1.152-.158 1.401.272.248.429.463.022.192-.464s-.554-.825-1.006-.859c.396-.701.859-1.549.961-1.718.101-.17.26-.249.395-.147.136.102.226.09.362-.192.135-.283.372-1.119.711-1.458.17-.046.441-.113.542-.204.441.644.836 1.357.938 1.515.101.158.215.226.113.554s-.452 1.368-.508 1.594c-1.232.045-1.796.067-2.192.757-.173.301.102.418.396.26.293-.158.711-.294.926-.26.214.034.315.144.101.249-.756.373-1.229.847-1.197 1.503.011.237.109.355.294.034.26-.452.734-.904 1.31-1.029-.034.554.091 1.368.429 1.538.339.169.363-.003.237-.328-.203-.52.008-1.043.26-1.323.531-.588 1.74.226 1.966.43.226.203.432.288.305-.238-.17-.7-1.164-1.107-2.011-1.22.237-1.142.87-3.448 1.209-4.239.497.271.885-.444 1.717-.136 1.4.52 3.501 1.831 3.863 2.125.361.294.497.226.678.068.18-.158.497 0 .745.045.249.045.475.113.158-.52-.316-.633-1.084-1.741-2.372-2.6.768.068 1.808.068 1.808-.135 0-.204-1.198-.588-1.695-.633.475-.113 1.198-.385 1.536-.769.201-.227-.04-.28-.745-.294-2.169-.045-3.253-.028-4.383-.678-1.807-1.04-2.841-2.135-3.728-2.6-.474-.249-.763-.823-.946-1.319-.587-1.583-.558-2.295-1.936-2.815s-2.963.117-3.686.772z" transform="matrix(4.4862 0 0 4.4867 -1190.9 -2609)" stroke-width=".138" stroke="#000"/>
    <path d="M370.55 623.56c-.351-.013-1.04-.096-1.611-.039-.13.013-.286.078.026.117s1.156.246 1.455.35.169.26-.091.195-.356.031-.143.182c1.105.78 1.222 1.079.936 3.755.208.143.377.247.559.338s.13.221-.065.169-.377.065-.065.13.454.208.156.195c-.299-.013-.65.247-.065.182.584-.065.818.208.13.221-.689.013-.429.234-.065.234.649 0 .454.182.286.182-.169 0-.247.221.182.182.428-.039.597-.052.753-.026s.221.155-.013.169c-.234.012-.221.181.13.181s.497.106.182.169c-.13.026-.31.091.065.143.65.091.676.247.468.273s-.234.143.065.169c.298.026.558.117.312.182-.247.065-.377.208-.066.234.312.026.572.143.338.221s-.286.221.013.208.416.156.208.272c-.208.117-.351.195-.481-.012-.129-.208-.207-.273-.246-.117-.039.155-.13.052-.234-.182s-.286-.299-.234-.117-.182.208-.403.117c.819.831 2.027 1.585 3.95.805.164-.066.195 0 .325.273s.494.871.624 1.092.233.022.298-.195c.26-.858.455-1.495.533-1.728.078-.234.442-.468.325.35.286-.195 1.553-.379 2.534-.013 1.078.403 2.162 1.028 2.716 1.443a.624.624 0 0 0 .493.143c.26-.026.325-.065-.169-.52-.493-.455-.285-.676.026-.455.312.221.481.091.247-.182s-.792-.805-.974-.935-.208-.182-.624-.208-1.299-.026-1.559-.026-.338.026.234.234c.571.207 1.741.961 2.001 1.143s.442.598-.13.234-2.365-1.481-3.56-1.897c-2.729.182-4.886.546-6.497-1.221-.772-.846-.806-2.781.493-3.587-.26-.221-.221-.351-.117-.403s.143-.104.039-.234c-.103-.13-.091-.246 0-.298-.285-.156-.415-.338-.402-.533-.351-.078-.507-.494-.975-.364s-.702.026-.844-.091c-.144-.117-.26-.169-.52-.143s-.468-.078-.481-.208.22-.193.572-.039c.74.325 1.338.481 1.793-.13.455-.61-.13-1.182-1.001-1.351-.87-.169-1.507.468-1.832.767z" transform="matrix(4.4862 0 0 4.4867 -1190.9 -2609)" stroke-width=".138" stroke="#000" fill="#fff"/>
    <path d="M374.92 623.33c-.262-.284-.728-.546-.961-.624-.234-.078-.26.156-.13.273-.104.156-.143.533.039.637s.184.252.013.337c-.26.13-.172.82.22.624.13-.065.234-.039.208.065s.026.234.143.26.104.195.078.26.013.091.143.104.143.325-.091.429c.286 0 .364-.052.442.182.078.233.39.285.39.571s-.052.338-.39.286-.468.052-.572.182-.13.26.13.273.312.13.052.247-.688.039-.753.286c-.065.246 0 .363.194.272.195-.09.598-.259.754-.35s.299-.104.429.104.026.441-.195.26c-.221-.182-.325-.014-.455.09s-.325.169-.533.169c-.207 0-.35.027-.324.494.078 1.404 1.169 2.443 3.17 2.417s2.989-.052 3.288-.013c-.663-.364-1.079-.559-1.313-.533s-.429.065-.325-.117-.013-.182-.117-.26-.233-.182-.441.039-.702.468-.949.52-.546.039-.312-.195.754-.312.91-.416.156-.168.156-.246-.039-.299.26-.13c.597.338 1.533.844 1.78.831s.416-.117.195-.26-.286-.35-.221-.428.104-.156.494.065c.389.22 1.026.506 1.26.61s.546.065.065-.286c-.481-.35-1.975-1.338-2.391-1.65s-.234.065-.195.182-.286.26-.455.117-.286-.299-.052-.429.286-.143-.065-.455c-.35-.311-.454-.285-.376-.026.078.26.104.546-.26.403s-.546-.312-.312-.455c.234-.142.533-.22.143-.545s-.273 0-.364.182-.39.182-.559.039-.247-.286-.13-.403.104-.182.273-.091.429.039.117-.234-.429-.156-.364 0-.182.429-.571.065c-.185-.172-.182-.403.013-.442.194-.039.213-.14.077-.338-.792-1.156-.467-2.092-1.26-2.949z" transform="matrix(4.4862 0 0 4.4867 -1190.9 -2609)" stroke-width=".138" stroke="#000" fill="#fff"/>
    <path d="M491.65 188.413c-.306.457-.418.44-.983.816-.696.462-.853 1.786.314 1.629.807-.108 1.278-.588 1.597-.978-.256-.494-.56-.983-.929-1.467zM488.015 185.496c-.897.87-1.054 1.261-.596 1.261.543 0 .31.076-.08.7-.387.624.78.933 1.246.467s.543-.624.776 0c.189.507.956.026 1.44-.463-.794-.767-1.861-1.476-2.786-1.965zM486.4 190.521c-1.166.584-.771 3.68.987 2.8.584-.292 1.05-.175.934.292-.063.246-.023.53.107.753a5.405 5.405 0 0 0 1.934-1.395c1.09-1.243.076-1.166-1.552-1.166-1.633 0-2.1-.31-.548-1.243 1.391-.835.485-1.414-1.44-1.144.278.394.14.825-.422 1.103zM493.085 197.386c-.857-.933-.314-1.4.619-1.866a1.21 1.21 0 0 0 .498-.427c-.265-1.027-.476-2.014-.754-2.974-.489.139-1.058 1.229-1.22 1.767-.233.777-.467 1.243-1.243 1.01-.69-.207-1.381.57-1.525 1.4.108.045.274.076.494.098.323.032.484.472.385.938 2.104-.067 2.463 1.387 2.822 2.383.39 1.09.857.933 1.167.314.31-.624-.39-1.71-1.243-2.643z" fill="#cf6200"/>
    <path d="M493.668 209.59c-.381.861-.39.776-1.633.852-1.243.081-2.808.292-3.495 1.014-.372.386-2.52.49-2.525 1.436-.01.951 0 1.75.933 1.808.928.058 1.045.175.7.875-.355.7-.584 1.867 1.045 1.983 1.633.117 2.8-.408 3.208.52.408.934-.032 2.423.291 2.975s1.427.907 3.136 1.436c1.14.355 5.442.556 6.765.404 1.32-.157.826-.947-.498-1.063-1.319-.117-2.292-.31-2.602-1.28-.31-.973-.583-1.48.157-2.292.736-.816 1.476-1.44 1.05-2.8-.43-1.36-1.13-2.956-2.683-3.383-1.556-.426-1.063-2.552-2.606-2.759-.583-.076-1.086-.076-1.243.274z" fill="#ff0"/>
    <path d="M486.131 222.242c1.337.117 2.504.525 1.4.817-1.108.292-1.691.933-.296 1.05 1.4.116 2.566.641 1.516.991s-1.283.992.059.934 1.866.7.933 1.22c-.933.525-1.575.875-2.158-.054-.579-.933-.929-1.225-1.104-.525-.175.696-.583.233-1.05-.816s-1.283-1.342-1.05-.525-.816.933-1.807.525c.978.991 2.077 1.956 3.328 2.772 1.432-.489 3.01-.09 3.55-.036.582.059 2.39.467 3.382.992s1.633-.408 1.224-1.458c-.408-1.046-.466-.696-.991-.117-.525.583-.642-.233-.583-1.453.05-1.032-.642-.759-.875-.117s-.758-.408-.467-1.05-.058-.875-.583-.7-.583 0-.641-1.167-.584-.991-.759-.524-.641-.175-1.34-1.109c-.611-.816-1.315-.336-2.536.148.153.09.431.166.848.202z" fill="#cf6200"/>
    <path d="M500.308 229.466c-6.37 2.584-10.965 1.436-14.423-.857 1.43-.49 3.041-.072 3.58-.018.583.058 2.39.467 3.382.992s1.633-.409 1.225-1.459c.875 1.109 1.516 1.867 2.561 1.809 1.05-.059 2.8-.234 3.675-.467zM486.714 200.123c-.39-1.32-.776-1.633-1.475-1.553-.7.077-1.01-.08-1.79-.39-.777-.31-1.786.076-1.943 1.476s-1.01 2.1-2.176 2.953c-1.166.856-1.866 1.556-1.866 2.956s-.31 1.786-1.086 2.8c-.345.449-.834.96-1.292 1.498.503.315.974.588 1.467.83.817.409.583.992-.291.759s-1.692.291-.292.583 2.037.933.7.875c-1.341-.058-2.916 1.108-.292.817 2.62-.292 3.67.933.583.991-3.09.058-1.924 1.05-.291 1.05 2.911 0 2.037.817 1.283.817-.758 0-1.108.991.816.816.027-.004.05-.009.081-.009.278-.287.485-.646.637-1.1.31-.932.62-3.656 1.71-4.432 1.085-.776 1.632-1.866 1.632-2.643s1.629-4.195 2.72-5.052 1.556-2.719 1.165-4.042z" fill="#ff0"/>
    <path d="M484.427 200.168c-1.104-.736-2.176-.31-2.176 1.09s-.7 1.786-1.633 2.252c-.929.467-1.786 1.633-1.943 2.724-.152 1.086.157 1.785-.619 2.642-.78.853-.857 1.553-.31 2.02.543.466.543.547.777 1.242.233.7 1.552-.076 1.552-.852s.314-.776 1.166-1.243c.857-.467 2.257-2.723 1.943-3.343-.31-.623-1.086-1.166-.076-2.023 1.009-.853 2.1-.933 2.1-1.786 0-.857.309-1.166.618-1.476.314-.314-.7-.78-1.4-1.247z" fill="#cf6200"/>
    <path d="M484.427 199.046c-.727-.283-1.162 1.243-.153 1.476s1.166-1.09.153-1.476zM484.247 201.02c-.772.094-1.633 1.108-.35.933s1.808-1.108.35-.933zM482.722 202.905c-.794.399-.642 1.458.525.7s1.458-1.692-.525-.7zM481.466 204.52c-.799.395-.642 1.454.525.7 1.166-.758 1.458-1.692-.525-.7z"/>
    <path d="M479.85 205.283c-.793.399-.291 1.458.875.7s1.109-1.692-.874-.7zM480.838 206.27c-.794.399-.292 1.458.874.7s1.108-1.692-.874-.7z"/>
    <path d="M479.447 206.673c-.794.4-.292 1.459.875.7s1.108-1.691-.875-.7zM480.344 207.795c-.798.4-.292 1.458.87.7 1.167-.758 1.109-1.691-.87-.7z"/>
    <path d="M478.998 208.468c-.794.395-.291 1.454.875.696s1.108-1.687-.875-.696z"/>
    <path d="M479.088 209.5c-.794.4-.292 1.458.875.7s1.108-1.691-.875-.7z"/>
    <path d="M478.46 219.326c-.803.103-1.32 1.247-.31 1.48s1.243.31 1.243 1.086.314 1.867 1.4 1.943c1.09.08 2.023-1.166 1.09-1.552-.933-.39-1.79-.7-1.866-1.557-.077-.853-.934-1.476-1.557-1.4z" fill="#cf6200"/>
    <path d="M507.082 212.64c.143.18.323.378.53.553.757.641 2.215 0 2.04-.525s-.991-2.217.875-.817 8.569 5.833 10.727 7.403c2.158 1.575.758 1.75-.292 1.283s-3.907-1.75-5.652-2.737c-1.75-.991-1.925-.641-2.217-.291-.246.291-.049.996.593 1.593-1.041.152-2.733-.077-3.217-1.185-.583-1.341-1.983-2.975-2.974-4.258-.368-.475-.476-.771-.413-1.018z" fill="#ff0"/>
    <path d="M564.909 403.64c-1.454.991-3.378 2.741-2.1 5.186.153-.08.297-.175.445-.26 5.702-6.9 10.582-14.156 14.764-21.693.049-.26.094-.507.125-.723-1.633 1.4-4.199 2.796-5.249 3.146.7 1.866-2.561 4.316-4.31 5.016.699 1.166.466 2.916-1.05 3.266.35 1.045-.817 1.045-2.217 1.629s-2.1 1.05-2.561 1.75c.753-.409 1.803-.759 2.386-.584s.7 1.05-.35 1.283-1.745.817-2.1 1.284c1.517-.584 3.675-.292 2.217.7z" fill="#00d860"/>
    <path d="M375.97 628.41c-.384-.335-.481-.13-.325.078s.039.312-.299.364-.845.117-1.053.117-.454.286.039.26c.494-.026 1.326-.195 1.547-.286s.402-.26.091-.533zM376.72 629c-.317-.285-.429-.208-.351 0s-.065.247-.272.312c-.208.065-1.027.338-1.378.377s-.429.286.091.273 1.52-.429 1.637-.507.156-.234.286-.156.247-.065-.013-.299zM376.96 629.83c-.23.137-.805.389-1.039.454s-.429.325.065.286c.493-.039 1.078-.494 1.234-.584.156-.091.234-.156.364-.143s.364-.169-.065-.403-.689-.117-.481.065.052.247-.078.325z" transform="matrix(4.4862 0 0 4.4867 -1190.9 -2609)" stroke-width=".138" stroke="#000"/>
    <path d="M482.049 187.515c-2.849-1.87-6.101 2.05-2.952 4.2 2.759 1.884 5.675-2.41 2.952-4.2z"/>
    <path d="M478.505 189.22l.843.059c-.175.87.7 2.185 2.041 1.861-1.076.817-3.176-.116-2.884-1.92zM489.54 231.71c.862.25 3.854.556 4.868.605-.507 1.068-.964 1.777-1.27 2.54-.304.758-.452.812-.506-.355-.05-1.171-.709-1.93-1.315-.713-.61 1.22-.915 1.673-1.215 2.18-.305.507-.763.714-.61-.556s.103-2.59.049-3.702z" fill="#fff"/>
    <path d="M399.67 640.77c-.046 16.332-2.623 33.927-23.764 42.308-21.142-8.381-23.719-25.976-23.765-42.308h47.529zM399.67 640.77c.018-6.152-.324-12.125-.168-17.359-7.9-3.535-18.295-4.262-23.596-4.262-5.302 0-15.697.727-23.597 4.262.156 5.234-.185 11.207-.168 17.359h47.529z" transform="matrix(4.4862 0 0 4.4867 -1190.9 -2609)" stroke="#000" stroke-width=".275" fill="none"/>
  </g>
</svg>
